KRenderingPaintServer {id="" [type=LINEAR-GRADIENT] [stops=[(0.00,#800000), (1.00,#FF0000)]] [start=(0,0)] [end=(1,0)]}
layer at (0,0) size 800x600
  RenderView at (0,0) size 800x600
layer at (0,0) size 300x200
  RenderSVGRoot {svg} at (-0.50,-0.50) size 301x201
    RenderPath {circle} at (100,50) size 100x100 [fill={[type=SOLID] [color=#FF0000]}] [data="M200.00,100.00 L199.90,103.14 L199.61,106.27 L199.11,109.37 L198.43,112.43 L197.55,115.45 L196.49,118.41 L195.24,121.29 L193.82,124.09 L192.22,126.79 L190.45,129.39 L188.53,131.87 L186.45,134.23 L184.23,136.45 L181.87,138.53 L179.39,140.45 L176.79,142.22 L174.09,143.82 L171.29,145.24 L168.41,146.49 L165.45,147.55 L162.43,148.43 L159.37,149.11 L156.27,149.61 L153.14,149.90 L150.00,150.00 L146.86,149.90 L143.73,149.61 L140.63,149.11 L137.57,148.43 L134.55,147.55 L131.59,146.49 L128.71,145.24 L125.91,143.82 L123.21,142.22 L120.61,140.45 L118.13,138.53 L115.77,136.45 L113.55,134.23 L111.47,131.87 L109.55,129.39 L107.78,126.79 L106.18,124.09 L104.76,121.29 L103.51,118.41 L102.45,115.45 L101.57,112.43 L100.89,109.37 L100.39,106.27 L100.10,103.14 L100.00,100.00 L100.10,96.86 L100.39,93.73 L100.89,90.63 L101.57,87.57 L102.45,84.55 L103.51,81.59 L104.76,78.71 L106.18,75.91 L107.78,73.21 L109.55,70.61 L111.47,68.13 L113.55,65.77 L115.77,63.55 L118.13,61.47 L120.61,59.55 L123.21,57.78 L125.91,56.18 L128.71,54.76 L131.59,53.51 L134.55,52.45 L137.57,51.57 L140.63,50.89 L143.73,50.39 L146.86,50.10 L150.00,50.00 L153.14,50.10 L156.27,50.39 L159.37,50.89 L162.43,51.57 L165.45,52.45 L168.41,53.51 L171.29,54.76 L174.09,56.18 L176.79,57.78 L179.39,59.55 L181.87,61.47 L184.23,63.55 L186.45,65.77 L188.53,68.13 L190.45,70.61 L192.22,73.21 L193.82,75.91 L195.24,78.71 L196.49,81.59 L197.55,84.55 L198.43,87.57 L199.11,90.63 L199.61,93.73 L199.90,96.86"]
    RenderPath {rect} at (-0.50,-0.50) size 301x201 [stroke={[type=SOLID] [color=#0000FF]}] [fill={[type=SOLID] [color=#000000]}] [data="M0.00,0.00 L300.00,0.00 L300.00,200.00 L0.00,200.00"]
    RenderSVGText {text} at (10,30) size 193x23 contains 1 chunk(s)
      RenderSVGInlineText {#text} at (0,-18) size 193x23
        chunk 1 text run 1 at (10.00,30.00) startOffset 0 endOffset 23 width 193.00: "There should be a black"
    RenderSVGText {text} at (10,60) size 170x23 contains 1 chunk(s)
      RenderSVGInlineText {#text} at (0,-18) size 170x23
        chunk 1 text run 1 at (10.00,60.00) startOffset 0 endOffset 21 width 170.00: "rectangle with a blue"
    RenderSVGText {text} at (10,90) size 161x23 contains 1 chunk(s)
      RenderSVGInlineText {#text} at (0,-18) size 161x23
        chunk 1 text run 1 at (10.00,90.00) startOffset 0 endOffset 20 width 161.00: "border on this page."
