layer at (0,0) size 800x600
  RenderView at (0,0) size 800x600
layer at (0,0) size 450x450
  RenderSVGRoot {svg} at (265.20,219.61) size 161.15x104.39
    RenderPath {polygon} at (265.20,219.61) size 161.15x104.39 [stroke={[type=SOLID] [color=#00FF00] [stroke width=8.00]}] [data="M270.00,265.00 L300.00,285.00 L320.00,265.00 L340.00,285.00 L280.00,320.00 L390.00,320.00 L420.00,280.00 L280.00,225.00"]
