KCanvasResource {id="myclip" [type=CLIPPER] [clip data=[[winding=NON-ZERO] [path=M200.00,200.00 L300.00,200.00 L300.00,400.00 L200.00,400.00]]]}
layer at (0,0) size 800x600
  RenderView at (0,0) size 800x600
layer at (0,0) size 800x600
  RenderSVGRoot {svg} at (0,76) size 648x63
    RenderSVGHiddenContainer {defs} at (0,0) size 0x0
    RenderSVGContainer {g} at (0,76) size 648x63
      RenderSVGText {text} at (0,125) size 133x63 contains 1 chunk(s)
        RenderSVGInlineText {#text} at (0,-49) size 133x63
          chunk 1 text run 1 at (0.00,125.00) startOffset 0 endOffset 4 width 133.00: "PASS"
      RenderSVGText {text} at (0,125) size 648x63 contains 1 chunk(s)
        RenderSVGInlineText {#text} at (0,-49) size 648x63
          chunk 1 text run 1 at (0.00,125.00) startOffset 0 endOffset 28 width 648.00: "FAIL (should be clipped out)"
