layer at (0,0) size 800x600
  RenderView at (0,0) size 800x600
layer at (0,0) size 800x600
  RenderSVGRoot {svg} at (50,10) size 250x134
    RenderSVGHiddenContainer {defs} at (0,0) size 0x0
      RenderPath {rect} at (0,0) size 100x100 [fill={[type=SOLID] [color=#008000]}] [data="M0.00,0.00 L100.00,0.00 L100.00,100.00 L0.00,100.00"]
    RenderSVGContainer {g} at (50,10) size 100x100 [transform={m=((1.00,0.00)(0.00,1.00)) t=(50.00,10.00)}]
      RenderPath {rect} at (50,10) size 100x100 [fill={[type=SOLID] [color=#FF0000]}] [data="M0.00,0.00 L100.00,0.00 L100.00,100.00 L0.00,100.00"]
      RenderSVGContainer {use} at (50,10) size 100x100
        RenderSVGContainer {g} at (50,10) size 100x100
          RenderPath {rect} at (50,10) size 100x100 [fill={[type=SOLID] [color=#008000]}] [data="M0.00,0.00 L100.00,0.00 L100.00,100.00 L0.00,100.00"]
    RenderSVGContainer {g} at (200,10) size 100x100 [transform={m=((1.00,0.00)(0.00,1.00)) t=(0.00,60.00)}]
      RenderSVGContainer {use} at (200,10) size 100x100
        RenderSVGContainer {g} at (200,10) size 100x100 [transform={m=((1.00,0.00)(0.00,1.00)) t=(200.00,-50.00)}]
          RenderPath {rect} at (200,10) size 100x100 [fill={[type=SOLID] [color=#008000]}] [data="M0.00,0.00 L100.00,0.00 L100.00,100.00 L0.00,100.00"]
    RenderSVGText {text} at (60,140) size 236x18 contains 1 chunk(s)
      RenderSVGInlineText {#text} at (0,-14) size 236x18
        chunk 1 text run 1 at (60.00,140.00) startOffset 0 endOffset 36 width 236.00: "You should see two green rectangles."
