layer at (0,0) size 800x600
  RenderView at (0,0) size 800x600
layer at (0,0) size 800x600
  RenderSVGRoot {svg} at (20,40) size 480x88
    RenderSVGHiddenContainer {defs} at (0,0) size 0x0
      RenderSVGContainer {g} at (-2.50,-5) size 65x20
        RenderPath {rect} at (-2.50,-2.50) size 65x15 [stroke={[type=SOLID] [color=#000080] [stroke width=5.00]}] [fill={[type=SOLID] [color=#FF0000]}] [data="M0.00,0.00 L60.00,0.00 L60.00,10.00 L0.00,10.00"]
        RenderPath {circle} at (20,-5) size 20x20 [opacity=0.50] [fill={[type=SOLID] [color=#008000]}] [data="M40.00,5.00 L39.98,5.63 L39.92,6.25 L39.82,6.87 L39.69,7.49 L39.51,8.09 L39.30,8.68 L39.05,9.26 L38.76,9.82 L38.44,10.36 L38.09,10.88 L37.71,11.37 L37.29,11.85 L36.85,12.29 L36.37,12.71 L35.88,13.09 L35.36,13.44 L34.82,13.76 L34.26,14.05 L33.68,14.30 L33.09,14.51 L32.49,14.69 L31.87,14.82 L31.25,14.92 L30.63,14.98 L30.00,15.00 L29.37,14.98 L28.75,14.92 L28.13,14.82 L27.51,14.69 L26.91,14.51 L26.32,14.30 L25.74,14.05 L25.18,13.76 L24.64,13.44 L24.12,13.09 L23.63,12.71 L23.15,12.29 L22.71,11.85 L22.29,11.37 L21.91,10.88 L21.56,10.36 L21.24,9.82 L20.95,9.26 L20.70,8.68 L20.49,8.09 L20.31,7.49 L20.18,6.87 L20.08,6.25 L20.02,5.63 L20.00,5.00 L20.02,4.37 L20.08,3.75 L20.18,3.13 L20.31,2.51 L20.49,1.91 L20.70,1.32 L20.95,0.74 L21.24,0.18 L21.56,-0.36 L21.91,-0.88 L22.29,-1.37 L22.71,-1.85 L23.15,-2.29 L23.63,-2.71 L24.12,-3.09 L24.64,-3.44 L25.18,-3.76 L25.74,-4.05 L26.32,-4.30 L26.91,-4.51 L27.51,-4.69 L28.13,-4.82 L28.75,-4.92 L29.37,-4.98 L30.00,-5.00 L30.63,-4.98 L31.25,-4.92 L31.87,-4.82 L32.49,-4.69 L33.09,-4.51 L33.68,-4.30 L34.26,-4.05 L34.82,-3.76 L35.36,-3.44 L35.88,-3.09 L36.37,-2.71 L36.85,-2.29 L37.29,-1.85 L37.71,-1.37 L38.09,-0.88 L38.44,-0.36 L38.76,0.18 L39.05,0.74 L39.30,1.32 L39.51,1.91 L39.69,2.51 L39.82,3.13 L39.92,3.75 L39.98,4.37"]
      RenderSVGContainer {use} at (-2.50,-5) size 65x20
        RenderSVGContainer {g} at (-2.50,-5) size 65x20
          RenderSVGContainer {g} at (-2.50,-5) size 65x20
            RenderPath {rect} at (-2.50,-2.50) size 65x15 [stroke={[type=SOLID] [color=#000080] [stroke width=5.00]}] [fill={[type=SOLID] [color=#FF0000]}] [data="M0.00,0.00 L60.00,0.00 L60.00,10.00 L0.00,10.00"]
            RenderPath {circle} at (20,-5) size 20x20 [opacity=0.50] [fill={[type=SOLID] [color=#008000]}] [data="M40.00,5.00 L39.98,5.63 L39.92,6.25 L39.82,6.87 L39.69,7.49 L39.51,8.09 L39.30,8.68 L39.05,9.26 L38.76,9.82 L38.44,10.36 L38.09,10.88 L37.71,11.37 L37.29,11.85 L36.85,12.29 L36.37,12.71 L35.88,13.09 L35.36,13.44 L34.82,13.76 L34.26,14.05 L33.68,14.30 L33.09,14.51 L32.49,14.69 L31.87,14.82 L31.25,14.92 L30.63,14.98 L30.00,15.00 L29.37,14.98 L28.75,14.92 L28.13,14.82 L27.51,14.69 L26.91,14.51 L26.32,14.30 L25.74,14.05 L25.18,13.76 L24.64,13.44 L24.12,13.09 L23.63,12.71 L23.15,12.29 L22.71,11.85 L22.29,11.37 L21.91,10.88 L21.56,10.36 L21.24,9.82 L20.95,9.26 L20.70,8.68 L20.49,8.09 L20.31,7.49 L20.18,6.87 L20.08,6.25 L20.02,5.63 L20.00,5.00 L20.02,4.37 L20.08,3.75 L20.18,3.13 L20.31,2.51 L20.49,1.91 L20.70,1.32 L20.95,0.74 L21.24,0.18 L21.56,-0.36 L21.91,-0.88 L22.29,-1.37 L22.71,-1.85 L23.15,-2.29 L23.63,-2.71 L24.12,-3.09 L24.64,-3.44 L25.18,-3.76 L25.74,-4.05 L26.32,-4.30 L26.91,-4.51 L27.51,-4.69 L28.13,-4.82 L28.75,-4.92 L29.37,-4.98 L30.00,-5.00 L30.63,-4.98 L31.25,-4.92 L31.87,-4.82 L32.49,-4.69 L33.09,-4.51 L33.68,-4.30 L34.26,-4.05 L34.82,-3.76 L35.36,-3.44 L35.88,-3.09 L36.37,-2.71 L36.85,-2.29 L37.29,-1.85 L37.71,-1.37 L38.09,-0.88 L38.44,-0.36 L38.76,0.18 L39.05,0.74 L39.30,1.32 L39.51,1.91 L39.69,2.51 L39.82,3.13 L39.92,3.75 L39.98,4.37"]
    RenderSVGContainer {g} at (245,40) size 130x40 [transform={m=((1.00,0.00)(0.00,1.00)) t=(125.00,25.00)}]
      RenderSVGContainer {g} at (245,40) size 130x40
        RenderPath {rect} at (245,45) size 130x30 [stroke={[type=SOLID] [color=#000080] [stroke width=5.00]}] [fill={[type=SOLID] [color=#FF0000]}] [data="M0.00,0.00 L60.00,0.00 L60.00,10.00 L0.00,10.00"]
        RenderPath {circle} at (290,40) size 40x40 [opacity=0.50] [fill={[type=SOLID] [color=#008000]}] [data="M40.00,5.00 L39.98,5.63 L39.92,6.25 L39.82,6.87 L39.69,7.49 L39.51,8.09 L39.30,8.68 L39.05,9.26 L38.76,9.82 L38.44,10.36 L38.09,10.88 L37.71,11.37 L37.29,11.85 L36.85,12.29 L36.37,12.71 L35.88,13.09 L35.36,13.44 L34.82,13.76 L34.26,14.05 L33.68,14.30 L33.09,14.51 L32.49,14.69 L31.87,14.82 L31.25,14.92 L30.63,14.98 L30.00,15.00 L29.37,14.98 L28.75,14.92 L28.13,14.82 L27.51,14.69 L26.91,14.51 L26.32,14.30 L25.74,14.05 L25.18,13.76 L24.64,13.44 L24.12,13.09 L23.63,12.71 L23.15,12.29 L22.71,11.85 L22.29,11.37 L21.91,10.88 L21.56,10.36 L21.24,9.82 L20.95,9.26 L20.70,8.68 L20.49,8.09 L20.31,7.49 L20.18,6.87 L20.08,6.25 L20.02,5.63 L20.00,5.00 L20.02,4.37 L20.08,3.75 L20.18,3.13 L20.31,2.51 L20.49,1.91 L20.70,1.32 L20.95,0.74 L21.24,0.18 L21.56,-0.36 L21.91,-0.88 L22.29,-1.37 L22.71,-1.85 L23.15,-2.29 L23.63,-2.71 L24.12,-3.09 L24.64,-3.44 L25.18,-3.76 L25.74,-4.05 L26.32,-4.30 L26.91,-4.51 L27.51,-4.69 L28.13,-4.82 L28.75,-4.92 L29.37,-4.98 L30.00,-5.00 L30.63,-4.98 L31.25,-4.92 L31.87,-4.82 L32.49,-4.69 L33.09,-4.51 L33.68,-4.30 L34.26,-4.05 L34.82,-3.76 L35.36,-3.44 L35.88,-3.09 L36.37,-2.71 L36.85,-2.29 L37.29,-1.85 L37.71,-1.37 L38.09,-0.88 L38.44,-0.36 L38.76,0.18 L39.05,0.74 L39.30,1.32 L39.51,1.91 L39.69,2.51 L39.82,3.13 L39.92,3.75 L39.98,4.37"]
    RenderSVGText {text} at (10,60) size 240x18 contains 1 chunk(s)
      RenderSVGInlineText {#text} at (0,-14) size 240x18
        chunk 1 text run 1 at (10.00,60.00) startOffset 0 endOffset 38 width 240.00: "The two objects should look identical."
    RenderSVGContainer {use} at (45,40) size 130x40
      RenderSVGContainer {g} at (45,40) size 130x40 [transform={m=((1.00,0.00)(0.00,1.00)) t=(25.00,25.00)}]
        RenderSVGContainer {g} at (45,40) size 130x40
          RenderSVGContainer {g} at (45,40) size 130x40
            RenderPath {rect} at (45,45) size 130x30 [stroke={[type=SOLID] [color=#000080] [stroke width=5.00]}] [fill={[type=SOLID] [color=#FF0000]}] [data="M0.00,0.00 L60.00,0.00 L60.00,10.00 L0.00,10.00"]
            RenderPath {circle} at (90,40) size 40x40 [opacity=0.50] [fill={[type=SOLID] [color=#008000]}] [data="M40.00,5.00 L39.98,5.63 L39.92,6.25 L39.82,6.87 L39.69,7.49 L39.51,8.09 L39.30,8.68 L39.05,9.26 L38.76,9.82 L38.44,10.36 L38.09,10.88 L37.71,11.37 L37.29,11.85 L36.85,12.29 L36.37,12.71 L35.88,13.09 L35.36,13.44 L34.82,13.76 L34.26,14.05 L33.68,14.30 L33.09,14.51 L32.49,14.69 L31.87,14.82 L31.25,14.92 L30.63,14.98 L30.00,15.00 L29.37,14.98 L28.75,14.92 L28.13,14.82 L27.51,14.69 L26.91,14.51 L26.32,14.30 L25.74,14.05 L25.18,13.76 L24.64,13.44 L24.12,13.09 L23.63,12.71 L23.15,12.29 L22.71,11.85 L22.29,11.37 L21.91,10.88 L21.56,10.36 L21.24,9.82 L20.95,9.26 L20.70,8.68 L20.49,8.09 L20.31,7.49 L20.18,6.87 L20.08,6.25 L20.02,5.63 L20.00,5.00 L20.02,4.37 L20.08,3.75 L20.18,3.13 L20.31,2.51 L20.49,1.91 L20.70,1.32 L20.95,0.74 L21.24,0.18 L21.56,-0.36 L21.91,-0.88 L22.29,-1.37 L22.71,-1.85 L23.15,-2.29 L23.63,-2.71 L24.12,-3.09 L24.64,-3.44 L25.18,-3.76 L25.74,-4.05 L26.32,-4.30 L26.91,-4.51 L27.51,-4.69 L28.13,-4.82 L28.75,-4.92 L29.37,-4.98 L30.00,-5.00 L30.63,-4.98 L31.25,-4.92 L31.87,-4.82 L32.49,-4.69 L33.09,-4.51 L33.68,-4.30 L34.26,-4.05 L34.82,-3.76 L35.36,-3.44 L35.88,-3.09 L36.37,-2.71 L36.85,-2.29 L37.29,-1.85 L37.71,-1.37 L38.09,-0.88 L38.44,-0.36 L38.76,0.18 L39.05,0.74 L39.30,1.32 L39.51,1.91 L39.69,2.51 L39.82,3.13 L39.92,3.75 L39.98,4.37"]
