KCanvasResource {id="mymask" [type=MASKER]}
layer at (0,0) size 800x600
  RenderView at (0,0) size 800x600
layer at (0,0) size 800x600
  RenderSVGRoot {svg} at (0,0) size 200x200
    RenderSVGHiddenContainer {defs} at (0,0) size 0x0
      RenderSVGContainer {mask} at (0,0) size 100x100
        RenderPath {rect} at (0,0) size 100x100 [fill={[type=SOLID] [color=#FFFFFF]}] [data="M0.00,0.00 L100.00,0.00 L100.00,100.00 L0.00,100.00"]
    RenderPath {rect} at (0,0) size 100x100 [fill={[type=SOLID] [color=#0000FF]}] [data="M0.00,0.00 L100.00,0.00 L100.00,100.00 L0.00,100.00"]
    RenderSVGContainer {g} at (0,0) size 200x200
      RenderSVGContainer {g} at (0,0) size 200x200
        RenderPath {rect} at (0,0) size 200x200 [fill={[type=SOLID] [color=#FF0000]}] [data="M0.00,0.00 L200.00,0.00 L200.00,200.00 L0.00,200.00"]
        RenderPath {rect} at (0,0) size 100x100 [fill={[type=SOLID] [color=#008000]}] [data="M0.00,0.00 L100.00,0.00 L100.00,100.00 L0.00,100.00"]
      RenderPath {rect} at (0,0) size 100x100 [fill={[type=SOLID] [color=#FF0000]}] [data="M0.00,0.00 L100.00,0.00 L100.00,100.00 L0.00,100.00"]
