KRenderingPaintServer {id="grad" [type=LINEAR-GRADIENT] [stops=[(0.00,#FFD700), (0.50,#FFA500), (1.00,#DC143C)]] [start=(0,0)] [end=(1,0)]}
KCanvasResource {id="clip" [type=CLIPPER] [clip data=[[winding=EVEN-ODD] [path=M0.00,0.00 L0.00,0.00 L0.00,0.00 L0.00,0.00]]]}
KCanvasResource {id="svgClip" [type=CLIPPER] [clip data=[[winding=EVEN-ODD] [path=M0.00,0.00 L0.00,0.00 L0.00,0.00 L0.00,0.00]]]}
layer at (0,0) size 800x600
  RenderView at (0,0) size 800x600
layer at (0,0) size 450x500
  RenderSVGRoot {svg} at (100,16) size 265x289
    RenderSVGContainer {g} at (100,16) size 265x289
      RenderSVGText {text} at (158,30) size 134x17 contains 1 chunk(s)
        RenderSVGInlineText {#text} at (0,-14) size 134x17
          chunk 1 (middle anchor) text run 1 at (158.50,30.00) startOffset 0 endOffset 20 width 133.00: "clip-path using text"
      RenderSVGText {text} at (106,50) size 238x17 contains 1 chunk(s)
        RenderSVGInlineText {#text} at (0,-14) size 238x17
          chunk 1 (middle anchor) text run 1 at (106.00,50.00) startOffset 0 endOffset 32 width 238.00: "(Using System font and SVG font)"
      RenderSVGHiddenContainer {defs} at (0,0) size 0x0
        RenderSVGHiddenContainer {linearGradient} at (0,0) size 0x0
          RenderSVGGradientStop {stop} at (0,0) size 0x0
          RenderSVGGradientStop {stop} at (0,0) size 0x0
          RenderSVGGradientStop {stop} at (0,0) size 0x0
      RenderPath {rect} at (100,160) size 200x45 [fill={[type=LINEAR-GRADIENT] [stops=[(0.00,#FFD700), (0.50,#FFA500), (1.00,#DC143C)]] [start=(0,0)] [end=(1,0)]}] [clip path="clip"] [data="M100.00,160.00 L300.00,160.00 L300.00,205.00 L100.00,205.00"]
      RenderSVGText {text} at (300,200) size 65x14 contains 1 chunk(s)
        RenderSVGInlineText {#text} at (0,-11) size 65x14
          chunk 1 text run 1 at (300.00,200.00) startOffset 0 endOffset 13 width 65.00: "(System font)"
      RenderPath {rect} at (100,260) size 200x45 [fill={[type=LINEAR-GRADIENT] [stops=[(0.00,#FFD700), (0.50,#FFA500), (1.00,#DC143C)]] [start=(0,0)] [end=(1,0)]}] [clip path="svgClip"] [data="M100.00,260.00 L300.00,260.00 L300.00,305.00 L100.00,305.00"]
      RenderSVGText {text} at (300,300) size 55x14 contains 1 chunk(s)
        RenderSVGInlineText {#text} at (0,-11) size 55x14
          chunk 1 text run 1 at (300.00,300.00) startOffset 0 endOffset 10 width 55.00: "(SVG font)"
    RenderSVGContainer {use} at (0,0) size 0x0
