layer at (0,0) size 800x600
  RenderView at (0,0) size 800x600
layer at (0,0) size 450x500
  RenderSVGRoot {svg} at (-34,6) size 434.50x488
    RenderSVGText {text} at (144,20) size 162x17 contains 1 chunk(s)
      RenderSVGInlineText {#text} at (0,-14) size 162x17
        chunk 1 (middle anchor) text run 1 at (144.00,20.00) startOffset 0 endOffset 22 width 162.00: "textLength with Anchor"
    RenderSVGHiddenContainer {defs} at (0,0) size 0x0
      RenderSVGContainer {g} at (200,3) size 50x24
        RenderPath {rect} at (200,5) size 50x20 [fill={[type=SOLID] [color=#DDE8FF]}] [data="M200.00,5.00 L250.00,5.00 L250.00,25.00 L200.00,25.00"]
        RenderPath {line} at (224.50,3) size 1x24 [stroke={[type=SOLID] [color=#FF0000]}] [fill={[type=SOLID] [color=#000000]}] [data="M225.00,3.00 L225.00,27.00"]
      RenderSVGContainer {g} at (49.50,-0.50) size 351x46
        RenderPath {rect} at (49.50,-0.50) size 351x46 [stroke={[type=SOLID] [color=#000000]}] [fill={[type=SOLID] [color=#D3D3D3]}] [data="M50.00,0.00 L400.00,0.00 L400.00,45.00 L50.00,45.00"]
        RenderSVGContainer {use} at (200,3) size 50x24
          RenderSVGContainer {g} at (200,3) size 50x24
            RenderSVGContainer {g} at (200,3) size 50x24
              RenderPath {rect} at (200,5) size 50x20 [fill={[type=SOLID] [color=#DDE8FF]}] [data="M200.00,5.00 L250.00,5.00 L250.00,25.00 L200.00,25.00"]
              RenderPath {line} at (224.50,3) size 1x24 [stroke={[type=SOLID] [color=#FF0000]}] [fill={[type=SOLID] [color=#000000]}] [data="M225.00,3.00 L225.00,27.00"]
      RenderSVGContainer {g} at (49.50,-0.50) size 351x46
        RenderPath {rect} at (49.50,-0.50) size 351x46 [stroke={[type=SOLID] [color=#000000]}] [fill={[type=SOLID] [color=#FFFFFF]}] [data="M50.00,0.00 L400.00,0.00 L400.00,45.00 L50.00,45.00"]
        RenderSVGContainer {use} at (200,3) size 50x24
          RenderSVGContainer {g} at (200,3) size 50x24
            RenderSVGContainer {g} at (200,3) size 50x24
              RenderPath {rect} at (200,5) size 50x20 [fill={[type=SOLID] [color=#DDE8FF]}] [data="M200.00,5.00 L250.00,5.00 L250.00,25.00 L200.00,25.00"]
              RenderPath {line} at (224.50,3) size 1x24 [stroke={[type=SOLID] [color=#FF0000]}] [fill={[type=SOLID] [color=#000000]}] [data="M225.00,3.00 L225.00,27.00"]
    RenderSVGContainer {g} at (-34,29.50) size 434.50x464.50
      RenderSVGContainer {g} at (49.50,29.50) size 351x46 [transform={m=((1.00,0.00)(0.00,1.00)) t=(0.00,30.00)}]
        RenderSVGContainer {use} at (49.50,29.50) size 351x46
          RenderSVGContainer {g} at (49.50,29.50) size 351x46
            RenderSVGContainer {g} at (49.50,29.50) size 351x46
              RenderPath {rect} at (49.50,29.50) size 351x46 [stroke={[type=SOLID] [color=#000000]}] [fill={[type=SOLID] [color=#D3D3D3]}] [data="M50.00,0.00 L400.00,0.00 L400.00,45.00 L50.00,45.00"]
              RenderSVGContainer {g} at (200,33) size 50x24
                RenderSVGContainer {g} at (200,33) size 50x24
                  RenderPath {rect} at (200,35) size 50x20 [fill={[type=SOLID] [color=#DDE8FF]}] [data="M200.00,5.00 L250.00,5.00 L250.00,25.00 L200.00,25.00"]
                  RenderPath {line} at (224.50,33) size 1x24 [stroke={[type=SOLID] [color=#FF0000]}] [fill={[type=SOLID] [color=#000000]}] [data="M225.00,3.00 L225.00,27.00"]
        RenderSVGText {text} at (202,19) size 46x14 contains 1 chunk(s)
          RenderSVGInlineText {#text} at (0,-11) size 46x14
            chunk 1 (middle anchor) text run 1 at (202.50,19.00) startOffset 0 endOffset 9 width 45.00: "xml-batik"
        RenderSVGText {text} at (191,40) size 68x14 contains 1 chunk(s)
          RenderSVGInlineText {#text} at (0,-11) size 68x14
            chunk 1 (middle anchor) text run 1 at (191.00,40.00) startOffset 0 endOffset 13 width 68.00: "No textLength"
      RenderSVGContainer {g} at (49.50,74.50) size 351x46 [transform={m=((1.00,0.00)(0.00,1.00)) t=(0.00,75.00)}]
        RenderSVGContainer {use} at (49.50,74.50) size 351x46
          RenderSVGContainer {g} at (49.50,74.50) size 351x46
            RenderSVGContainer {g} at (49.50,74.50) size 351x46
              RenderPath {rect} at (49.50,74.50) size 351x46 [stroke={[type=SOLID] [color=#000000]}] [fill={[type=SOLID] [color=#FFFFFF]}] [data="M50.00,0.00 L400.00,0.00 L400.00,45.00 L50.00,45.00"]
              RenderSVGContainer {g} at (200,78) size 50x24
                RenderSVGContainer {g} at (200,78) size 50x24
                  RenderPath {rect} at (200,80) size 50x20 [fill={[type=SOLID] [color=#DDE8FF]}] [data="M200.00,5.00 L250.00,5.00 L250.00,25.00 L200.00,25.00"]
                  RenderPath {line} at (224.50,78) size 1x24 [stroke={[type=SOLID] [color=#FF0000]}] [fill={[type=SOLID] [color=#000000]}] [data="M225.00,3.00 L225.00,27.00"]
        RenderSVGText {text} at (221,19) size 8x14 contains 1 chunk(s)
          RenderSVGInlineText {#text} at (0,-11) size 8x14
            chunk 1 (middle anchor) text run 1 at (221.00,19.00) startOffset 0 endOffset 1 width 8.00: "B"
        RenderSVGText {text} at (99,40) size 252x14 contains 1 chunk(s)
          RenderSVGInlineText {#text} at (0,-11) size 252x14
            chunk 1 (middle anchor) text run 1 at (99.00,40.00) startOffset 0 endOffset 47 width 252.00: "textLength=\"50\" lengthAdjust=\"spacingAndGlyphs\""
      RenderSVGContainer {g} at (49.50,119.50) size 351x46 [transform={m=((1.00,0.00)(0.00,1.00)) t=(0.00,120.00)}]
        RenderSVGContainer {use} at (49.50,119.50) size 351x46
          RenderSVGContainer {g} at (49.50,119.50) size 351x46
            RenderSVGContainer {g} at (49.50,119.50) size 351x46
              RenderPath {rect} at (49.50,119.50) size 351x46 [stroke={[type=SOLID] [color=#000000]}] [fill={[type=SOLID] [color=#D3D3D3]}] [data="M50.00,0.00 L400.00,0.00 L400.00,45.00 L50.00,45.00"]
              RenderSVGContainer {g} at (200,123) size 50x24
                RenderSVGContainer {g} at (200,123) size 50x24
                  RenderPath {rect} at (200,125) size 50x20 [fill={[type=SOLID] [color=#DDE8FF]}] [data="M200.00,5.00 L250.00,5.00 L250.00,25.00 L200.00,25.00"]
                  RenderPath {line} at (224.50,123) size 1x24 [stroke={[type=SOLID] [color=#FF0000]}] [fill={[type=SOLID] [color=#000000]}] [data="M225.00,3.00 L225.00,27.00"]
        RenderSVGText {text} at (221,19) size 8x14 contains 1 chunk(s)
          RenderSVGInlineText {#text} at (0,-11) size 8x14
            chunk 1 (middle anchor) text run 1 at (221.00,19.00) startOffset 0 endOffset 1 width 8.00: "B"
        RenderSVGText {text} at (127,40) size 196x14 contains 1 chunk(s)
          RenderSVGInlineText {#text} at (0,-11) size 196x14
            chunk 1 (middle anchor) text run 1 at (127.00,40.00) startOffset 0 endOffset 38 width 196.00: "textLength=\"50\" lengthAdjust=\"spacing\""
      RenderSVGContainer {g} at (49.50,164.50) size 351x46 [transform={m=((1.00,0.00)(0.00,1.00)) t=(0.00,165.00)}]
        RenderSVGContainer {use} at (49.50,164.50) size 351x46
          RenderSVGContainer {g} at (49.50,164.50) size 351x46
            RenderSVGContainer {g} at (49.50,164.50) size 351x46
              RenderPath {rect} at (49.50,164.50) size 351x46 [stroke={[type=SOLID] [color=#000000]}] [fill={[type=SOLID] [color=#FFFFFF]}] [data="M50.00,0.00 L400.00,0.00 L400.00,45.00 L50.00,45.00"]
              RenderSVGContainer {g} at (200,168) size 50x24
                RenderSVGContainer {g} at (200,168) size 50x24
                  RenderPath {rect} at (200,170) size 50x20 [fill={[type=SOLID] [color=#DDE8FF]}] [data="M200.00,5.00 L250.00,5.00 L250.00,25.00 L200.00,25.00"]
                  RenderPath {line} at (224.50,168) size 1x24 [stroke={[type=SOLID] [color=#FF0000]}] [fill={[type=SOLID] [color=#000000]}] [data="M225.00,3.00 L225.00,27.00"]
        RenderSVGText {text} at (212,19) size 26x14 contains 1 chunk(s)
          RenderSVGInlineText {#text} at (0,-11) size 26x14
            chunk 1 (middle anchor) text run 1 at (212.50,19.00) startOffset 0 endOffset 5 width 25.00: "Batik"
        RenderSVGText {text} at (99,40) size 252x14 contains 1 chunk(s)
          RenderSVGInlineText {#text} at (0,-11) size 252x14
            chunk 1 (middle anchor) text run 1 at (99.00,40.00) startOffset 0 endOffset 47 width 252.00: "textLength=\"50\" lengthAdjust=\"spacingAndGlyphs\""
      RenderSVGContainer {g} at (49.50,209.50) size 351x46 [transform={m=((1.00,0.00)(0.00,1.00)) t=(0.00,210.00)}]
        RenderSVGContainer {use} at (49.50,209.50) size 351x46
          RenderSVGContainer {g} at (49.50,209.50) size 351x46
            RenderSVGContainer {g} at (49.50,209.50) size 351x46
              RenderPath {rect} at (49.50,209.50) size 351x46 [stroke={[type=SOLID] [color=#000000]}] [fill={[type=SOLID] [color=#D3D3D3]}] [data="M50.00,0.00 L400.00,0.00 L400.00,45.00 L50.00,45.00"]
              RenderSVGContainer {g} at (200,213) size 50x24
                RenderSVGContainer {g} at (200,213) size 50x24
                  RenderPath {rect} at (200,215) size 50x20 [fill={[type=SOLID] [color=#DDE8FF]}] [data="M200.00,5.00 L250.00,5.00 L250.00,25.00 L200.00,25.00"]
                  RenderPath {line} at (224.50,213) size 1x24 [stroke={[type=SOLID] [color=#FF0000]}] [fill={[type=SOLID] [color=#000000]}] [data="M225.00,3.00 L225.00,27.00"]
        RenderSVGText {text} at (202,19) size 46x14 contains 1 chunk(s)
          RenderSVGInlineText {#text} at (0,-11) size 46x14
            chunk 1 (middle anchor) text run 1 at (202.50,19.00) startOffset 0 endOffset 5 width 25.00: "Batik"
        RenderSVGText {text} at (127,40) size 196x14 contains 1 chunk(s)
          RenderSVGInlineText {#text} at (0,-11) size 196x14
            chunk 1 (middle anchor) text run 1 at (127.00,40.00) startOffset 0 endOffset 38 width 196.00: "textLength=\"50\" lengthAdjust=\"spacing\""
      RenderSVGContainer {g} at (49.50,254.50) size 351x46 [transform={m=((1.00,0.00)(0.00,1.00)) t=(0.00,255.00)}]
        RenderSVGContainer {use} at (49.50,254.50) size 351x46
          RenderSVGContainer {g} at (49.50,254.50) size 351x46
            RenderSVGContainer {g} at (49.50,254.50) size 351x46
              RenderPath {rect} at (49.50,254.50) size 351x46 [stroke={[type=SOLID] [color=#000000]}] [fill={[type=SOLID] [color=#FFFFFF]}] [data="M50.00,0.00 L400.00,0.00 L400.00,45.00 L50.00,45.00"]
              RenderSVGContainer {g} at (200,258) size 50x24
                RenderSVGContainer {g} at (200,258) size 50x24
                  RenderPath {rect} at (200,260) size 50x20 [fill={[type=SOLID] [color=#DDE8FF]}] [data="M200.00,5.00 L250.00,5.00 L250.00,25.00 L200.00,25.00"]
                  RenderPath {line} at (224.50,258) size 1x24 [stroke={[type=SOLID] [color=#FF0000]}] [fill={[type=SOLID] [color=#000000]}] [data="M225.00,3.00 L225.00,27.00"]
        RenderSVGText {text} at (193,19) size 64x14 contains 1 chunk(s)
          RenderSVGInlineText {#text} at (0,-11) size 64x14
            chunk 1 (middle anchor) text run 1 at (193.00,19.00) startOffset 0 endOffset 12 width 64.00: "Apache Batik"
        RenderSVGText {text} at (71,40) size 308x14 contains 1 chunk(s)
          RenderSVGInlineText {#text} at (0,-11) size 308x14
            chunk 1 (middle anchor) text run 1 at (71.00,40.00) startOffset 0 endOffset 59 width 308.00: "textLength=\"50\" lengthAdjust=\"spacingAndGlyphs\" (shrinking)"
      RenderSVGContainer {g} at (49.50,299.50) size 351x46 [transform={m=((1.00,0.00)(0.00,1.00)) t=(0.00,300.00)}]
        RenderSVGContainer {use} at (49.50,299.50) size 351x46
          RenderSVGContainer {g} at (49.50,299.50) size 351x46
            RenderSVGContainer {g} at (49.50,299.50) size 351x46
              RenderPath {rect} at (49.50,299.50) size 351x46 [stroke={[type=SOLID] [color=#000000]}] [fill={[type=SOLID] [color=#D3D3D3]}] [data="M50.00,0.00 L400.00,0.00 L400.00,45.00 L50.00,45.00"]
              RenderSVGContainer {g} at (200,303) size 50x24
                RenderSVGContainer {g} at (200,303) size 50x24
                  RenderPath {rect} at (200,305) size 50x20 [fill={[type=SOLID] [color=#DDE8FF]}] [data="M200.00,5.00 L250.00,5.00 L250.00,25.00 L200.00,25.00"]
                  RenderPath {line} at (224.50,303) size 1x24 [stroke={[type=SOLID] [color=#FF0000]}] [fill={[type=SOLID] [color=#000000]}] [data="M225.00,3.00 L225.00,27.00"]
        RenderSVGText {text} at (200,19) size 64x14 contains 1 chunk(s)
          RenderSVGInlineText {#text} at (0,-11) size 64x14
            chunk 1 text run 1 at (200.00,19.00) startOffset 0 endOffset 12 width 64.00: "Apache Batik"
        RenderSVGText {text} at (70,40) size 310x14 contains 1 chunk(s)
          RenderSVGInlineText {#text} at (0,-11) size 310x14
            chunk 1 (middle anchor) text run 1 at (70.00,40.00) startOffset 0 endOffset 59 width 310.00: "textLength=\"50\" lengthAdjust=\"spacingAndGlyphs\" (no anchor)"
      RenderSVGContainer {g} at (49.50,344.50) size 351x46 [transform={m=((1.00,0.00)(0.00,1.00)) t=(0.00,345.00)}]
        RenderSVGContainer {use} at (49.50,344.50) size 351x46
          RenderSVGContainer {g} at (49.50,344.50) size 351x46
            RenderSVGContainer {g} at (49.50,344.50) size 351x46
              RenderPath {rect} at (49.50,344.50) size 351x46 [stroke={[type=SOLID] [color=#000000]}] [fill={[type=SOLID] [color=#FFFFFF]}] [data="M50.00,0.00 L400.00,0.00 L400.00,45.00 L50.00,45.00"]
              RenderSVGContainer {g} at (200,348) size 50x24
                RenderSVGContainer {g} at (200,348) size 50x24
                  RenderPath {rect} at (200,350) size 50x20 [fill={[type=SOLID] [color=#DDE8FF]}] [data="M200.00,5.00 L250.00,5.00 L250.00,25.00 L200.00,25.00"]
                  RenderPath {line} at (224.50,348) size 1x24 [stroke={[type=SOLID] [color=#FF0000]}] [fill={[type=SOLID] [color=#000000]}] [data="M225.00,3.00 L225.00,27.00"]
        RenderSVGText {text} at (189,19) size 72x14 contains 1 chunk(s)
          RenderSVGInlineText {#text} at (0,-11) size 39x14
            chunk 1 (middle anchor) text run 1 at (189.00,19.00) startOffset 0 endOffset 7 width 39.00: "Apache "
          RenderSVGTSpan {tspan} at (0,0) size 25x14
            RenderSVGInlineText {#text} at (39,-11) size 25x14
              chunk 1 (middle anchor) text run 2 at (228.00,19.00) startOffset 0 endOffset 5 width 25.00: "Batik"
          RenderSVGInlineText {#text} at (64,-11) size 8x14
            chunk 1 (middle anchor) text run 3 at (253.00,19.00) startOffset 0 endOffset 2 width 8.00: "!!"
        RenderSVGText {text} at (81,40) size 288x14 contains 1 chunk(s)
          RenderSVGInlineText {#text} at (0,-11) size 288x14
            chunk 1 (middle anchor) text run 1 at (81.00,40.00) startOffset 0 endOffset 55 width 288.00: "textLength=\"50\" lengthAdjust=\"spacingAndGlyphs\" (tspan)"
      RenderSVGContainer {g} at (-34,379) size 434.50x115 [transform={m=((1.00,0.00)(0.00,1.00)) t=(0.00,390.00)}]
        RenderPath {rect} at (49.50,389.50) size 351x96 [stroke={[type=SOLID] [color=#000000]}] [fill={[type=SOLID] [color=#D3D3D3]}] [data="M50.00,0.00 L400.00,0.00 L400.00,95.00 L50.00,95.00"]
        RenderPath {rect} at (112.50,395) size 25x80 [fill={[type=SOLID] [color=#DDE8FF]}] [data="M112.50,5.00 L137.50,5.00 L137.50,85.00 L112.50,85.00"]
        RenderPath {line} at (124.50,393) size 1x84 [stroke={[type=SOLID] [color=#FF0000]}] [fill={[type=SOLID] [color=#000000]}] [data="M125.00,3.00 L125.00,87.00"]
        RenderSVGText {text} at (-34,79) size 318x115 contains 1 chunk(s)
          RenderSVGInlineText {#text} at (0,-90) size 318x115
            chunk 1 (middle anchor) text run 1 at (-33.50,79.00) startOffset 0 endOffset 9 width 317.00: "B a t i k"
        RenderSVGText {text} at (160,40) size 173x43 contains 3 chunk(s)
          RenderSVGInlineText {#text} at (0,-11) size 173x14
            chunk 1 text run 1 at (160.00,40.00) startOffset 0 endOffset 32 width 173.00: "lengthAdjust=\"spacingAndGlyphs\" "
          RenderSVGTSpan {tspan} at (0,0) size 79x15
            RenderSVGInlineText {#text} at (0,3) size 79x15
              chunk 2 text run 1 at (160.00,54.40) startOffset 0 endOffset 15 width 79.00: "textLength=\"25\""
          RenderSVGInlineText {#text} at (79,3) size 3x15
            chunk 2 text run 2 at (239.00,54.40) startOffset 0 endOffset 1 width 3.00: " "
          RenderSVGTSpan {tspan} at (0,0) size 76x15
            RenderSVGInlineText {#text} at (0,17) size 76x15
              chunk 3 text run 1 at (160.00,68.80) startOffset 0 endOffset 15 width 76.00: "font-size=\"100\""
    RenderSVGContainer {use} at (0,0) size 0x0
