layer at (0,0) size 800x600
  RenderView at (0,0) size 800x600
layer at (0,0) size 400x400
  RenderSVGRoot {svg} at (-2,-2) size 404x404
    RenderSVGText {text} at (10,15) size 50x6 contains 1 chunk(s)
      RenderSVGInlineText {#text} at (0,-5) size 50x6
        chunk 1 text run 1 at (10.00,15.00) startOffset 0 endOffset 21 width 50.00: "SVG Performance test."
    RenderSVGText {text} at (10,95) size 36x6 contains 1 chunk(s)
      RenderSVGInlineText {#text} at (0,-5) size 36x6
        chunk 1 text run 1 at (10.00,95.00) startOffset 0 endOffset 17 width 36.00: "Test not started."
    RenderPath {rect} at (-2,-2) size 404x404 [stroke={[type=SOLID] [color=#000000]}] [data="M0.00,0.00 L100.00,0.00 L100.00,100.00 L0.00,100.00"]
