layer at (0,0) size 480x360
  RenderView at (0,0) size 480x360
layer at (0,0) size 480x360
  RenderSVGRoot {svg} at (0.50,0.50) size 479x359
    RenderSVGText {text} at (10,340) size 264x46 contains 1 chunk(s)
      RenderSVGInlineText {#text} at (0,-36) size 264x46
        chunk 1 text run 1 at (10.00,340.00) startOffset 0 endOffset 16 width 264.00: "$Revision: 1.7 $"
    RenderPath {rect} at (0.50,0.50) size 479x359 [stroke={[type=SOLID] [color=#000000]}] [data="M1.00,1.00 L479.00,1.00 L479.00,359.00 L1.00,359.00"]
    RenderSVGText {text} at (173,25) size 134x18 contains 1 chunk(s)
      RenderSVGInlineText {#text} at (0,-14) size 134x18
        chunk 1 (middle anchor) text run 1 at (173.50,25.00) startOffset 0 endOffset 18 width 133.00: "<animateTransform>"
    RenderSVGHiddenContainer {defs} at (0,0) size 0x0
      RenderSVGContainer {g} at (-45,-45) size 90x90
        RenderPath {circle} at (-41.00,-41.00) size 82.00x82.00 [stroke={[type=SOLID] [color=#C0C0C0] [stroke width=2.00]}] [data="M40.00,0.00 L39.92,2.51 L39.68,5.01 L39.29,7.50 L38.74,9.95 L38.04,12.36 L37.19,14.72 L36.19,17.03 L35.05,19.27 L33.77,21.43 L32.36,23.51 L30.82,25.50 L29.16,27.38 L27.38,29.16 L25.50,30.82 L23.51,32.36 L21.43,33.77 L19.27,35.05 L17.03,36.19 L14.72,37.19 L12.36,38.04 L9.95,38.74 L7.50,39.29 L5.01,39.68 L2.51,39.92 L-0.00,40.00 L-2.51,39.92 L-5.01,39.68 L-7.50,39.29 L-9.95,38.74 L-12.36,38.04 L-14.72,37.19 L-17.03,36.19 L-19.27,35.05 L-21.43,33.77 L-23.51,32.36 L-25.50,30.82 L-27.38,29.16 L-29.16,27.38 L-30.82,25.50 L-32.36,23.51 L-33.77,21.43 L-35.05,19.27 L-36.19,17.03 L-37.19,14.72 L-38.04,12.36 L-38.74,9.95 L-39.29,7.50 L-39.68,5.01 L-39.92,2.51 L-40.00,-0.00 L-39.92,-2.51 L-39.68,-5.01 L-39.29,-7.50 L-38.74,-9.95 L-38.04,-12.36 L-37.19,-14.72 L-36.19,-17.03 L-35.05,-19.27 L-33.77,-21.43 L-32.36,-23.51 L-30.82,-25.50 L-29.16,-27.38 L-27.38,-29.16 L-25.50,-30.82 L-23.51,-32.36 L-21.43,-33.77 L-19.27,-35.05 L-17.03,-36.19 L-14.72,-37.19 L-12.36,-38.04 L-9.95,-38.74 L-7.50,-39.29 L-5.01,-39.68 L-2.51,-39.92 L0.00,-40.00 L2.51,-39.92 L5.01,-39.68 L7.50,-39.29 L9.95,-38.74 L12.36,-38.04 L14.72,-37.19 L17.03,-36.19 L19.27,-35.05 L21.43,-33.77 L23.51,-32.36 L25.50,-30.82 L27.38,-29.16 L29.16,-27.38 L30.82,-25.50 L32.36,-23.51 L33.77,-21.43 L35.05,-19.27 L36.19,-17.03 L37.19,-14.72 L38.04,-12.36 L38.74,-9.95 L39.29,-7.50 L39.68,-5.01 L39.92,-2.51"]
        RenderPath {line} at (-45,-0.50) size 90x1 [stroke={[type=SOLID] [color=#C0C0C0]}] [data="M-45.00,0.00 L45.00,0.00"]
        RenderPath {line} at (-0.50,-45) size 1x90 [stroke={[type=SOLID] [color=#C0C0C0]}] [data="M0.00,-45.00 L0.00,45.00"]
    RenderSVGContainer {g} at (15,45) size 447.00x254
      RenderSVGContainer {g} at (15,45) size 90x109 [transform={m=((1.00,0.00)(0.00,1.00)) t=(60.00,90.00)}]
        RenderSVGContainer {use} at (15,45) size 90x90
          RenderSVGContainer {g} at (15,45) size 90x90
            RenderSVGContainer {g} at (15,45) size 90x90
              RenderPath {circle} at (19.00,49.00) size 82.00x82.00 [stroke={[type=SOLID] [color=#C0C0C0] [stroke width=2.00]}] [data="M40.00,0.00 L39.92,2.51 L39.68,5.01 L39.29,7.50 L38.74,9.95 L38.04,12.36 L37.19,14.72 L36.19,17.03 L35.05,19.27 L33.77,21.43 L32.36,23.51 L30.82,25.50 L29.16,27.38 L27.38,29.16 L25.50,30.82 L23.51,32.36 L21.43,33.77 L19.27,35.05 L17.03,36.19 L14.72,37.19 L12.36,38.04 L9.95,38.74 L7.50,39.29 L5.01,39.68 L2.51,39.92 L-0.00,40.00 L-2.51,39.92 L-5.01,39.68 L-7.50,39.29 L-9.95,38.74 L-12.36,38.04 L-14.72,37.19 L-17.03,36.19 L-19.27,35.05 L-21.43,33.77 L-23.51,32.36 L-25.50,30.82 L-27.38,29.16 L-29.16,27.38 L-30.82,25.50 L-32.36,23.51 L-33.77,21.43 L-35.05,19.27 L-36.19,17.03 L-37.19,14.72 L-38.04,12.36 L-38.74,9.95 L-39.29,7.50 L-39.68,5.01 L-39.92,2.51 L-40.00,-0.00 L-39.92,-2.51 L-39.68,-5.01 L-39.29,-7.50 L-38.74,-9.95 L-38.04,-12.36 L-37.19,-14.72 L-36.19,-17.03 L-35.05,-19.27 L-33.77,-21.43 L-32.36,-23.51 L-30.82,-25.50 L-29.16,-27.38 L-27.38,-29.16 L-25.50,-30.82 L-23.51,-32.36 L-21.43,-33.77 L-19.27,-35.05 L-17.03,-36.19 L-14.72,-37.19 L-12.36,-38.04 L-9.95,-38.74 L-7.50,-39.29 L-5.01,-39.68 L-2.51,-39.92 L0.00,-40.00 L2.51,-39.92 L5.01,-39.68 L7.50,-39.29 L9.95,-38.74 L12.36,-38.04 L14.72,-37.19 L17.03,-36.19 L19.27,-35.05 L21.43,-33.77 L23.51,-32.36 L25.50,-30.82 L27.38,-29.16 L29.16,-27.38 L30.82,-25.50 L32.36,-23.51 L33.77,-21.43 L35.05,-19.27 L36.19,-17.03 L37.19,-14.72 L38.04,-12.36 L38.74,-9.95 L39.29,-7.50 L39.68,-5.01 L39.92,-2.51"]
              RenderPath {line} at (15,89.50) size 90x1 [stroke={[type=SOLID] [color=#C0C0C0]}] [data="M-45.00,0.00 L45.00,0.00"]
              RenderPath {line} at (59.50,45) size 1x90 [stroke={[type=SOLID] [color=#C0C0C0]}] [data="M0.00,-45.00 L0.00,45.00"]
        RenderPath {line} at (60,90) size 0x0 [stroke={[type=SOLID] [color=#C0C0C0] [stroke width=15.00] [line cap=ROUND]}] [fill={[type=SOLID] [color=#000000]}] [data=""]
        RenderPath {line} at (60,90) size 0x0 [transform={m=((-0.00,1.00)(-1.00,-0.00)) t=(0.00,0.00)}] [stroke={[type=SOLID] [color=#C0C0C0] [stroke width=15.00] [line cap=ROUND]}] [fill={[type=SOLID] [color=#000000]}] [data=""]
        RenderPath {line} at (60,90) size 0x0 [transform={m=((-1.00,-0.00)(0.00,-1.00)) t=(0.00,0.00)}] [stroke={[type=SOLID] [color=#C0C0C0] [stroke width=15.00] [line cap=ROUND]}] [fill={[type=SOLID] [color=#000000]}] [data=""]
        RenderPath {line} at (60,90) size 0x0 [transform={m=((0.00,-1.00)(1.00,0.00)) t=(0.00,0.00)}] [stroke={[type=SOLID] [color=#C0C0C0] [stroke width=15.00] [line cap=ROUND]}] [fill={[type=SOLID] [color=#000000]}] [data=""]
        RenderPath {line} at (55,85) size 50x10 [stroke={[type=SOLID] [color=#C85050] [stroke width=10.00] [line cap=ROUND]}] [fill={[type=SOLID] [color=#000000]}] [data="M0.00,0.00 L40.00,0.00"]
        RenderSVGText {text} at (-36,60) size 72x18 contains 1 chunk(s)
          RenderSVGInlineText {#text} at (0,-14) size 72x18
            chunk 1 (middle anchor) text run 1 at (-35.50,60.00) startOffset 0 endOffset 11 width 71.00: "type=rotate"
      RenderSVGContainer {g} at (125,62.50) size 110x91.50 [transform={m=((1.00,0.00)(0.00,1.00)) t=(180.00,110.00)}]
        RenderPath {line} at (172.50,62.50) size 15x55 [stroke={[type=SOLID] [color=#C0C0C0] [stroke width=15.00] [line cap=ROUND]}] [fill={[type=SOLID] [color=#000000]}] [data="M0.00,0.00 L0.00,-40.00"]
        RenderPath {line} at (125,62.50) size 70x55 [transform={m=((1.00,0.00)(1.00,1.00)) t=(0.00,0.00)}] [stroke={[type=SOLID] [color=#C0C0C0] [stroke width=15.00] [line cap=ROUND]}] [fill={[type=SOLID] [color=#000000]}] [data="M0.00,0.00 L0.00,-40.00"]
        RenderPath {line} at (165,62.50) size 70x55 [transform={m=((1.00,0.00)(-1.00,1.00)) t=(0.00,0.00)}] [stroke={[type=SOLID] [color=#C0C0C0] [stroke width=15.00] [line cap=ROUND]}] [fill={[type=SOLID] [color=#000000]}] [data="M0.00,0.00 L0.00,-40.00"]
        RenderPath {line} at (175,65) size 10x50 [stroke={[type=SOLID] [color=#C85050] [stroke width=10.00] [line cap=ROUND]}] [fill={[type=SOLID] [color=#000000]}] [data="M0.00,0.00 L0.00,-40.00"]
        RenderSVGText {text} at (-41,40) size 82x18 contains 1 chunk(s)
          RenderSVGInlineText {#text} at (0,-14) size 82x18
            chunk 1 (middle anchor) text run 1 at (-40.50,40.00) startOffset 0 endOffset 10 width 81.00: "type=skewX"
      RenderSVGContainer {g} at (259,55.08) size 82x98.92 [transform={m=((1.00,0.00)(0.00,1.00)) t=(300.00,90.00)}]
        RenderSVGContainer {g} at (267.50,55.08) size 55x69.85 [transform={m=((1.00,0.00)(0.00,1.00)) t=(15.00,0.00)}]
          RenderPath {line} at (267.50,82.50) size 55x15 [stroke={[type=SOLID] [color=#C0C0C0] [stroke width=15.00] [line cap=ROUND]}] [fill={[type=SOLID] [color=#000000]}] [data="M0.00,0.00 L-40.00,0.00"]
          RenderPath {line} at (267.50,55.08) size 55x46.75 [transform={m=((1.00,0.58)(0.00,1.00)) t=(0.00,0.00)}] [stroke={[type=SOLID] [color=#C0C0C0] [stroke width=15.00] [line cap=ROUND]}] [fill={[type=SOLID] [color=#000000]}] [data="M0.00,0.00 L-40.00,0.00"]
          RenderPath {line} at (267.50,78.17) size 55x46.75 [transform={m=((1.00,-0.58)(0.00,1.00)) t=(0.00,0.00)}] [stroke={[type=SOLID] [color=#C0C0C0] [stroke width=15.00] [line cap=ROUND]}] [fill={[type=SOLID] [color=#000000]}] [data="M0.00,0.00 L-40.00,0.00"]
          RenderPath {line} at (270,85) size 50x10 [stroke={[type=SOLID] [color=#C85050] [stroke width=10.00] [line cap=ROUND]}] [fill={[type=SOLID] [color=#000000]}] [data="M0.00,0.00 L-40.00,0.00"]
        RenderSVGText {text} at (-41,60) size 82x18 contains 1 chunk(s)
          RenderSVGInlineText {#text} at (0,-14) size 82x18
            chunk 1 (middle anchor) text run 1 at (-40.50,60.00) startOffset 0 endOffset 10 width 81.00: "type=skewY"
      RenderSVGContainer {g} at (378.00,48.00) size 84.00x121.00 [transform={m=((1.00,0.00)(0.00,1.00)) t=(420.00,90.00)}]
        RenderPath {circle} at (378.00,48.00) size 84.00x84.00 [stroke={[type=SOLID] [color=#C0C0C0] [stroke width=4.00]}] [data="M40.00,0.00 L39.92,2.51 L39.68,5.01 L39.29,7.50 L38.74,9.95 L38.04,12.36 L37.19,14.72 L36.19,17.03 L35.05,19.27 L33.77,21.43 L32.36,23.51 L30.82,25.50 L29.16,27.38 L27.38,29.16 L25.50,30.82 L23.51,32.36 L21.43,33.77 L19.27,35.05 L17.03,36.19 L14.72,37.19 L12.36,38.04 L9.95,38.74 L7.50,39.29 L5.01,39.68 L2.51,39.92 L-0.00,40.00 L-2.51,39.92 L-5.01,39.68 L-7.50,39.29 L-9.95,38.74 L-12.36,38.04 L-14.72,37.19 L-17.03,36.19 L-19.27,35.05 L-21.43,33.77 L-23.51,32.36 L-25.50,30.82 L-27.38,29.16 L-29.16,27.38 L-30.82,25.50 L-32.36,23.51 L-33.77,21.43 L-35.05,19.27 L-36.19,17.03 L-37.19,14.72 L-38.04,12.36 L-38.74,9.95 L-39.29,7.50 L-39.68,5.01 L-39.92,2.51 L-40.00,-0.00 L-39.92,-2.51 L-39.68,-5.01 L-39.29,-7.50 L-38.74,-9.95 L-38.04,-12.36 L-37.19,-14.72 L-36.19,-17.03 L-35.05,-19.27 L-33.77,-21.43 L-32.36,-23.51 L-30.82,-25.50 L-29.16,-27.38 L-27.38,-29.16 L-25.50,-30.82 L-23.51,-32.36 L-21.43,-33.77 L-19.27,-35.05 L-17.03,-36.19 L-14.72,-37.19 L-12.36,-38.04 L-9.95,-38.74 L-7.50,-39.29 L-5.01,-39.68 L-2.51,-39.92 L0.00,-40.00 L2.51,-39.92 L5.01,-39.68 L7.50,-39.29 L9.95,-38.74 L12.36,-38.04 L14.72,-37.19 L17.03,-36.19 L19.27,-35.05 L21.43,-33.77 L23.51,-32.36 L25.50,-30.82 L27.38,-29.16 L29.16,-27.38 L30.82,-25.50 L32.36,-23.51 L33.77,-21.43 L35.05,-19.27 L36.19,-17.03 L37.19,-14.72 L38.04,-12.36 L38.74,-9.95 L39.29,-7.50 L39.68,-5.01 L39.92,-2.51"]
        RenderPath {circle} at (388.00,58.00) size 64.00x64.00 [stroke={[type=SOLID] [color=#C0C0C0] [stroke width=4.00]}] [data="M30.00,0.00 L29.94,1.88 L29.76,3.76 L29.47,5.62 L29.06,7.46 L28.53,9.27 L27.89,11.04 L27.14,12.77 L26.29,14.45 L25.33,16.07 L24.27,17.63 L23.12,19.12 L21.87,20.54 L20.54,21.87 L19.12,23.12 L17.63,24.27 L16.07,25.33 L14.45,26.29 L12.77,27.14 L11.04,27.89 L9.27,28.53 L7.46,29.06 L5.62,29.47 L3.76,29.76 L1.88,29.94 L-0.00,30.00 L-1.88,29.94 L-3.76,29.76 L-5.62,29.47 L-7.46,29.06 L-9.27,28.53 L-11.04,27.89 L-12.77,27.14 L-14.45,26.29 L-16.07,25.33 L-17.63,24.27 L-19.12,23.12 L-20.54,21.87 L-21.87,20.54 L-23.12,19.12 L-24.27,17.63 L-25.33,16.07 L-26.29,14.45 L-27.14,12.77 L-27.89,11.04 L-28.53,9.27 L-29.06,7.46 L-29.47,5.62 L-29.76,3.76 L-29.94,1.88 L-30.00,-0.00 L-29.94,-1.88 L-29.76,-3.76 L-29.47,-5.62 L-29.06,-7.46 L-28.53,-9.27 L-27.89,-11.04 L-27.14,-12.77 L-26.29,-14.45 L-25.33,-16.07 L-24.27,-17.63 L-23.12,-19.12 L-21.87,-20.54 L-20.54,-21.87 L-19.12,-23.12 L-17.63,-24.27 L-16.07,-25.33 L-14.45,-26.29 L-12.77,-27.14 L-11.04,-27.89 L-9.27,-28.53 L-7.46,-29.06 L-5.62,-29.47 L-3.76,-29.76 L-1.88,-29.94 L0.00,-30.00 L1.88,-29.94 L3.76,-29.76 L5.62,-29.47 L7.46,-29.06 L9.27,-28.53 L11.04,-27.89 L12.77,-27.14 L14.45,-26.29 L16.07,-25.33 L17.63,-24.27 L19.12,-23.12 L20.54,-21.87 L21.87,-20.54 L23.12,-19.12 L24.27,-17.63 L25.33,-16.07 L26.29,-14.45 L27.14,-12.77 L27.89,-11.04 L28.53,-9.27 L29.06,-7.46 L29.47,-5.62 L29.76,-3.76 L29.94,-1.88"]
        RenderPath {circle} at (398.00,68.00) size 44.00x44.00 [stroke={[type=SOLID] [color=#C0C0C0] [stroke width=4.00]}] [data="M20.00,0.00 L19.96,1.26 L19.84,2.51 L19.65,3.75 L19.37,4.97 L19.02,6.18 L18.60,7.36 L18.10,8.52 L17.53,9.64 L16.89,10.72 L16.18,11.76 L15.41,12.75 L14.58,13.69 L13.69,14.58 L12.75,15.41 L11.76,16.18 L10.72,16.89 L9.64,17.53 L8.52,18.10 L7.36,18.60 L6.18,19.02 L4.97,19.37 L3.75,19.65 L2.51,19.84 L1.26,19.96 L-0.00,20.00 L-1.26,19.96 L-2.51,19.84 L-3.75,19.65 L-4.97,19.37 L-6.18,19.02 L-7.36,18.60 L-8.52,18.10 L-9.64,17.53 L-10.72,16.89 L-11.76,16.18 L-12.75,15.41 L-13.69,14.58 L-14.58,13.69 L-15.41,12.75 L-16.18,11.76 L-16.89,10.72 L-17.53,9.64 L-18.10,8.52 L-18.60,7.36 L-19.02,6.18 L-19.37,4.97 L-19.65,3.75 L-19.84,2.51 L-19.96,1.26 L-20.00,-0.00 L-19.96,-1.26 L-19.84,-2.51 L-19.65,-3.75 L-19.37,-4.97 L-19.02,-6.18 L-18.60,-7.36 L-18.10,-8.52 L-17.53,-9.64 L-16.89,-10.72 L-16.18,-11.76 L-15.41,-12.75 L-14.58,-13.69 L-13.69,-14.58 L-12.75,-15.41 L-11.76,-16.18 L-10.72,-16.89 L-9.64,-17.53 L-8.52,-18.10 L-7.36,-18.60 L-6.18,-19.02 L-4.97,-19.37 L-3.75,-19.65 L-2.51,-19.84 L-1.26,-19.96 L0.00,-20.00 L1.26,-19.96 L2.51,-19.84 L3.75,-19.65 L4.97,-19.37 L6.18,-19.02 L7.36,-18.60 L8.52,-18.10 L9.64,-17.53 L10.72,-16.89 L11.76,-16.18 L12.75,-15.41 L13.69,-14.58 L14.58,-13.69 L15.41,-12.75 L16.18,-11.76 L16.89,-10.72 L17.53,-9.64 L18.10,-8.52 L18.60,-7.36 L19.02,-6.18 L19.37,-4.97 L19.65,-3.75 L19.84,-2.51 L19.96,-1.26"]
        RenderPath {circle} at (408.00,78.00) size 24.00x24.00 [stroke={[type=SOLID] [color=#C0C0C0] [stroke width=4.00]}] [data="M10.00,0.00 L9.98,0.63 L9.92,1.25 L9.82,1.87 L9.69,2.49 L9.51,3.09 L9.30,3.68 L9.05,4.26 L8.76,4.82 L8.44,5.36 L8.09,5.88 L7.71,6.37 L7.29,6.85 L6.85,7.29 L6.37,7.71 L5.88,8.09 L5.36,8.44 L4.82,8.76 L4.26,9.05 L3.68,9.30 L3.09,9.51 L2.49,9.69 L1.87,9.82 L1.25,9.92 L0.63,9.98 L-0.00,10.00 L-0.63,9.98 L-1.25,9.92 L-1.87,9.82 L-2.49,9.69 L-3.09,9.51 L-3.68,9.30 L-4.26,9.05 L-4.82,8.76 L-5.36,8.44 L-5.88,8.09 L-6.37,7.71 L-6.85,7.29 L-7.29,6.85 L-7.71,6.37 L-8.09,5.88 L-8.44,5.36 L-8.76,4.82 L-9.05,4.26 L-9.30,3.68 L-9.51,3.09 L-9.69,2.49 L-9.82,1.87 L-9.92,1.25 L-9.98,0.63 L-10.00,-0.00 L-9.98,-0.63 L-9.92,-1.25 L-9.82,-1.87 L-9.69,-2.49 L-9.51,-3.09 L-9.30,-3.68 L-9.05,-4.26 L-8.76,-4.82 L-8.44,-5.36 L-8.09,-5.88 L-7.71,-6.37 L-7.29,-6.85 L-6.85,-7.29 L-6.37,-7.71 L-5.88,-8.09 L-5.36,-8.44 L-4.82,-8.76 L-4.26,-9.05 L-3.68,-9.30 L-3.09,-9.51 L-2.49,-9.69 L-1.87,-9.82 L-1.25,-9.92 L-0.63,-9.98 L0.00,-10.00 L0.63,-9.98 L1.25,-9.92 L1.87,-9.82 L2.49,-9.69 L3.09,-9.51 L3.68,-9.30 L4.26,-9.05 L4.82,-8.76 L5.36,-8.44 L5.88,-8.09 L6.37,-7.71 L6.85,-7.29 L7.29,-6.85 L7.71,-6.37 L8.09,-5.88 L8.44,-5.36 L8.76,-4.82 L9.05,-4.26 L9.30,-3.68 L9.51,-3.09 L9.69,-2.49 L9.82,-1.87 L9.92,-1.25 L9.98,-0.63"]
        RenderPath {circle} at (380,50) size 80x80 [transform={m=((4.00,0.00)(0.00,4.00)) t=(0.00,0.00)}] [fill={[type=SOLID] [color=#C85050]}] [data="M10.00,0.00 L9.98,0.63 L9.92,1.25 L9.82,1.87 L9.69,2.49 L9.51,3.09 L9.30,3.68 L9.05,4.26 L8.76,4.82 L8.44,5.36 L8.09,5.88 L7.71,6.37 L7.29,6.85 L6.85,7.29 L6.37,7.71 L5.88,8.09 L5.36,8.44 L4.82,8.76 L4.26,9.05 L3.68,9.30 L3.09,9.51 L2.49,9.69 L1.87,9.82 L1.25,9.92 L0.63,9.98 L-0.00,10.00 L-0.63,9.98 L-1.25,9.92 L-1.87,9.82 L-2.49,9.69 L-3.09,9.51 L-3.68,9.30 L-4.26,9.05 L-4.82,8.76 L-5.36,8.44 L-5.88,8.09 L-6.37,7.71 L-6.85,7.29 L-7.29,6.85 L-7.71,6.37 L-8.09,5.88 L-8.44,5.36 L-8.76,4.82 L-9.05,4.26 L-9.30,3.68 L-9.51,3.09 L-9.69,2.49 L-9.82,1.87 L-9.92,1.25 L-9.98,0.63 L-10.00,-0.00 L-9.98,-0.63 L-9.92,-1.25 L-9.82,-1.87 L-9.69,-2.49 L-9.51,-3.09 L-9.30,-3.68 L-9.05,-4.26 L-8.76,-4.82 L-8.44,-5.36 L-8.09,-5.88 L-7.71,-6.37 L-7.29,-6.85 L-6.85,-7.29 L-6.37,-7.71 L-5.88,-8.09 L-5.36,-8.44 L-4.82,-8.76 L-4.26,-9.05 L-3.68,-9.30 L-3.09,-9.51 L-2.49,-9.69 L-1.87,-9.82 L-1.25,-9.92 L-0.63,-9.98 L0.00,-10.00 L0.63,-9.98 L1.25,-9.92 L1.87,-9.82 L2.49,-9.69 L3.09,-9.51 L3.68,-9.30 L4.26,-9.05 L4.82,-8.76 L5.36,-8.44 L5.88,-8.09 L6.37,-7.71 L6.85,-7.29 L7.29,-6.85 L7.71,-6.37 L8.09,-5.88 L8.44,-5.36 L8.76,-4.82 L9.05,-4.26 L9.30,-3.68 L9.51,-3.09 L9.69,-2.49 L9.82,-1.87 L9.92,-1.25 L9.98,-0.63"]
        RenderSVGText {text} at (-34,60) size 68x18 contains 1 chunk(s)
          RenderSVGInlineText {#text} at (0,-14) size 68x18
            chunk 1 (middle anchor) text run 1 at (-33.50,60.00) startOffset 0 endOffset 10 width 67.00: "type=scale"
        RenderSVGText {text} at (-35,75) size 70x18 contains 1 chunk(s)
          RenderSVGInlineText {#text} at (0,-14) size 70x18
            chunk 1 (middle anchor) text run 1 at (-34.50,75.00) startOffset 0 endOffset 11 width 69.00: "(sx and sy)"
      RenderSVGContainer {g} at (15,175) size 90x124 [transform={m=((1.00,0.00)(0.00,1.00)) t=(20.00,180.00)}]
        RenderSVGContainer {use} at (15,175) size 90x90
          RenderSVGContainer {g} at (15,175) size 90x90 [transform={m=((1.00,0.00)(0.00,1.00)) t=(40.00,40.00)}]
            RenderSVGContainer {g} at (15,175) size 90x90
              RenderPath {circle} at (19.00,179.00) size 82.00x82.00 [stroke={[type=SOLID] [color=#C0C0C0] [stroke width=2.00]}] [data="M40.00,0.00 L39.92,2.51 L39.68,5.01 L39.29,7.50 L38.74,9.95 L38.04,12.36 L37.19,14.72 L36.19,17.03 L35.05,19.27 L33.77,21.43 L32.36,23.51 L30.82,25.50 L29.16,27.38 L27.38,29.16 L25.50,30.82 L23.51,32.36 L21.43,33.77 L19.27,35.05 L17.03,36.19 L14.72,37.19 L12.36,38.04 L9.95,38.74 L7.50,39.29 L5.01,39.68 L2.51,39.92 L-0.00,40.00 L-2.51,39.92 L-5.01,39.68 L-7.50,39.29 L-9.95,38.74 L-12.36,38.04 L-14.72,37.19 L-17.03,36.19 L-19.27,35.05 L-21.43,33.77 L-23.51,32.36 L-25.50,30.82 L-27.38,29.16 L-29.16,27.38 L-30.82,25.50 L-32.36,23.51 L-33.77,21.43 L-35.05,19.27 L-36.19,17.03 L-37.19,14.72 L-38.04,12.36 L-38.74,9.95 L-39.29,7.50 L-39.68,5.01 L-39.92,2.51 L-40.00,-0.00 L-39.92,-2.51 L-39.68,-5.01 L-39.29,-7.50 L-38.74,-9.95 L-38.04,-12.36 L-37.19,-14.72 L-36.19,-17.03 L-35.05,-19.27 L-33.77,-21.43 L-32.36,-23.51 L-30.82,-25.50 L-29.16,-27.38 L-27.38,-29.16 L-25.50,-30.82 L-23.51,-32.36 L-21.43,-33.77 L-19.27,-35.05 L-17.03,-36.19 L-14.72,-37.19 L-12.36,-38.04 L-9.95,-38.74 L-7.50,-39.29 L-5.01,-39.68 L-2.51,-39.92 L0.00,-40.00 L2.51,-39.92 L5.01,-39.68 L7.50,-39.29 L9.95,-38.74 L12.36,-38.04 L14.72,-37.19 L17.03,-36.19 L19.27,-35.05 L21.43,-33.77 L23.51,-32.36 L25.50,-30.82 L27.38,-29.16 L29.16,-27.38 L30.82,-25.50 L32.36,-23.51 L33.77,-21.43 L35.05,-19.27 L36.19,-17.03 L37.19,-14.72 L38.04,-12.36 L38.74,-9.95 L39.29,-7.50 L39.68,-5.01 L39.92,-2.51"]
              RenderPath {line} at (15,219.50) size 90x1 [stroke={[type=SOLID] [color=#C0C0C0]}] [data="M-45.00,0.00 L45.00,0.00"]
              RenderPath {line} at (59.50,175) size 1x90 [stroke={[type=SOLID] [color=#C0C0C0]}] [data="M0.00,-45.00 L0.00,45.00"]
        RenderPath {line} at (20,180) size 0x0 [stroke={[type=SOLID] [color=#C0C0C0] [stroke width=15.00] [line cap=ROUND]}] [fill={[type=SOLID] [color=#000000]}] [data=""]
        RenderPath {line} at (100,180) size 0x0 [transform={m=((-0.00,1.00)(-1.00,-0.00)) t=(80.00,0.00)}] [stroke={[type=SOLID] [color=#C0C0C0] [stroke width=15.00] [line cap=ROUND]}] [fill={[type=SOLID] [color=#000000]}] [data=""]
        RenderPath {line} at (100,260) size 0x0 [transform={m=((-1.00,-0.00)(0.00,-1.00)) t=(80.00,80.00)}] [stroke={[type=SOLID] [color=#C0C0C0] [stroke width=15.00] [line cap=ROUND]}] [fill={[type=SOLID] [color=#000000]}] [data=""]
        RenderPath {line} at (20,260) size 0x0 [transform={m=((0.00,-1.00)(1.00,0.00)) t=(-0.00,80.00)}] [stroke={[type=SOLID] [color=#C0C0C0] [stroke width=15.00] [line cap=ROUND]}] [fill={[type=SOLID] [color=#000000]}] [data=""]
        RenderPath {line} at (55,215) size 50x10 [stroke={[type=SOLID] [color=#C85050] [stroke width=10.00] [line cap=ROUND]}] [fill={[type=SOLID] [color=#000000]}] [data="M40.00,40.00 L80.00,40.00"]
        RenderSVGText {text} at (4,100) size 72x18 contains 1 chunk(s)
          RenderSVGInlineText {#text} at (0,-14) size 72x18
            chunk 1 (middle anchor) text run 1 at (4.50,100.00) startOffset 0 endOffset 11 width 71.00: "type=rotate"
        RenderSVGText {text} at (2,115) size 76x18 contains 1 chunk(s)
          RenderSVGInlineText {#text} at (0,-14) size 76x18
            chunk 1 (middle anchor) text run 1 at (2.00,115.00) startOffset 0 endOffset 12 width 76.00: "(with cx/cy)"
      RenderSVGContainer {g} at (128.00,208.00) size 104.00x91.00 [transform={m=((1.00,0.00)(0.00,1.00)) t=(180.00,220.00)}]
        RenderPath {circle} at (128.00,208.00) size 24.00x24.00 [stroke={[type=SOLID] [color=#C0C0C0] [stroke width=4.00]}] [data="M-30.00,0.00 L-30.02,0.63 L-30.08,1.25 L-30.18,1.87 L-30.31,2.49 L-30.49,3.09 L-30.70,3.68 L-30.95,4.26 L-31.24,4.82 L-31.56,5.36 L-31.91,5.88 L-32.29,6.37 L-32.71,6.85 L-33.15,7.29 L-33.63,7.71 L-34.12,8.09 L-34.64,8.44 L-35.18,8.76 L-35.74,9.05 L-36.32,9.30 L-36.91,9.51 L-37.51,9.69 L-38.13,9.82 L-38.75,9.92 L-39.37,9.98 L-40.00,10.00 L-40.63,9.98 L-41.25,9.92 L-41.87,9.82 L-42.49,9.69 L-43.09,9.51 L-43.68,9.30 L-44.26,9.05 L-44.82,8.76 L-45.36,8.44 L-45.88,8.09 L-46.37,7.71 L-46.85,7.29 L-47.29,6.85 L-47.71,6.37 L-48.09,5.88 L-48.44,5.36 L-48.76,4.82 L-49.05,4.26 L-49.30,3.68 L-49.51,3.09 L-49.69,2.49 L-49.82,1.87 L-49.92,1.25 L-49.98,0.63 L-50.00,-0.00 L-49.98,-0.63 L-49.92,-1.25 L-49.82,-1.87 L-49.69,-2.49 L-49.51,-3.09 L-49.30,-3.68 L-49.05,-4.26 L-48.76,-4.82 L-48.44,-5.36 L-48.09,-5.88 L-47.71,-6.37 L-47.29,-6.85 L-46.85,-7.29 L-46.37,-7.71 L-45.88,-8.09 L-45.36,-8.44 L-44.82,-8.76 L-44.26,-9.05 L-43.68,-9.30 L-43.09,-9.51 L-42.49,-9.69 L-41.87,-9.82 L-41.25,-9.92 L-40.63,-9.98 L-40.00,-10.00 L-39.37,-9.98 L-38.75,-9.92 L-38.13,-9.82 L-37.51,-9.69 L-36.91,-9.51 L-36.32,-9.30 L-35.74,-9.05 L-35.18,-8.76 L-34.64,-8.44 L-34.12,-8.09 L-33.63,-7.71 L-33.15,-7.29 L-32.71,-6.85 L-32.29,-6.37 L-31.91,-5.88 L-31.56,-5.36 L-31.24,-4.82 L-30.95,-4.26 L-30.70,-3.68 L-30.49,-3.09 L-30.31,-2.49 L-30.18,-1.87 L-30.08,-1.25 L-30.02,-0.63"]
        RenderPath {circle} at (148.00,208.00) size 24.00x24.00 [stroke={[type=SOLID] [color=#C0C0C0] [stroke width=4.00]}] [data="M-10.00,0.00 L-10.02,0.63 L-10.08,1.25 L-10.18,1.87 L-10.31,2.49 L-10.49,3.09 L-10.70,3.68 L-10.95,4.26 L-11.24,4.82 L-11.56,5.36 L-11.91,5.88 L-12.29,6.37 L-12.71,6.85 L-13.15,7.29 L-13.63,7.71 L-14.12,8.09 L-14.64,8.44 L-15.18,8.76 L-15.74,9.05 L-16.32,9.30 L-16.91,9.51 L-17.51,9.69 L-18.13,9.82 L-18.75,9.92 L-19.37,9.98 L-20.00,10.00 L-20.63,9.98 L-21.25,9.92 L-21.87,9.82 L-22.49,9.69 L-23.09,9.51 L-23.68,9.30 L-24.26,9.05 L-24.82,8.76 L-25.36,8.44 L-25.88,8.09 L-26.37,7.71 L-26.85,7.29 L-27.29,6.85 L-27.71,6.37 L-28.09,5.88 L-28.44,5.36 L-28.76,4.82 L-29.05,4.26 L-29.30,3.68 L-29.51,3.09 L-29.69,2.49 L-29.82,1.87 L-29.92,1.25 L-29.98,0.63 L-30.00,-0.00 L-29.98,-0.63 L-29.92,-1.25 L-29.82,-1.87 L-29.69,-2.49 L-29.51,-3.09 L-29.30,-3.68 L-29.05,-4.26 L-28.76,-4.82 L-28.44,-5.36 L-28.09,-5.88 L-27.71,-6.37 L-27.29,-6.85 L-26.85,-7.29 L-26.37,-7.71 L-25.88,-8.09 L-25.36,-8.44 L-24.82,-8.76 L-24.26,-9.05 L-23.68,-9.30 L-23.09,-9.51 L-22.49,-9.69 L-21.87,-9.82 L-21.25,-9.92 L-20.63,-9.98 L-20.00,-10.00 L-19.37,-9.98 L-18.75,-9.92 L-18.13,-9.82 L-17.51,-9.69 L-16.91,-9.51 L-16.32,-9.30 L-15.74,-9.05 L-15.18,-8.76 L-14.64,-8.44 L-14.12,-8.09 L-13.63,-7.71 L-13.15,-7.29 L-12.71,-6.85 L-12.29,-6.37 L-11.91,-5.88 L-11.56,-5.36 L-11.24,-4.82 L-10.95,-4.26 L-10.70,-3.68 L-10.49,-3.09 L-10.31,-2.49 L-10.18,-1.87 L-10.08,-1.25 L-10.02,-0.63"]
        RenderPath {circle} at (168.00,208.00) size 24.00x24.00 [stroke={[type=SOLID] [color=#C0C0C0] [stroke width=4.00]}] [data="M10.00,0.00 L9.98,0.63 L9.92,1.25 L9.82,1.87 L9.69,2.49 L9.51,3.09 L9.30,3.68 L9.05,4.26 L8.76,4.82 L8.44,5.36 L8.09,5.88 L7.71,6.37 L7.29,6.85 L6.85,7.29 L6.37,7.71 L5.88,8.09 L5.36,8.44 L4.82,8.76 L4.26,9.05 L3.68,9.30 L3.09,9.51 L2.49,9.69 L1.87,9.82 L1.25,9.92 L0.63,9.98 L-0.00,10.00 L-0.63,9.98 L-1.25,9.92 L-1.87,9.82 L-2.49,9.69 L-3.09,9.51 L-3.68,9.30 L-4.26,9.05 L-4.82,8.76 L-5.36,8.44 L-5.88,8.09 L-6.37,7.71 L-6.85,7.29 L-7.29,6.85 L-7.71,6.37 L-8.09,5.88 L-8.44,5.36 L-8.76,4.82 L-9.05,4.26 L-9.30,3.68 L-9.51,3.09 L-9.69,2.49 L-9.82,1.87 L-9.92,1.25 L-9.98,0.63 L-10.00,-0.00 L-9.98,-0.63 L-9.92,-1.25 L-9.82,-1.87 L-9.69,-2.49 L-9.51,-3.09 L-9.30,-3.68 L-9.05,-4.26 L-8.76,-4.82 L-8.44,-5.36 L-8.09,-5.88 L-7.71,-6.37 L-7.29,-6.85 L-6.85,-7.29 L-6.37,-7.71 L-5.88,-8.09 L-5.36,-8.44 L-4.82,-8.76 L-4.26,-9.05 L-3.68,-9.30 L-3.09,-9.51 L-2.49,-9.69 L-1.87,-9.82 L-1.25,-9.92 L-0.63,-9.98 L0.00,-10.00 L0.63,-9.98 L1.25,-9.92 L1.87,-9.82 L2.49,-9.69 L3.09,-9.51 L3.68,-9.30 L4.26,-9.05 L4.82,-8.76 L5.36,-8.44 L5.88,-8.09 L6.37,-7.71 L6.85,-7.29 L7.29,-6.85 L7.71,-6.37 L8.09,-5.88 L8.44,-5.36 L8.76,-4.82 L9.05,-4.26 L9.30,-3.68 L9.51,-3.09 L9.69,-2.49 L9.82,-1.87 L9.92,-1.25 L9.98,-0.63"]
        RenderPath {circle} at (188.00,208.00) size 24.00x24.00 [stroke={[type=SOLID] [color=#C0C0C0] [stroke width=4.00]}] [data="M30.00,0.00 L29.98,0.63 L29.92,1.25 L29.82,1.87 L29.69,2.49 L29.51,3.09 L29.30,3.68 L29.05,4.26 L28.76,4.82 L28.44,5.36 L28.09,5.88 L27.71,6.37 L27.29,6.85 L26.85,7.29 L26.37,7.71 L25.88,8.09 L25.36,8.44 L24.82,8.76 L24.26,9.05 L23.68,9.30 L23.09,9.51 L22.49,9.69 L21.87,9.82 L21.25,9.92 L20.63,9.98 L20.00,10.00 L19.37,9.98 L18.75,9.92 L18.13,9.82 L17.51,9.69 L16.91,9.51 L16.32,9.30 L15.74,9.05 L15.18,8.76 L14.64,8.44 L14.12,8.09 L13.63,7.71 L13.15,7.29 L12.71,6.85 L12.29,6.37 L11.91,5.88 L11.56,5.36 L11.24,4.82 L10.95,4.26 L10.70,3.68 L10.49,3.09 L10.31,2.49 L10.18,1.87 L10.08,1.25 L10.02,0.63 L10.00,-0.00 L10.02,-0.63 L10.08,-1.25 L10.18,-1.87 L10.31,-2.49 L10.49,-3.09 L10.70,-3.68 L10.95,-4.26 L11.24,-4.82 L11.56,-5.36 L11.91,-5.88 L12.29,-6.37 L12.71,-6.85 L13.15,-7.29 L13.63,-7.71 L14.12,-8.09 L14.64,-8.44 L15.18,-8.76 L15.74,-9.05 L16.32,-9.30 L16.91,-9.51 L17.51,-9.69 L18.13,-9.82 L18.75,-9.92 L19.37,-9.98 L20.00,-10.00 L20.63,-9.98 L21.25,-9.92 L21.87,-9.82 L22.49,-9.69 L23.09,-9.51 L23.68,-9.30 L24.26,-9.05 L24.82,-8.76 L25.36,-8.44 L25.88,-8.09 L26.37,-7.71 L26.85,-7.29 L27.29,-6.85 L27.71,-6.37 L28.09,-5.88 L28.44,-5.36 L28.76,-4.82 L29.05,-4.26 L29.30,-3.68 L29.51,-3.09 L29.69,-2.49 L29.82,-1.87 L29.92,-1.25 L29.98,-0.63"]
        RenderPath {circle} at (208.00,208.00) size 24.00x24.00 [stroke={[type=SOLID] [color=#C0C0C0] [stroke width=4.00]}] [data="M50.00,0.00 L49.98,0.63 L49.92,1.25 L49.82,1.87 L49.69,2.49 L49.51,3.09 L49.30,3.68 L49.05,4.26 L48.76,4.82 L48.44,5.36 L48.09,5.88 L47.71,6.37 L47.29,6.85 L46.85,7.29 L46.37,7.71 L45.88,8.09 L45.36,8.44 L44.82,8.76 L44.26,9.05 L43.68,9.30 L43.09,9.51 L42.49,9.69 L41.87,9.82 L41.25,9.92 L40.63,9.98 L40.00,10.00 L39.37,9.98 L38.75,9.92 L38.13,9.82 L37.51,9.69 L36.91,9.51 L36.32,9.30 L35.74,9.05 L35.18,8.76 L34.64,8.44 L34.12,8.09 L33.63,7.71 L33.15,7.29 L32.71,6.85 L32.29,6.37 L31.91,5.88 L31.56,5.36 L31.24,4.82 L30.95,4.26 L30.70,3.68 L30.49,3.09 L30.31,2.49 L30.18,1.87 L30.08,1.25 L30.02,0.63 L30.00,-0.00 L30.02,-0.63 L30.08,-1.25 L30.18,-1.87 L30.31,-2.49 L30.49,-3.09 L30.70,-3.68 L30.95,-4.26 L31.24,-4.82 L31.56,-5.36 L31.91,-5.88 L32.29,-6.37 L32.71,-6.85 L33.15,-7.29 L33.63,-7.71 L34.12,-8.09 L34.64,-8.44 L35.18,-8.76 L35.74,-9.05 L36.32,-9.30 L36.91,-9.51 L37.51,-9.69 L38.13,-9.82 L38.75,-9.92 L39.37,-9.98 L40.00,-10.00 L40.63,-9.98 L41.25,-9.92 L41.87,-9.82 L42.49,-9.69 L43.09,-9.51 L43.68,-9.30 L44.26,-9.05 L44.82,-8.76 L45.36,-8.44 L45.88,-8.09 L46.37,-7.71 L46.85,-7.29 L47.29,-6.85 L47.71,-6.37 L48.09,-5.88 L48.44,-5.36 L48.76,-4.82 L49.05,-4.26 L49.30,-3.68 L49.51,-3.09 L49.69,-2.49 L49.82,-1.87 L49.92,-1.25 L49.98,-0.63"]
        RenderPath {circle} at (134,214) size 12x12 [transform={m=((1.00,0.00)(0.00,1.00)) t=(-40.00,0.00)}] [fill={[type=SOLID] [color=#C85050]}] [data="M6.00,0.00 L5.99,0.38 L5.95,0.75 L5.89,1.12 L5.81,1.49 L5.71,1.85 L5.58,2.21 L5.43,2.55 L5.26,2.89 L5.07,3.21 L4.85,3.53 L4.62,3.82 L4.37,4.11 L4.11,4.37 L3.82,4.62 L3.53,4.85 L3.21,5.07 L2.89,5.26 L2.55,5.43 L2.21,5.58 L1.85,5.71 L1.49,5.81 L1.12,5.89 L0.75,5.95 L0.38,5.99 L-0.00,6.00 L-0.38,5.99 L-0.75,5.95 L-1.12,5.89 L-1.49,5.81 L-1.85,5.71 L-2.21,5.58 L-2.55,5.43 L-2.89,5.26 L-3.21,5.07 L-3.53,4.85 L-3.82,4.62 L-4.11,4.37 L-4.37,4.11 L-4.62,3.82 L-4.85,3.53 L-5.07,3.21 L-5.26,2.89 L-5.43,2.55 L-5.58,2.21 L-5.71,1.85 L-5.81,1.49 L-5.89,1.12 L-5.95,0.75 L-5.99,0.38 L-6.00,-0.00 L-5.99,-0.38 L-5.95,-0.75 L-5.89,-1.12 L-5.81,-1.49 L-5.71,-1.85 L-5.58,-2.21 L-5.43,-2.55 L-5.26,-2.89 L-5.07,-3.21 L-4.85,-3.53 L-4.62,-3.82 L-4.37,-4.11 L-4.11,-4.37 L-3.82,-4.62 L-3.53,-4.85 L-3.21,-5.07 L-2.89,-5.26 L-2.55,-5.43 L-2.21,-5.58 L-1.85,-5.71 L-1.49,-5.81 L-1.12,-5.89 L-0.75,-5.95 L-0.38,-5.99 L0.00,-6.00 L0.38,-5.99 L0.75,-5.95 L1.12,-5.89 L1.49,-5.81 L1.85,-5.71 L2.21,-5.58 L2.55,-5.43 L2.89,-5.26 L3.21,-5.07 L3.53,-4.85 L3.82,-4.62 L4.11,-4.37 L4.37,-4.11 L4.62,-3.82 L4.85,-3.53 L5.07,-3.21 L5.26,-2.89 L5.43,-2.55 L5.58,-2.21 L5.71,-1.85 L5.81,-1.49 L5.89,-1.12 L5.95,-0.75 L5.99,-0.38"]
        RenderSVGText {text} at (-44,60) size 88x18 contains 1 chunk(s)
          RenderSVGInlineText {#text} at (0,-14) size 88x18
            chunk 1 (middle anchor) text run 1 at (-44.00,60.00) startOffset 0 endOffset 14 width 88.00: "type=translate"
        RenderSVGText {text} at (-27,75) size 54x18 contains 1 chunk(s)
          RenderSVGInlineText {#text} at (0,-14) size 54x18
            chunk 1 (middle anchor) text run 1 at (-27.00,75.00) startOffset 0 endOffset 9 width 54.00: "(tx only)"
      RenderSVGContainer {g} at (248.00,178.00) size 104.00x121.00 [transform={m=((1.00,0.00)(0.00,1.00)) t=(300.00,220.00)}]
        RenderPath {circle} at (248.00,238.00) size 24.00x24.00 [stroke={[type=SOLID] [color=#C0C0C0] [stroke width=4.00]}] [data="M-30.00,30.00 L-30.02,30.63 L-30.08,31.25 L-30.18,31.87 L-30.31,32.49 L-30.49,33.09 L-30.70,33.68 L-30.95,34.26 L-31.24,34.82 L-31.56,35.36 L-31.91,35.88 L-32.29,36.37 L-32.71,36.85 L-33.15,37.29 L-33.63,37.71 L-34.12,38.09 L-34.64,38.44 L-35.18,38.76 L-35.74,39.05 L-36.32,39.30 L-36.91,39.51 L-37.51,39.69 L-38.13,39.82 L-38.75,39.92 L-39.37,39.98 L-40.00,40.00 L-40.63,39.98 L-41.25,39.92 L-41.87,39.82 L-42.49,39.69 L-43.09,39.51 L-43.68,39.30 L-44.26,39.05 L-44.82,38.76 L-45.36,38.44 L-45.88,38.09 L-46.37,37.71 L-46.85,37.29 L-47.29,36.85 L-47.71,36.37 L-48.09,35.88 L-48.44,35.36 L-48.76,34.82 L-49.05,34.26 L-49.30,33.68 L-49.51,33.09 L-49.69,32.49 L-49.82,31.87 L-49.92,31.25 L-49.98,30.63 L-50.00,30.00 L-49.98,29.37 L-49.92,28.75 L-49.82,28.13 L-49.69,27.51 L-49.51,26.91 L-49.30,26.32 L-49.05,25.74 L-48.76,25.18 L-48.44,24.64 L-48.09,24.12 L-47.71,23.63 L-47.29,23.15 L-46.85,22.71 L-46.37,22.29 L-45.88,21.91 L-45.36,21.56 L-44.82,21.24 L-44.26,20.95 L-43.68,20.70 L-43.09,20.49 L-42.49,20.31 L-41.87,20.18 L-41.25,20.08 L-40.63,20.02 L-40.00,20.00 L-39.37,20.02 L-38.75,20.08 L-38.13,20.18 L-37.51,20.31 L-36.91,20.49 L-36.32,20.70 L-35.74,20.95 L-35.18,21.24 L-34.64,21.56 L-34.12,21.91 L-33.63,22.29 L-33.15,22.71 L-32.71,23.15 L-32.29,23.63 L-31.91,24.12 L-31.56,24.64 L-31.24,25.18 L-30.95,25.74 L-30.70,26.32 L-30.49,26.91 L-30.31,27.51 L-30.18,28.13 L-30.08,28.75 L-30.02,29.37"]
        RenderPath {circle} at (268.00,223.00) size 24.00x24.00 [stroke={[type=SOLID] [color=#C0C0C0] [stroke width=4.00]}] [data="M-10.00,15.00 L-10.02,15.63 L-10.08,16.25 L-10.18,16.87 L-10.31,17.49 L-10.49,18.09 L-10.70,18.68 L-10.95,19.26 L-11.24,19.82 L-11.56,20.36 L-11.91,20.88 L-12.29,21.37 L-12.71,21.85 L-13.15,22.29 L-13.63,22.71 L-14.12,23.09 L-14.64,23.44 L-15.18,23.76 L-15.74,24.05 L-16.32,24.30 L-16.91,24.51 L-17.51,24.69 L-18.13,24.82 L-18.75,24.92 L-19.37,24.98 L-20.00,25.00 L-20.63,24.98 L-21.25,24.92 L-21.87,24.82 L-22.49,24.69 L-23.09,24.51 L-23.68,24.30 L-24.26,24.05 L-24.82,23.76 L-25.36,23.44 L-25.88,23.09 L-26.37,22.71 L-26.85,22.29 L-27.29,21.85 L-27.71,21.37 L-28.09,20.88 L-28.44,20.36 L-28.76,19.82 L-29.05,19.26 L-29.30,18.68 L-29.51,18.09 L-29.69,17.49 L-29.82,16.87 L-29.92,16.25 L-29.98,15.63 L-30.00,15.00 L-29.98,14.37 L-29.92,13.75 L-29.82,13.13 L-29.69,12.51 L-29.51,11.91 L-29.30,11.32 L-29.05,10.74 L-28.76,10.18 L-28.44,9.64 L-28.09,9.12 L-27.71,8.63 L-27.29,8.15 L-26.85,7.71 L-26.37,7.29 L-25.88,6.91 L-25.36,6.56 L-24.82,6.24 L-24.26,5.95 L-23.68,5.70 L-23.09,5.49 L-22.49,5.31 L-21.87,5.18 L-21.25,5.08 L-20.63,5.02 L-20.00,5.00 L-19.37,5.02 L-18.75,5.08 L-18.13,5.18 L-17.51,5.31 L-16.91,5.49 L-16.32,5.70 L-15.74,5.95 L-15.18,6.24 L-14.64,6.56 L-14.12,6.91 L-13.63,7.29 L-13.15,7.71 L-12.71,8.15 L-12.29,8.63 L-11.91,9.12 L-11.56,9.64 L-11.24,10.18 L-10.95,10.74 L-10.70,11.32 L-10.49,11.91 L-10.31,12.51 L-10.18,13.13 L-10.08,13.75 L-10.02,14.37"]
        RenderPath {circle} at (288.00,208.00) size 24.00x24.00 [stroke={[type=SOLID] [color=#C0C0C0] [stroke width=4.00]}] [data="M10.00,0.00 L9.98,0.63 L9.92,1.25 L9.82,1.87 L9.69,2.49 L9.51,3.09 L9.30,3.68 L9.05,4.26 L8.76,4.82 L8.44,5.36 L8.09,5.88 L7.71,6.37 L7.29,6.85 L6.85,7.29 L6.37,7.71 L5.88,8.09 L5.36,8.44 L4.82,8.76 L4.26,9.05 L3.68,9.30 L3.09,9.51 L2.49,9.69 L1.87,9.82 L1.25,9.92 L0.63,9.98 L-0.00,10.00 L-0.63,9.98 L-1.25,9.92 L-1.87,9.82 L-2.49,9.69 L-3.09,9.51 L-3.68,9.30 L-4.26,9.05 L-4.82,8.76 L-5.36,8.44 L-5.88,8.09 L-6.37,7.71 L-6.85,7.29 L-7.29,6.85 L-7.71,6.37 L-8.09,5.88 L-8.44,5.36 L-8.76,4.82 L-9.05,4.26 L-9.30,3.68 L-9.51,3.09 L-9.69,2.49 L-9.82,1.87 L-9.92,1.25 L-9.98,0.63 L-10.00,-0.00 L-9.98,-0.63 L-9.92,-1.25 L-9.82,-1.87 L-9.69,-2.49 L-9.51,-3.09 L-9.30,-3.68 L-9.05,-4.26 L-8.76,-4.82 L-8.44,-5.36 L-8.09,-5.88 L-7.71,-6.37 L-7.29,-6.85 L-6.85,-7.29 L-6.37,-7.71 L-5.88,-8.09 L-5.36,-8.44 L-4.82,-8.76 L-4.26,-9.05 L-3.68,-9.30 L-3.09,-9.51 L-2.49,-9.69 L-1.87,-9.82 L-1.25,-9.92 L-0.63,-9.98 L0.00,-10.00 L0.63,-9.98 L1.25,-9.92 L1.87,-9.82 L2.49,-9.69 L3.09,-9.51 L3.68,-9.30 L4.26,-9.05 L4.82,-8.76 L5.36,-8.44 L5.88,-8.09 L6.37,-7.71 L6.85,-7.29 L7.29,-6.85 L7.71,-6.37 L8.09,-5.88 L8.44,-5.36 L8.76,-4.82 L9.05,-4.26 L9.30,-3.68 L9.51,-3.09 L9.69,-2.49 L9.82,-1.87 L9.92,-1.25 L9.98,-0.63"]
        RenderPath {circle} at (308.00,193.00) size 24.00x24.00 [stroke={[type=SOLID] [color=#C0C0C0] [stroke width=4.00]}] [data="M30.00,-15.00 L29.98,-14.37 L29.92,-13.75 L29.82,-13.13 L29.69,-12.51 L29.51,-11.91 L29.30,-11.32 L29.05,-10.74 L28.76,-10.18 L28.44,-9.64 L28.09,-9.12 L27.71,-8.63 L27.29,-8.15 L26.85,-7.71 L26.37,-7.29 L25.88,-6.91 L25.36,-6.56 L24.82,-6.24 L24.26,-5.95 L23.68,-5.70 L23.09,-5.49 L22.49,-5.31 L21.87,-5.18 L21.25,-5.08 L20.63,-5.02 L20.00,-5.00 L19.37,-5.02 L18.75,-5.08 L18.13,-5.18 L17.51,-5.31 L16.91,-5.49 L16.32,-5.70 L15.74,-5.95 L15.18,-6.24 L14.64,-6.56 L14.12,-6.91 L13.63,-7.29 L13.15,-7.71 L12.71,-8.15 L12.29,-8.63 L11.91,-9.12 L11.56,-9.64 L11.24,-10.18 L10.95,-10.74 L10.70,-11.32 L10.49,-11.91 L10.31,-12.51 L10.18,-13.13 L10.08,-13.75 L10.02,-14.37 L10.00,-15.00 L10.02,-15.63 L10.08,-16.25 L10.18,-16.87 L10.31,-17.49 L10.49,-18.09 L10.70,-18.68 L10.95,-19.26 L11.24,-19.82 L11.56,-20.36 L11.91,-20.88 L12.29,-21.37 L12.71,-21.85 L13.15,-22.29 L13.63,-22.71 L14.12,-23.09 L14.64,-23.44 L15.18,-23.76 L15.74,-24.05 L16.32,-24.30 L16.91,-24.51 L17.51,-24.69 L18.13,-24.82 L18.75,-24.92 L19.37,-24.98 L20.00,-25.00 L20.63,-24.98 L21.25,-24.92 L21.87,-24.82 L22.49,-24.69 L23.09,-24.51 L23.68,-24.30 L24.26,-24.05 L24.82,-23.76 L25.36,-23.44 L25.88,-23.09 L26.37,-22.71 L26.85,-22.29 L27.29,-21.85 L27.71,-21.37 L28.09,-20.88 L28.44,-20.36 L28.76,-19.82 L29.05,-19.26 L29.30,-18.68 L29.51,-18.09 L29.69,-17.49 L29.82,-16.87 L29.92,-16.25 L29.98,-15.63"]
        RenderPath {circle} at (328.00,178.00) size 24.00x24.00 [stroke={[type=SOLID] [color=#C0C0C0] [stroke width=4.00]}] [data="M50.00,-30.00 L49.98,-29.37 L49.92,-28.75 L49.82,-28.13 L49.69,-27.51 L49.51,-26.91 L49.30,-26.32 L49.05,-25.74 L48.76,-25.18 L48.44,-24.64 L48.09,-24.12 L47.71,-23.63 L47.29,-23.15 L46.85,-22.71 L46.37,-22.29 L45.88,-21.91 L45.36,-21.56 L44.82,-21.24 L44.26,-20.95 L43.68,-20.70 L43.09,-20.49 L42.49,-20.31 L41.87,-20.18 L41.25,-20.08 L40.63,-20.02 L40.00,-20.00 L39.37,-20.02 L38.75,-20.08 L38.13,-20.18 L37.51,-20.31 L36.91,-20.49 L36.32,-20.70 L35.74,-20.95 L35.18,-21.24 L34.64,-21.56 L34.12,-21.91 L33.63,-22.29 L33.15,-22.71 L32.71,-23.15 L32.29,-23.63 L31.91,-24.12 L31.56,-24.64 L31.24,-25.18 L30.95,-25.74 L30.70,-26.32 L30.49,-26.91 L30.31,-27.51 L30.18,-28.13 L30.08,-28.75 L30.02,-29.37 L30.00,-30.00 L30.02,-30.63 L30.08,-31.25 L30.18,-31.87 L30.31,-32.49 L30.49,-33.09 L30.70,-33.68 L30.95,-34.26 L31.24,-34.82 L31.56,-35.36 L31.91,-35.88 L32.29,-36.37 L32.71,-36.85 L33.15,-37.29 L33.63,-37.71 L34.12,-38.09 L34.64,-38.44 L35.18,-38.76 L35.74,-39.05 L36.32,-39.30 L36.91,-39.51 L37.51,-39.69 L38.13,-39.82 L38.75,-39.92 L39.37,-39.98 L40.00,-40.00 L40.63,-39.98 L41.25,-39.92 L41.87,-39.82 L42.49,-39.69 L43.09,-39.51 L43.68,-39.30 L44.26,-39.05 L44.82,-38.76 L45.36,-38.44 L45.88,-38.09 L46.37,-37.71 L46.85,-37.29 L47.29,-36.85 L47.71,-36.37 L48.09,-35.88 L48.44,-35.36 L48.76,-34.82 L49.05,-34.26 L49.30,-33.68 L49.51,-33.09 L49.69,-32.49 L49.82,-31.87 L49.92,-31.25 L49.98,-30.63"]
        RenderPath {circle} at (254,244) size 12x12 [transform={m=((1.00,0.00)(0.00,1.00)) t=(-40.00,30.00)}] [fill={[type=SOLID] [color=#C85050]}] [data="M6.00,0.00 L5.99,0.38 L5.95,0.75 L5.89,1.12 L5.81,1.49 L5.71,1.85 L5.58,2.21 L5.43,2.55 L5.26,2.89 L5.07,3.21 L4.85,3.53 L4.62,3.82 L4.37,4.11 L4.11,4.37 L3.82,4.62 L3.53,4.85 L3.21,5.07 L2.89,5.26 L2.55,5.43 L2.21,5.58 L1.85,5.71 L1.49,5.81 L1.12,5.89 L0.75,5.95 L0.38,5.99 L-0.00,6.00 L-0.38,5.99 L-0.75,5.95 L-1.12,5.89 L-1.49,5.81 L-1.85,5.71 L-2.21,5.58 L-2.55,5.43 L-2.89,5.26 L-3.21,5.07 L-3.53,4.85 L-3.82,4.62 L-4.11,4.37 L-4.37,4.11 L-4.62,3.82 L-4.85,3.53 L-5.07,3.21 L-5.26,2.89 L-5.43,2.55 L-5.58,2.21 L-5.71,1.85 L-5.81,1.49 L-5.89,1.12 L-5.95,0.75 L-5.99,0.38 L-6.00,-0.00 L-5.99,-0.38 L-5.95,-0.75 L-5.89,-1.12 L-5.81,-1.49 L-5.71,-1.85 L-5.58,-2.21 L-5.43,-2.55 L-5.26,-2.89 L-5.07,-3.21 L-4.85,-3.53 L-4.62,-3.82 L-4.37,-4.11 L-4.11,-4.37 L-3.82,-4.62 L-3.53,-4.85 L-3.21,-5.07 L-2.89,-5.26 L-2.55,-5.43 L-2.21,-5.58 L-1.85,-5.71 L-1.49,-5.81 L-1.12,-5.89 L-0.75,-5.95 L-0.38,-5.99 L0.00,-6.00 L0.38,-5.99 L0.75,-5.95 L1.12,-5.89 L1.49,-5.81 L1.85,-5.71 L2.21,-5.58 L2.55,-5.43 L2.89,-5.26 L3.21,-5.07 L3.53,-4.85 L3.82,-4.62 L4.11,-4.37 L4.37,-4.11 L4.62,-3.82 L4.85,-3.53 L5.07,-3.21 L5.26,-2.89 L5.43,-2.55 L5.58,-2.21 L5.71,-1.85 L5.81,-1.49 L5.89,-1.12 L5.95,-0.75 L5.99,-0.38"]
        RenderSVGText {text} at (-44,60) size 88x18 contains 1 chunk(s)
          RenderSVGInlineText {#text} at (0,-14) size 88x18
            chunk 1 (middle anchor) text run 1 at (-44.00,60.00) startOffset 0 endOffset 14 width 88.00: "type=translate"
        RenderSVGText {text} at (-33,75) size 66x18 contains 1 chunk(s)
          RenderSVGInlineText {#text} at (0,-14) size 66x18
            chunk 1 (middle anchor) text run 1 at (-32.50,75.00) startOffset 0 endOffset 11 width 65.00: "(tx and ty)"
      RenderSVGContainer {g} at (378.00,178.00) size 84.00x121.00 [transform={m=((1.00,0.00)(0.00,1.00)) t=(420.00,220.00)}]
        RenderPath {circle} at (378.00,178.00) size 84.00x84.00 [transform={m=((4.00,0.00)(0.00,4.00)) t=(0.00,0.00)}] [stroke={[type=SOLID] [color=#C0C0C0]}] [data="M10.00,0.00 L9.98,0.63 L9.92,1.25 L9.82,1.87 L9.69,2.49 L9.51,3.09 L9.30,3.68 L9.05,4.26 L8.76,4.82 L8.44,5.36 L8.09,5.88 L7.71,6.37 L7.29,6.85 L6.85,7.29 L6.37,7.71 L5.88,8.09 L5.36,8.44 L4.82,8.76 L4.26,9.05 L3.68,9.30 L3.09,9.51 L2.49,9.69 L1.87,9.82 L1.25,9.92 L0.63,9.98 L-0.00,10.00 L-0.63,9.98 L-1.25,9.92 L-1.87,9.82 L-2.49,9.69 L-3.09,9.51 L-3.68,9.30 L-4.26,9.05 L-4.82,8.76 L-5.36,8.44 L-5.88,8.09 L-6.37,7.71 L-6.85,7.29 L-7.29,6.85 L-7.71,6.37 L-8.09,5.88 L-8.44,5.36 L-8.76,4.82 L-9.05,4.26 L-9.30,3.68 L-9.51,3.09 L-9.69,2.49 L-9.82,1.87 L-9.92,1.25 L-9.98,0.63 L-10.00,-0.00 L-9.98,-0.63 L-9.92,-1.25 L-9.82,-1.87 L-9.69,-2.49 L-9.51,-3.09 L-9.30,-3.68 L-9.05,-4.26 L-8.76,-4.82 L-8.44,-5.36 L-8.09,-5.88 L-7.71,-6.37 L-7.29,-6.85 L-6.85,-7.29 L-6.37,-7.71 L-5.88,-8.09 L-5.36,-8.44 L-4.82,-8.76 L-4.26,-9.05 L-3.68,-9.30 L-3.09,-9.51 L-2.49,-9.69 L-1.87,-9.82 L-1.25,-9.92 L-0.63,-9.98 L0.00,-10.00 L0.63,-9.98 L1.25,-9.92 L1.87,-9.82 L2.49,-9.69 L3.09,-9.51 L3.68,-9.30 L4.26,-9.05 L4.82,-8.76 L5.36,-8.44 L5.88,-8.09 L6.37,-7.71 L6.85,-7.29 L7.29,-6.85 L7.71,-6.37 L8.09,-5.88 L8.44,-5.36 L8.76,-4.82 L9.05,-4.26 L9.30,-3.68 L9.51,-3.09 L9.69,-2.49 L9.82,-1.87 L9.92,-1.25 L9.98,-0.63"]
        RenderPath {circle} at (388.00,188.00) size 64.00x64.00 [transform={m=((3.00,0.00)(0.00,3.00)) t=(0.00,0.00)}] [stroke={[type=SOLID] [color=#C0C0C0] [stroke width=1.33]}] [data="M10.00,0.00 L9.98,0.63 L9.92,1.25 L9.82,1.87 L9.69,2.49 L9.51,3.09 L9.30,3.68 L9.05,4.26 L8.76,4.82 L8.44,5.36 L8.09,5.88 L7.71,6.37 L7.29,6.85 L6.85,7.29 L6.37,7.71 L5.88,8.09 L5.36,8.44 L4.82,8.76 L4.26,9.05 L3.68,9.30 L3.09,9.51 L2.49,9.69 L1.87,9.82 L1.25,9.92 L0.63,9.98 L-0.00,10.00 L-0.63,9.98 L-1.25,9.92 L-1.87,9.82 L-2.49,9.69 L-3.09,9.51 L-3.68,9.30 L-4.26,9.05 L-4.82,8.76 L-5.36,8.44 L-5.88,8.09 L-6.37,7.71 L-6.85,7.29 L-7.29,6.85 L-7.71,6.37 L-8.09,5.88 L-8.44,5.36 L-8.76,4.82 L-9.05,4.26 L-9.30,3.68 L-9.51,3.09 L-9.69,2.49 L-9.82,1.87 L-9.92,1.25 L-9.98,0.63 L-10.00,-0.00 L-9.98,-0.63 L-9.92,-1.25 L-9.82,-1.87 L-9.69,-2.49 L-9.51,-3.09 L-9.30,-3.68 L-9.05,-4.26 L-8.76,-4.82 L-8.44,-5.36 L-8.09,-5.88 L-7.71,-6.37 L-7.29,-6.85 L-6.85,-7.29 L-6.37,-7.71 L-5.88,-8.09 L-5.36,-8.44 L-4.82,-8.76 L-4.26,-9.05 L-3.68,-9.30 L-3.09,-9.51 L-2.49,-9.69 L-1.87,-9.82 L-1.25,-9.92 L-0.63,-9.98 L0.00,-10.00 L0.63,-9.98 L1.25,-9.92 L1.87,-9.82 L2.49,-9.69 L3.09,-9.51 L3.68,-9.30 L4.26,-9.05 L4.82,-8.76 L5.36,-8.44 L5.88,-8.09 L6.37,-7.71 L6.85,-7.29 L7.29,-6.85 L7.71,-6.37 L8.09,-5.88 L8.44,-5.36 L8.76,-4.82 L9.05,-4.26 L9.30,-3.68 L9.51,-3.09 L9.69,-2.49 L9.82,-1.87 L9.92,-1.25 L9.98,-0.63"]
        RenderPath {circle} at (398.00,198.00) size 44.00x44.00 [transform={m=((2.00,0.00)(0.00,2.00)) t=(0.00,0.00)}] [stroke={[type=SOLID] [color=#C0C0C0] [stroke width=2.00]}] [data="M10.00,0.00 L9.98,0.63 L9.92,1.25 L9.82,1.87 L9.69,2.49 L9.51,3.09 L9.30,3.68 L9.05,4.26 L8.76,4.82 L8.44,5.36 L8.09,5.88 L7.71,6.37 L7.29,6.85 L6.85,7.29 L6.37,7.71 L5.88,8.09 L5.36,8.44 L4.82,8.76 L4.26,9.05 L3.68,9.30 L3.09,9.51 L2.49,9.69 L1.87,9.82 L1.25,9.92 L0.63,9.98 L-0.00,10.00 L-0.63,9.98 L-1.25,9.92 L-1.87,9.82 L-2.49,9.69 L-3.09,9.51 L-3.68,9.30 L-4.26,9.05 L-4.82,8.76 L-5.36,8.44 L-5.88,8.09 L-6.37,7.71 L-6.85,7.29 L-7.29,6.85 L-7.71,6.37 L-8.09,5.88 L-8.44,5.36 L-8.76,4.82 L-9.05,4.26 L-9.30,3.68 L-9.51,3.09 L-9.69,2.49 L-9.82,1.87 L-9.92,1.25 L-9.98,0.63 L-10.00,-0.00 L-9.98,-0.63 L-9.92,-1.25 L-9.82,-1.87 L-9.69,-2.49 L-9.51,-3.09 L-9.30,-3.68 L-9.05,-4.26 L-8.76,-4.82 L-8.44,-5.36 L-8.09,-5.88 L-7.71,-6.37 L-7.29,-6.85 L-6.85,-7.29 L-6.37,-7.71 L-5.88,-8.09 L-5.36,-8.44 L-4.82,-8.76 L-4.26,-9.05 L-3.68,-9.30 L-3.09,-9.51 L-2.49,-9.69 L-1.87,-9.82 L-1.25,-9.92 L-0.63,-9.98 L0.00,-10.00 L0.63,-9.98 L1.25,-9.92 L1.87,-9.82 L2.49,-9.69 L3.09,-9.51 L3.68,-9.30 L4.26,-9.05 L4.82,-8.76 L5.36,-8.44 L5.88,-8.09 L6.37,-7.71 L6.85,-7.29 L7.29,-6.85 L7.71,-6.37 L8.09,-5.88 L8.44,-5.36 L8.76,-4.82 L9.05,-4.26 L9.30,-3.68 L9.51,-3.09 L9.69,-2.49 L9.82,-1.87 L9.92,-1.25 L9.98,-0.63"]
        RenderPath {circle} at (408.00,208.00) size 24.00x24.00 [stroke={[type=SOLID] [color=#C0C0C0] [stroke width=4.00]}] [data="M10.00,0.00 L9.98,0.63 L9.92,1.25 L9.82,1.87 L9.69,2.49 L9.51,3.09 L9.30,3.68 L9.05,4.26 L8.76,4.82 L8.44,5.36 L8.09,5.88 L7.71,6.37 L7.29,6.85 L6.85,7.29 L6.37,7.71 L5.88,8.09 L5.36,8.44 L4.82,8.76 L4.26,9.05 L3.68,9.30 L3.09,9.51 L2.49,9.69 L1.87,9.82 L1.25,9.92 L0.63,9.98 L-0.00,10.00 L-0.63,9.98 L-1.25,9.92 L-1.87,9.82 L-2.49,9.69 L-3.09,9.51 L-3.68,9.30 L-4.26,9.05 L-4.82,8.76 L-5.36,8.44 L-5.88,8.09 L-6.37,7.71 L-6.85,7.29 L-7.29,6.85 L-7.71,6.37 L-8.09,5.88 L-8.44,5.36 L-8.76,4.82 L-9.05,4.26 L-9.30,3.68 L-9.51,3.09 L-9.69,2.49 L-9.82,1.87 L-9.92,1.25 L-9.98,0.63 L-10.00,-0.00 L-9.98,-0.63 L-9.92,-1.25 L-9.82,-1.87 L-9.69,-2.49 L-9.51,-3.09 L-9.30,-3.68 L-9.05,-4.26 L-8.76,-4.82 L-8.44,-5.36 L-8.09,-5.88 L-7.71,-6.37 L-7.29,-6.85 L-6.85,-7.29 L-6.37,-7.71 L-5.88,-8.09 L-5.36,-8.44 L-4.82,-8.76 L-4.26,-9.05 L-3.68,-9.30 L-3.09,-9.51 L-2.49,-9.69 L-1.87,-9.82 L-1.25,-9.92 L-0.63,-9.98 L0.00,-10.00 L0.63,-9.98 L1.25,-9.92 L1.87,-9.82 L2.49,-9.69 L3.09,-9.51 L3.68,-9.30 L4.26,-9.05 L4.82,-8.76 L5.36,-8.44 L5.88,-8.09 L6.37,-7.71 L6.85,-7.29 L7.29,-6.85 L7.71,-6.37 L8.09,-5.88 L8.44,-5.36 L8.76,-4.82 L9.05,-4.26 L9.30,-3.68 L9.51,-3.09 L9.69,-2.49 L9.82,-1.87 L9.92,-1.25 L9.98,-0.63"]
        RenderPath {circle} at (380,180) size 80x80 [transform={m=((4.00,0.00)(0.00,4.00)) t=(0.00,0.00)}] [fill={[type=SOLID] [color=#C85050]}] [data="M10.00,0.00 L9.98,0.63 L9.92,1.25 L9.82,1.87 L9.69,2.49 L9.51,3.09 L9.30,3.68 L9.05,4.26 L8.76,4.82 L8.44,5.36 L8.09,5.88 L7.71,6.37 L7.29,6.85 L6.85,7.29 L6.37,7.71 L5.88,8.09 L5.36,8.44 L4.82,8.76 L4.26,9.05 L3.68,9.30 L3.09,9.51 L2.49,9.69 L1.87,9.82 L1.25,9.92 L0.63,9.98 L-0.00,10.00 L-0.63,9.98 L-1.25,9.92 L-1.87,9.82 L-2.49,9.69 L-3.09,9.51 L-3.68,9.30 L-4.26,9.05 L-4.82,8.76 L-5.36,8.44 L-5.88,8.09 L-6.37,7.71 L-6.85,7.29 L-7.29,6.85 L-7.71,6.37 L-8.09,5.88 L-8.44,5.36 L-8.76,4.82 L-9.05,4.26 L-9.30,3.68 L-9.51,3.09 L-9.69,2.49 L-9.82,1.87 L-9.92,1.25 L-9.98,0.63 L-10.00,-0.00 L-9.98,-0.63 L-9.92,-1.25 L-9.82,-1.87 L-9.69,-2.49 L-9.51,-3.09 L-9.30,-3.68 L-9.05,-4.26 L-8.76,-4.82 L-8.44,-5.36 L-8.09,-5.88 L-7.71,-6.37 L-7.29,-6.85 L-6.85,-7.29 L-6.37,-7.71 L-5.88,-8.09 L-5.36,-8.44 L-4.82,-8.76 L-4.26,-9.05 L-3.68,-9.30 L-3.09,-9.51 L-2.49,-9.69 L-1.87,-9.82 L-1.25,-9.92 L-0.63,-9.98 L0.00,-10.00 L0.63,-9.98 L1.25,-9.92 L1.87,-9.82 L2.49,-9.69 L3.09,-9.51 L3.68,-9.30 L4.26,-9.05 L4.82,-8.76 L5.36,-8.44 L5.88,-8.09 L6.37,-7.71 L6.85,-7.29 L7.29,-6.85 L7.71,-6.37 L8.09,-5.88 L8.44,-5.36 L8.76,-4.82 L9.05,-4.26 L9.30,-3.68 L9.51,-3.09 L9.69,-2.49 L9.82,-1.87 L9.92,-1.25 L9.98,-0.63"]
        RenderSVGText {text} at (-34,60) size 68x18 contains 1 chunk(s)
          RenderSVGInlineText {#text} at (0,-14) size 68x18
            chunk 1 (middle anchor) text run 1 at (-33.50,60.00) startOffset 0 endOffset 10 width 67.00: "type=scale"
        RenderSVGText {text} at (-28,75) size 56x18 contains 1 chunk(s)
          RenderSVGInlineText {#text} at (0,-14) size 56x18
            chunk 1 (middle anchor) text run 1 at (-28.00,75.00) startOffset 0 endOffset 9 width 56.00: "(sx only)"
