layer at (0,0) size 480x360
  RenderView at (0,0) size 480x360
layer at (0,0) size 480x360
  RenderSVGRoot {svg} at (0.50,0.50) size 479x359
    RenderSVGText {text} at (10,340) size 264x46 contains 1 chunk(s)
      RenderSVGInlineText {#text} at (0,-36) size 264x46
        chunk 1 text run 1 at (10.00,340.00) startOffset 0 endOffset 16 width 264.00: "$Revision: 1.7 $"
    RenderPath {rect} at (0.50,0.50) size 479x359 [stroke={[type=SOLID] [color=#000000]}] [data="M1.00,1.00 L479.00,1.00 L479.00,359.00 L1.00,359.00"]
    RenderSVGText {text} at (222,30) size 36x23 contains 1 chunk(s)
      RenderSVGInlineText {#text} at (0,-18) size 36x23
        chunk 1 (middle anchor) text run 1 at (222.50,30.00) startOffset 0 endOffset 3 width 35.00: "max"
    RenderSVGText {text} at (193,190) size 94x23 contains 1 chunk(s)
      RenderSVGInlineText {#text} at (0,-18) size 94x23
        chunk 1 (middle anchor) text run 1 at (193.50,190.00) startOffset 0 endOffset 9 width 93.00: "min & max"
    RenderSVGContainer {g} at (72,42) size 284.50x237 [transform={m=((1.00,0.00)(0.00,1.00)) t=(100.00,30.00)}]
      RenderSVGContainer {g} at (72,62) size 148x217 [transform={m=((1.00,0.00)(0.00,1.00)) t=(120.00,45.00)}]
        RenderSVGText {text} at (-88,0) size 88x17 contains 1 chunk(s)
          RenderSVGInlineText {#text} at (0,-13) size 88x17
            chunk 1 (end anchor) text run 1 at (-88.00,0.00) startOffset 0 endOffset 14 width 88.00: "no max / media"
        RenderSVGText {text} at (-106,25) size 106x17 contains 1 chunk(s)
          RenderSVGInlineText {#text} at (0,-13) size 106x17
            chunk 1 (end anchor) text run 1 at (-106.00,25.00) startOffset 0 endOffset 18 width 106.00: "invalid max values"
        RenderSVGText {text} at (-96,50) size 96x17 contains 1 chunk(s)
          RenderSVGInlineText {#text} at (0,-13) size 96x17
            chunk 1 (end anchor) text run 1 at (-96.00,50.00) startOffset 0 endOffset 16 width 96.00: "max < active dur"
        RenderSVGText {text} at (-96,75) size 96x17 contains 1 chunk(s)
          RenderSVGInlineText {#text} at (0,-13) size 96x17
            chunk 1 (end anchor) text run 1 at (-96.00,75.00) startOffset 0 endOffset 16 width 96.00: "max > active dur"
        RenderSVGText {text} at (-62,150) size 62x17 contains 1 chunk(s)
          RenderSVGInlineText {#text} at (0,-13) size 62x17
            chunk 1 (end anchor) text run 1 at (-62.00,150.00) startOffset 0 endOffset 9 width 62.00: "min < max"
        RenderSVGText {text} at (-62,175) size 62x17 contains 1 chunk(s)
          RenderSVGInlineText {#text} at (0,-13) size 62x17
            chunk 1 (end anchor) text run 1 at (-62.00,175.00) startOffset 0 endOffset 9 width 62.00: "min = max"
        RenderSVGText {text} at (-148,200) size 148x17 contains 1 chunk(s)
          RenderSVGInlineText {#text} at (0,-13) size 148x17
            chunk 1 (end anchor) text run 1 at (-148.00,200.00) startOffset 0 endOffset 24 width 148.00: "min > max (both ignored)"
      RenderSVGContainer {g} at (238,42) size 107x17 [transform={m=((1.00,0.00)(0.00,1.00)) t=(150.00,25.00)}]
        RenderSVGText {text} at (-12,0) size 24x17 contains 1 chunk(s)
          RenderSVGInlineText {#text} at (0,-13) size 24x17
            chunk 1 (middle anchor) text run 1 at (-12.00,0.00) startOffset 0 endOffset 4 width 24.00: "> 5s"
        RenderSVGText {text} at (65,0) size 30x17 contains 1 chunk(s)
          RenderSVGInlineText {#text} at (0,-13) size 30x17
            chunk 1 (middle anchor) text run 1 at (65.50,0.00) startOffset 0 endOffset 5 width 29.00: "0s-5s"
      RenderSVGContainer {g} at (243.50,63.50) size 113x213 [transform={m=((1.00,0.00)(0.00,1.00)) t=(150.00,40.00)}]
        RenderSVGHiddenContainer {defs} at (0,0) size 0x0
          RenderPath {rect} at (-6.50,-6.50) size 13x13 [stroke={[type=SOLID] [color=#000000]}] [fill={[type=SOLID] [color=#CCCCCC]}] [data="M-6.00,-6.00 L6.00,-6.00 L6.00,6.00 L-6.00,6.00"]
        RenderSVGContainer {g} at (243.50,63.50) size 113x13
          RenderSVGContainer {use} at (243.50,63.50) size 13x13
            RenderSVGContainer {g} at (243.50,63.50) size 13x13
              RenderPath {rect} at (243.50,63.50) size 13x13 [stroke={[type=SOLID] [color=#000000]}] [fill={[type=SOLID] [color=#CCCCCC]}] [data="M-6.00,-6.00 L6.00,-6.00 L6.00,6.00 L-6.00,6.00"]
          RenderSVGContainer {use} at (323.50,63.50) size 13x13
            RenderSVGContainer {g} at (323.50,63.50) size 13x13 [transform={m=((1.00,0.00)(0.00,1.00)) t=(80.00,0.00)}]
              RenderPath {rect} at (323.50,63.50) size 13x13 [stroke={[type=SOLID] [color=#000000]}] [fill={[type=SOLID] [color=#CCCCCC]}] [data="M-6.00,-6.00 L6.00,-6.00 L6.00,6.00 L-6.00,6.00"]
          RenderPath {rect} at (323.50,63.50) size 13x13 [stroke={[type=SOLID] [color=#000000]}] [fill={[type=SOLID] [color=#CC0066]}] [data="M74.00,-6.00 L86.00,-6.00 L86.00,6.00 L74.00,6.00"]
          RenderSVGContainer {g} at (263.50,63.50) size 93x13 [transform={m=((1.00,0.00)(0.00,1.00)) t=(20.00,0.00)}]
            RenderSVGContainer {use} at (263.50,63.50) size 13x13
              RenderSVGContainer {g} at (263.50,63.50) size 13x13
                RenderPath {rect} at (263.50,63.50) size 13x13 [stroke={[type=SOLID] [color=#000000]}] [fill={[type=SOLID] [color=#CCCCCC]}] [data="M-6.00,-6.00 L6.00,-6.00 L6.00,6.00 L-6.00,6.00"]
            RenderSVGContainer {use} at (343.50,63.50) size 13x13
              RenderSVGContainer {g} at (343.50,63.50) size 13x13 [transform={m=((1.00,0.00)(0.00,1.00)) t=(80.00,0.00)}]
                RenderPath {rect} at (343.50,63.50) size 13x13 [stroke={[type=SOLID] [color=#000000]}] [fill={[type=SOLID] [color=#CCCCCC]}] [data="M-6.00,-6.00 L6.00,-6.00 L6.00,6.00 L-6.00,6.00"]
            RenderPath {rect} at (343.50,63.50) size 13x13 [stroke={[type=SOLID] [color=#000000]}] [fill={[type=SOLID] [color=#CC0066]}] [data="M74.00,-6.00 L86.00,-6.00 L86.00,6.00 L74.00,6.00"]
        RenderSVGContainer {g} at (243.50,88.50) size 113x13 [transform={m=((1.00,0.00)(0.00,1.00)) t=(0.00,25.00)}]
          RenderSVGContainer {use} at (243.50,88.50) size 13x13
            RenderSVGContainer {g} at (243.50,88.50) size 13x13
              RenderPath {rect} at (243.50,88.50) size 13x13 [stroke={[type=SOLID] [color=#000000]}] [fill={[type=SOLID] [color=#CCCCCC]}] [data="M-6.00,-6.00 L6.00,-6.00 L6.00,6.00 L-6.00,6.00"]
          RenderSVGContainer {use} at (323.50,88.50) size 13x13
            RenderSVGContainer {g} at (323.50,88.50) size 13x13 [transform={m=((1.00,0.00)(0.00,1.00)) t=(80.00,0.00)}]
              RenderPath {rect} at (323.50,88.50) size 13x13 [stroke={[type=SOLID] [color=#000000]}] [fill={[type=SOLID] [color=#CCCCCC]}] [data="M-6.00,-6.00 L6.00,-6.00 L6.00,6.00 L-6.00,6.00"]
          RenderPath {rect} at (323.50,88.50) size 13x13 [stroke={[type=SOLID] [color=#000000]}] [fill={[type=SOLID] [color=#CC0066]}] [data="M74.00,-6.00 L86.00,-6.00 L86.00,6.00 L74.00,6.00"]
          RenderSVGContainer {g} at (263.50,88.50) size 93x13 [transform={m=((1.00,0.00)(0.00,1.00)) t=(20.00,0.00)}]
            RenderSVGContainer {use} at (263.50,88.50) size 13x13
              RenderSVGContainer {g} at (263.50,88.50) size 13x13
                RenderPath {rect} at (263.50,88.50) size 13x13 [stroke={[type=SOLID] [color=#000000]}] [fill={[type=SOLID] [color=#CCCCCC]}] [data="M-6.00,-6.00 L6.00,-6.00 L6.00,6.00 L-6.00,6.00"]
            RenderSVGContainer {use} at (343.50,88.50) size 13x13
              RenderSVGContainer {g} at (343.50,88.50) size 13x13 [transform={m=((1.00,0.00)(0.00,1.00)) t=(80.00,0.00)}]
                RenderPath {rect} at (343.50,88.50) size 13x13 [stroke={[type=SOLID] [color=#000000]}] [fill={[type=SOLID] [color=#CCCCCC]}] [data="M-6.00,-6.00 L6.00,-6.00 L6.00,6.00 L-6.00,6.00"]
            RenderPath {rect} at (343.50,88.50) size 13x13 [stroke={[type=SOLID] [color=#000000]}] [fill={[type=SOLID] [color=#CC0066]}] [data="M74.00,-6.00 L86.00,-6.00 L86.00,6.00 L74.00,6.00"]
        RenderSVGContainer {g} at (243.50,113.50) size 93x13 [transform={m=((1.00,0.00)(0.00,1.00)) t=(0.00,50.00)}]
          RenderSVGContainer {use} at (243.50,113.50) size 13x13
            RenderSVGContainer {g} at (243.50,113.50) size 13x13
              RenderPath {rect} at (243.50,113.50) size 13x13 [stroke={[type=SOLID] [color=#000000]}] [fill={[type=SOLID] [color=#CCCCCC]}] [data="M-6.00,-6.00 L6.00,-6.00 L6.00,6.00 L-6.00,6.00"]
          RenderSVGContainer {use} at (323.50,113.50) size 13x13
            RenderSVGContainer {g} at (323.50,113.50) size 13x13 [transform={m=((1.00,0.00)(0.00,1.00)) t=(80.00,0.00)}]
              RenderPath {rect} at (323.50,113.50) size 13x13 [stroke={[type=SOLID] [color=#000000]}] [fill={[type=SOLID] [color=#CCCCCC]}] [data="M-6.00,-6.00 L6.00,-6.00 L6.00,6.00 L-6.00,6.00"]
          RenderPath {rect} at (323.50,113.50) size 13x13 [stroke={[type=SOLID] [color=#000000]}] [fill={[type=SOLID] [color=#CC0066]}] [data="M74.00,-6.00 L86.00,-6.00 L86.00,6.00 L74.00,6.00"]
        RenderSVGContainer {g} at (243.50,138.50) size 93x13 [transform={m=((1.00,0.00)(0.00,1.00)) t=(0.00,75.00)}]
          RenderSVGContainer {use} at (243.50,138.50) size 13x13
            RenderSVGContainer {g} at (243.50,138.50) size 13x13
              RenderPath {rect} at (243.50,138.50) size 13x13 [stroke={[type=SOLID] [color=#000000]}] [fill={[type=SOLID] [color=#CCCCCC]}] [data="M-6.00,-6.00 L6.00,-6.00 L6.00,6.00 L-6.00,6.00"]
          RenderSVGContainer {use} at (323.50,138.50) size 13x13
            RenderSVGContainer {g} at (323.50,138.50) size 13x13 [transform={m=((1.00,0.00)(0.00,1.00)) t=(80.00,0.00)}]
              RenderPath {rect} at (323.50,138.50) size 13x13 [stroke={[type=SOLID] [color=#000000]}] [fill={[type=SOLID] [color=#CCCCCC]}] [data="M-6.00,-6.00 L6.00,-6.00 L6.00,6.00 L-6.00,6.00"]
          RenderPath {rect} at (323.50,138.50) size 13x13 [stroke={[type=SOLID] [color=#000000]}] [fill={[type=SOLID] [color=#CC0066]}] [data="M74.00,-6.00 L86.00,-6.00 L86.00,6.00 L74.00,6.00"]
        RenderSVGContainer {g} at (243.50,213.50) size 93x13 [transform={m=((1.00,0.00)(0.00,1.00)) t=(0.00,150.00)}]
          RenderSVGContainer {use} at (243.50,213.50) size 13x13
            RenderSVGContainer {g} at (243.50,213.50) size 13x13
              RenderPath {rect} at (243.50,213.50) size 13x13 [stroke={[type=SOLID] [color=#000000]}] [fill={[type=SOLID] [color=#CCCCCC]}] [data="M-6.00,-6.00 L6.00,-6.00 L6.00,6.00 L-6.00,6.00"]
          RenderSVGContainer {use} at (323.50,213.50) size 13x13
            RenderSVGContainer {g} at (323.50,213.50) size 13x13 [transform={m=((1.00,0.00)(0.00,1.00)) t=(80.00,0.00)}]
              RenderPath {rect} at (323.50,213.50) size 13x13 [stroke={[type=SOLID] [color=#000000]}] [fill={[type=SOLID] [color=#CCCCCC]}] [data="M-6.00,-6.00 L6.00,-6.00 L6.00,6.00 L-6.00,6.00"]
          RenderPath {rect} at (323.50,213.50) size 13x13 [stroke={[type=SOLID] [color=#000000]}] [fill={[type=SOLID] [color=#CC0066]}] [data="M74.00,-6.00 L86.00,-6.00 L86.00,6.00 L74.00,6.00"]
        RenderSVGContainer {g} at (243.50,238.50) size 93x13 [transform={m=((1.00,0.00)(0.00,1.00)) t=(0.00,175.00)}]
          RenderSVGContainer {use} at (243.50,238.50) size 13x13
            RenderSVGContainer {g} at (243.50,238.50) size 13x13
              RenderPath {rect} at (243.50,238.50) size 13x13 [stroke={[type=SOLID] [color=#000000]}] [fill={[type=SOLID] [color=#CCCCCC]}] [data="M-6.00,-6.00 L6.00,-6.00 L6.00,6.00 L-6.00,6.00"]
          RenderSVGContainer {use} at (323.50,238.50) size 13x13
            RenderSVGContainer {g} at (323.50,238.50) size 13x13 [transform={m=((1.00,0.00)(0.00,1.00)) t=(80.00,0.00)}]
              RenderPath {rect} at (323.50,238.50) size 13x13 [stroke={[type=SOLID] [color=#000000]}] [fill={[type=SOLID] [color=#CCCCCC]}] [data="M-6.00,-6.00 L6.00,-6.00 L6.00,6.00 L-6.00,6.00"]
          RenderPath {rect} at (323.50,238.50) size 13x13 [stroke={[type=SOLID] [color=#000000]}] [fill={[type=SOLID] [color=#CC0066]}] [data="M74.00,-6.00 L86.00,-6.00 L86.00,6.00 L74.00,6.00"]
        RenderSVGContainer {g} at (243.50,263.50) size 93x13 [transform={m=((1.00,0.00)(0.00,1.00)) t=(0.00,200.00)}]
          RenderSVGContainer {use} at (243.50,263.50) size 13x13
            RenderSVGContainer {g} at (243.50,263.50) size 13x13
              RenderPath {rect} at (243.50,263.50) size 13x13 [stroke={[type=SOLID] [color=#000000]}] [fill={[type=SOLID] [color=#CCCCCC]}] [data="M-6.00,-6.00 L6.00,-6.00 L6.00,6.00 L-6.00,6.00"]
          RenderSVGContainer {use} at (323.50,263.50) size 13x13
            RenderSVGContainer {g} at (323.50,263.50) size 13x13 [transform={m=((1.00,0.00)(0.00,1.00)) t=(80.00,0.00)}]
              RenderPath {rect} at (323.50,263.50) size 13x13 [stroke={[type=SOLID] [color=#000000]}] [fill={[type=SOLID] [color=#CCCCCC]}] [data="M-6.00,-6.00 L6.00,-6.00 L6.00,6.00 L-6.00,6.00"]
          RenderPath {rect} at (323.50,263.50) size 13x13 [stroke={[type=SOLID] [color=#000000]}] [fill={[type=SOLID] [color=#CC0066]}] [data="M74.00,-6.00 L86.00,-6.00 L86.00,6.00 L74.00,6.00"]
