layer at (0,0) size 480x360
  RenderView at (0,0) size 480x360
layer at (0,0) size 480x360
  RenderSVGRoot {svg} at (0.50,0.50) size 479x359
    RenderSVGText {text} at (144,25) size 192x18 contains 1 chunk(s)
      RenderSVGInlineText {#text} at (0,-14) size 192x18
        chunk 1 (middle anchor) text run 1 at (144.50,25.00) startOffset 0 endOffset 29 width 191.00: "<animate> of x/y/width/height"
    RenderSVGContainer {g} at (8,43) size 465x246
      RenderSVGContainer {g} at (18,54.50) size 84x99.50 [transform={m=((1.00,0.00)(0.00,1.00)) t=(60.00,90.00)}]
        RenderSVGHiddenContainer {defs} at (0,0) size 0x0
          RenderPath {rect} at (-3,-3) size 6x6 [fill={[type=SOLID] [color=#000000]}] [data="M-3.00,-3.00 L3.00,-3.00 L3.00,3.00 L-3.00,3.00"]
          RenderSVGContainer {g} at (-18.50,-18.50) size 37x37
            RenderSVGContainer {use} at (-18.50,-18.50) size 7x7
              RenderSVGContainer {g} at (-18.50,-18.50) size 7x7 [transform={m=((1.00,0.00)(0.00,1.00)) t=(-15.00,-15.00)}]
                RenderPath {rect} at (-18.50,-18.50) size 7x7 [stroke={[type=SOLID] [color=#FFB400]}] [fill={[type=SOLID] [color=#E6E6E6]}] [data="M-3.00,-3.00 L3.00,-3.00 L3.00,3.00 L-3.00,3.00"]
            RenderSVGContainer {use} at (11.50,-18.50) size 7x7
              RenderSVGContainer {g} at (11.50,-18.50) size 7x7 [transform={m=((1.00,0.00)(0.00,1.00)) t=(15.00,-15.00)}]
                RenderPath {rect} at (11.50,-18.50) size 7x7 [stroke={[type=SOLID] [color=#FFB400]}] [fill={[type=SOLID] [color=#E6E6E6]}] [data="M-3.00,-3.00 L3.00,-3.00 L3.00,3.00 L-3.00,3.00"]
            RenderSVGContainer {use} at (11.50,11.50) size 7x7
              RenderSVGContainer {g} at (11.50,11.50) size 7x7 [transform={m=((1.00,0.00)(0.00,1.00)) t=(15.00,15.00)}]
                RenderPath {rect} at (11.50,11.50) size 7x7 [stroke={[type=SOLID] [color=#FFB400]}] [fill={[type=SOLID] [color=#E6E6E6]}] [data="M-3.00,-3.00 L3.00,-3.00 L3.00,3.00 L-3.00,3.00"]
            RenderSVGContainer {use} at (-18.50,11.50) size 7x7
              RenderSVGContainer {g} at (-18.50,11.50) size 7x7 [transform={m=((1.00,0.00)(0.00,1.00)) t=(-15.00,15.00)}]
                RenderPath {rect} at (-18.50,11.50) size 7x7 [stroke={[type=SOLID] [color=#FFB400]}] [fill={[type=SOLID] [color=#E6E6E6]}] [data="M-3.00,-3.00 L3.00,-3.00 L3.00,3.00 L-3.00,3.00"]
          RenderPath {path} at (-20.50,-20.50) size 41x41 [stroke={[type=SOLID] [color=#FFB400]}] [fill={[type=SOLID] [color=#E6E6E6]}] [data="M0.00,0.00 C13.33,0.00,20.00,-6.67,20.00,-20.00 C6.67,-20.00,0.00,-13.33,0.00,0.00 C0.00,-13.33,-6.67,-20.00,-20.00,-20.00 C-20.00,-6.67,-13.33,0.00,0.00,0.00 C-13.33,0.00,-20.00,6.67,-20.00,20.00 C-6.67,20.00,0.00,13.33,0.00,0.00 C0.00,13.33,6.67,20.00,20.00,20.00 C20.00,6.67,13.33,0.00,0.00,0.00"]
        RenderSVGContainer {use} at (24.50,54.50) size 41x41
          RenderSVGContainer {g} at (24.50,54.50) size 41x41 [transform={m=((1.00,0.00)(0.00,1.00)) t=(-15.00,-15.00)}]
            RenderPath {path} at (24.50,54.50) size 41x41 [stroke={[type=SOLID] [color=#FFB400]}] [fill={[type=SOLID] [color=#E6E6E6]}] [data="M0.00,0.00 C13.33,0.00,20.00,-6.67,20.00,-20.00 C6.67,-20.00,0.00,-13.33,0.00,0.00 C0.00,-13.33,-6.67,-20.00,-20.00,-20.00 C-20.00,-6.67,-13.33,0.00,0.00,0.00 C-13.33,0.00,-20.00,6.67,-20.00,20.00 C-6.67,20.00,0.00,13.33,0.00,0.00 C0.00,13.33,6.67,20.00,20.00,20.00 C20.00,6.67,13.33,0.00,0.00,0.00"]
        RenderSVGContainer {use} at (41.50,71.50) size 37x37
          RenderSVGContainer {g} at (41.50,71.50) size 37x37
            RenderSVGContainer {g} at (41.50,71.50) size 37x37
              RenderSVGContainer {g} at (41.50,71.50) size 7x7 [transform={m=((1.00,0.00)(0.00,1.00)) t=(-15.00,-15.00)}]
                RenderPath {rect} at (41.50,71.50) size 7x7 [stroke={[type=SOLID] [color=#FFB400]}] [fill={[type=SOLID] [color=#FFB400]}] [data="M-3.00,-3.00 L3.00,-3.00 L3.00,3.00 L-3.00,3.00"]
              RenderSVGContainer {g} at (71.50,71.50) size 7x7 [transform={m=((1.00,0.00)(0.00,1.00)) t=(15.00,-15.00)}]
                RenderPath {rect} at (71.50,71.50) size 7x7 [stroke={[type=SOLID] [color=#FFB400]}] [fill={[type=SOLID] [color=#E6E6E6]}] [data="M-3.00,-3.00 L3.00,-3.00 L3.00,3.00 L-3.00,3.00"]
              RenderSVGContainer {g} at (71.50,101.50) size 7x7 [transform={m=((1.00,0.00)(0.00,1.00)) t=(15.00,15.00)}]
                RenderPath {rect} at (71.50,101.50) size 7x7 [stroke={[type=SOLID] [color=#FFB400]}] [fill={[type=SOLID] [color=#E6E6E6]}] [data="M-3.00,-3.00 L3.00,-3.00 L3.00,3.00 L-3.00,3.00"]
              RenderSVGContainer {g} at (41.50,101.50) size 7x7 [transform={m=((1.00,0.00)(0.00,1.00)) t=(-15.00,15.00)}]
                RenderPath {rect} at (41.50,101.50) size 7x7 [stroke={[type=SOLID] [color=#FFB400]}] [fill={[type=SOLID] [color=#E6E6E6]}] [data="M-3.00,-3.00 L3.00,-3.00 L3.00,3.00 L-3.00,3.00"]
        RenderSVGText {text} at (-42,60) size 84x18 contains 1 chunk(s)
          RenderSVGInlineText {#text} at (0,-14) size 84x18
            chunk 1 (middle anchor) text run 1 at (-41.50,60.00) startOffset 0 endOffset 12 width 83.00: "x/y on <use>"
      RenderSVGContainer {g} at (130,71.50) size 100x82.50 [transform={m=((1.00,0.00)(0.00,1.00)) t=(180.00,90.00)}]
        RenderImage {image} at (0,0) size 50x50
        RenderSVGContainer {use} at (161.50,71.50) size 37x37
          RenderSVGContainer {g} at (161.50,71.50) size 37x37
            RenderSVGContainer {g} at (161.50,71.50) size 37x37
              RenderSVGContainer {g} at (161.50,71.50) size 7x7 [transform={m=((1.00,0.00)(0.00,1.00)) t=(-15.00,-15.00)}]
                RenderPath {rect} at (161.50,71.50) size 7x7 [stroke={[type=SOLID] [color=#FFB400]}] [fill={[type=SOLID] [color=#FFB400]}] [data="M-3.00,-3.00 L3.00,-3.00 L3.00,3.00 L-3.00,3.00"]
              RenderSVGContainer {g} at (191.50,71.50) size 7x7 [transform={m=((1.00,0.00)(0.00,1.00)) t=(15.00,-15.00)}]
                RenderPath {rect} at (191.50,71.50) size 7x7 [stroke={[type=SOLID] [color=#FFB400]}] [fill={[type=SOLID] [color=#E6E6E6]}] [data="M-3.00,-3.00 L3.00,-3.00 L3.00,3.00 L-3.00,3.00"]
              RenderSVGContainer {g} at (191.50,101.50) size 7x7 [transform={m=((1.00,0.00)(0.00,1.00)) t=(15.00,15.00)}]
                RenderPath {rect} at (191.50,101.50) size 7x7 [stroke={[type=SOLID] [color=#FFB400]}] [fill={[type=SOLID] [color=#E6E6E6]}] [data="M-3.00,-3.00 L3.00,-3.00 L3.00,3.00 L-3.00,3.00"]
              RenderSVGContainer {g} at (161.50,101.50) size 7x7 [transform={m=((1.00,0.00)(0.00,1.00)) t=(-15.00,15.00)}]
                RenderPath {rect} at (161.50,101.50) size 7x7 [stroke={[type=SOLID] [color=#FFB400]}] [fill={[type=SOLID] [color=#E6E6E6]}] [data="M-3.00,-3.00 L3.00,-3.00 L3.00,3.00 L-3.00,3.00"]
        RenderSVGText {text} at (-50,60) size 100x18 contains 1 chunk(s)
          RenderSVGInlineText {#text} at (0,-14) size 100x18
            chunk 1 (middle anchor) text run 1 at (-50.00,60.00) startOffset 0 endOffset 14 width 100.00: "x/y on <image>"
      RenderSVGContainer {g} at (257,71.50) size 86x82.50 [transform={m=((1.00,0.00)(0.00,1.00)) t=(300.00,90.00)}]
        RenderPath {rect} at (284.50,74.50) size 51x21 [stroke={[type=SOLID] [color=#FFB400]}] [fill={[type=SOLID] [color=#000000]}] [data="M-15.00,-15.00 L35.00,-15.00 L35.00,5.00 L-15.00,5.00"]
        RenderSVGContainer {use} at (281.50,71.50) size 37x37
          RenderSVGContainer {g} at (281.50,71.50) size 37x37
            RenderSVGContainer {g} at (281.50,71.50) size 37x37
              RenderSVGContainer {g} at (281.50,71.50) size 7x7 [transform={m=((1.00,0.00)(0.00,1.00)) t=(-15.00,-15.00)}]
                RenderPath {rect} at (281.50,71.50) size 7x7 [stroke={[type=SOLID] [color=#FFB400]}] [fill={[type=SOLID] [color=#FFB400]}] [data="M-3.00,-3.00 L3.00,-3.00 L3.00,3.00 L-3.00,3.00"]
              RenderSVGContainer {g} at (311.50,71.50) size 7x7 [transform={m=((1.00,0.00)(0.00,1.00)) t=(15.00,-15.00)}]
                RenderPath {rect} at (311.50,71.50) size 7x7 [stroke={[type=SOLID] [color=#FFB400]}] [fill={[type=SOLID] [color=#E6E6E6]}] [data="M-3.00,-3.00 L3.00,-3.00 L3.00,3.00 L-3.00,3.00"]
              RenderSVGContainer {g} at (311.50,101.50) size 7x7 [transform={m=((1.00,0.00)(0.00,1.00)) t=(15.00,15.00)}]
                RenderPath {rect} at (311.50,101.50) size 7x7 [stroke={[type=SOLID] [color=#FFB400]}] [fill={[type=SOLID] [color=#E6E6E6]}] [data="M-3.00,-3.00 L3.00,-3.00 L3.00,3.00 L-3.00,3.00"]
              RenderSVGContainer {g} at (281.50,101.50) size 7x7 [transform={m=((1.00,0.00)(0.00,1.00)) t=(-15.00,15.00)}]
                RenderPath {rect} at (281.50,101.50) size 7x7 [stroke={[type=SOLID] [color=#FFB400]}] [fill={[type=SOLID] [color=#E6E6E6]}] [data="M-3.00,-3.00 L3.00,-3.00 L3.00,3.00 L-3.00,3.00"]
        RenderSVGText {text} at (-43,60) size 86x18 contains 1 chunk(s)
          RenderSVGInlineText {#text} at (0,-14) size 86x18
            chunk 1 (middle anchor) text run 1 at (-42.50,60.00) startOffset 0 endOffset 13 width 85.00: "x/y on <rect>"
      RenderSVGContainer {g} at (257,71.50) size 86x82.50 [transform={m=((1.00,0.00)(0.00,1.00)) t=(300.00,90.00)}]
        RenderPath {rect} at (284.50,74.50) size 51x21 [stroke={[type=SOLID] [color=#FFB400]}] [fill={[type=SOLID] [color=#000000]}] [data="M-15.00,-15.00 L35.00,-15.00 L35.00,5.00 L-15.00,5.00"]
        RenderSVGContainer {use} at (281.50,71.50) size 37x37
          RenderSVGContainer {g} at (281.50,71.50) size 37x37
            RenderSVGContainer {g} at (281.50,71.50) size 37x37
              RenderSVGContainer {g} at (281.50,71.50) size 7x7 [transform={m=((1.00,0.00)(0.00,1.00)) t=(-15.00,-15.00)}]
                RenderPath {rect} at (281.50,71.50) size 7x7 [stroke={[type=SOLID] [color=#FFB400]}] [fill={[type=SOLID] [color=#FFB400]}] [data="M-3.00,-3.00 L3.00,-3.00 L3.00,3.00 L-3.00,3.00"]
              RenderSVGContainer {g} at (311.50,71.50) size 7x7 [transform={m=((1.00,0.00)(0.00,1.00)) t=(15.00,-15.00)}]
                RenderPath {rect} at (311.50,71.50) size 7x7 [stroke={[type=SOLID] [color=#FFB400]}] [fill={[type=SOLID] [color=#E6E6E6]}] [data="M-3.00,-3.00 L3.00,-3.00 L3.00,3.00 L-3.00,3.00"]
              RenderSVGContainer {g} at (311.50,101.50) size 7x7 [transform={m=((1.00,0.00)(0.00,1.00)) t=(15.00,15.00)}]
                RenderPath {rect} at (311.50,101.50) size 7x7 [stroke={[type=SOLID] [color=#FFB400]}] [fill={[type=SOLID] [color=#E6E6E6]}] [data="M-3.00,-3.00 L3.00,-3.00 L3.00,3.00 L-3.00,3.00"]
              RenderSVGContainer {g} at (281.50,101.50) size 7x7 [transform={m=((1.00,0.00)(0.00,1.00)) t=(-15.00,15.00)}]
                RenderPath {rect} at (281.50,101.50) size 7x7 [stroke={[type=SOLID] [color=#FFB400]}] [fill={[type=SOLID] [color=#E6E6E6]}] [data="M-3.00,-3.00 L3.00,-3.00 L3.00,3.00 L-3.00,3.00"]
        RenderSVGText {text} at (-43,60) size 86x18 contains 1 chunk(s)
          RenderSVGInlineText {#text} at (0,-14) size 86x18
            chunk 1 (middle anchor) text run 1 at (-42.50,60.00) startOffset 0 endOffset 13 width 85.00: "x/y on <rect>"
      RenderSVGContainer {g} at (377,43) size 96x111 [transform={m=((1.00,0.00)(0.00,1.00)) t=(420.00,90.00)}]
        RenderSVGHiddenContainer {defs} at (0,0) size 0x0
        RenderSVGText {text} at (-15,-15) size 68x40 contains 1 chunk(s)
          RenderSVGInlineText {#text} at (0,-32) size 68x40
            chunk 1 text run 1 at (-15.00,-15.00) startOffset 0 endOffset 3 width 67.40: "123"
        RenderSVGContainer {use} at (401.50,71.50) size 37x37
          RenderSVGContainer {g} at (401.50,71.50) size 37x37
            RenderSVGContainer {g} at (401.50,71.50) size 37x37
              RenderSVGContainer {g} at (401.50,71.50) size 7x7 [transform={m=((1.00,0.00)(0.00,1.00)) t=(-15.00,-15.00)}]
                RenderPath {rect} at (401.50,71.50) size 7x7 [stroke={[type=SOLID] [color=#FFB400]}] [fill={[type=SOLID] [color=#FFB400]}] [data="M-3.00,-3.00 L3.00,-3.00 L3.00,3.00 L-3.00,3.00"]
              RenderSVGContainer {g} at (431.50,71.50) size 7x7 [transform={m=((1.00,0.00)(0.00,1.00)) t=(15.00,-15.00)}]
                RenderPath {rect} at (431.50,71.50) size 7x7 [stroke={[type=SOLID] [color=#FFB400]}] [fill={[type=SOLID] [color=#E6E6E6]}] [data="M-3.00,-3.00 L3.00,-3.00 L3.00,3.00 L-3.00,3.00"]
              RenderSVGContainer {g} at (431.50,101.50) size 7x7 [transform={m=((1.00,0.00)(0.00,1.00)) t=(15.00,15.00)}]
                RenderPath {rect} at (431.50,101.50) size 7x7 [stroke={[type=SOLID] [color=#FFB400]}] [fill={[type=SOLID] [color=#E6E6E6]}] [data="M-3.00,-3.00 L3.00,-3.00 L3.00,3.00 L-3.00,3.00"]
              RenderSVGContainer {g} at (401.50,101.50) size 7x7 [transform={m=((1.00,0.00)(0.00,1.00)) t=(-15.00,15.00)}]
                RenderPath {rect} at (401.50,101.50) size 7x7 [stroke={[type=SOLID] [color=#FFB400]}] [fill={[type=SOLID] [color=#E6E6E6]}] [data="M-3.00,-3.00 L3.00,-3.00 L3.00,3.00 L-3.00,3.00"]
        RenderSVGText {text} at (-43,60) size 86x18 contains 1 chunk(s)
          RenderSVGInlineText {#text} at (0,-14) size 86x18
            chunk 1 (middle anchor) text run 1 at (-42.50,60.00) startOffset 0 endOffset 13 width 85.00: "x/y on <rect>"
      RenderSVGContainer {g} at (8,163) size 104x111 [transform={m=((1.00,0.00)(0.00,1.00)) t=(60.00,210.00)}]
        RenderSVGHiddenContainer {defs} at (0,0) size 0x0
          RenderSVGContainer {g} at (-18.50,-18.50) size 37x37
            RenderSVGContainer {use} at (-18.50,-18.50) size 7x7
              RenderSVGContainer {g} at (-18.50,-18.50) size 7x7 [transform={m=((1.00,0.00)(0.00,1.00)) t=(-15.00,-15.00)}]
                RenderPath {rect} at (-18.50,-18.50) size 7x7 [stroke={[type=SOLID] [color=#FFB400]}] [fill={[type=SOLID] [color=#E6E6E6]}] [data="M-3.00,-3.00 L3.00,-3.00 L3.00,3.00 L-3.00,3.00"]
            RenderSVGContainer {use} at (11.50,-18.50) size 7x7
              RenderSVGContainer {g} at (11.50,-18.50) size 7x7 [transform={m=((1.00,0.00)(0.00,1.00)) t=(15.00,-15.00)}]
                RenderPath {rect} at (11.50,-18.50) size 7x7 [stroke={[type=SOLID] [color=#FFB400]}] [fill={[type=SOLID] [color=#E6E6E6]}] [data="M-3.00,-3.00 L3.00,-3.00 L3.00,3.00 L-3.00,3.00"]
            RenderSVGContainer {use} at (11.50,11.50) size 7x7
              RenderSVGContainer {g} at (11.50,11.50) size 7x7 [transform={m=((1.00,0.00)(0.00,1.00)) t=(15.00,15.00)}]
                RenderPath {rect} at (11.50,11.50) size 7x7 [stroke={[type=SOLID] [color=#FFB400]}] [fill={[type=SOLID] [color=#E6E6E6]}] [data="M-3.00,-3.00 L3.00,-3.00 L3.00,3.00 L-3.00,3.00"]
            RenderSVGContainer {use} at (-18.50,11.50) size 7x7
              RenderSVGContainer {g} at (-18.50,11.50) size 7x7 [transform={m=((1.00,0.00)(0.00,1.00)) t=(-15.00,15.00)}]
                RenderPath {rect} at (-18.50,11.50) size 7x7 [stroke={[type=SOLID] [color=#FFB400]}] [fill={[type=SOLID] [color=#E6E6E6]}] [data="M-3.00,-3.00 L3.00,-3.00 L3.00,3.00 L-3.00,3.00"]
        RenderSVGText {text} at (-35,-15) size 64x40 contains 2 chunk(s)
          RenderSVGInlineText {#text} at (0,-32) size 64x40
            chunk 1 text run 1 at (-35.00,-15.00) startOffset 0 endOffset 1 width 22.32: "1"
            chunk 2 text run 1 at (5.00,-15.00) startOffset 1 endOffset 2 width 23.40: "2"
        RenderSVGContainer {use} at (21.50,191.50) size 37x37
          RenderSVGContainer {g} at (21.50,191.50) size 37x37 [transform={m=((1.00,0.00)(0.00,1.00)) t=(-20.00,0.00)}]
            RenderSVGContainer {g} at (21.50,191.50) size 37x37
              RenderSVGContainer {g} at (21.50,191.50) size 7x7 [transform={m=((1.00,0.00)(0.00,1.00)) t=(-15.00,-15.00)}]
                RenderPath {rect} at (21.50,191.50) size 7x7 [stroke={[type=SOLID] [color=#FFB400]}] [fill={[type=SOLID] [color=#FFB400]}] [data="M-3.00,-3.00 L3.00,-3.00 L3.00,3.00 L-3.00,3.00"]
              RenderSVGContainer {g} at (51.50,191.50) size 7x7 [transform={m=((1.00,0.00)(0.00,1.00)) t=(15.00,-15.00)}]
                RenderPath {rect} at (51.50,191.50) size 7x7 [stroke={[type=SOLID] [color=#FFB400]}] [fill={[type=SOLID] [color=#E6E6E6]}] [data="M-3.00,-3.00 L3.00,-3.00 L3.00,3.00 L-3.00,3.00"]
              RenderSVGContainer {g} at (51.50,221.50) size 7x7 [transform={m=((1.00,0.00)(0.00,1.00)) t=(15.00,15.00)}]
                RenderPath {rect} at (51.50,221.50) size 7x7 [stroke={[type=SOLID] [color=#FFB400]}] [fill={[type=SOLID] [color=#E6E6E6]}] [data="M-3.00,-3.00 L3.00,-3.00 L3.00,3.00 L-3.00,3.00"]
              RenderSVGContainer {g} at (21.50,221.50) size 7x7 [transform={m=((1.00,0.00)(0.00,1.00)) t=(-15.00,15.00)}]
                RenderPath {rect} at (21.50,221.50) size 7x7 [stroke={[type=SOLID] [color=#FFB400]}] [fill={[type=SOLID] [color=#E6E6E6]}] [data="M-3.00,-3.00 L3.00,-3.00 L3.00,3.00 L-3.00,3.00"]
        RenderSVGContainer {use} at (61.50,191.50) size 37x37
          RenderSVGContainer {g} at (61.50,191.50) size 37x37 [transform={m=((1.00,0.00)(0.00,1.00)) t=(20.00,0.00)}]
            RenderSVGContainer {g} at (61.50,191.50) size 37x37
              RenderSVGContainer {g} at (61.50,191.50) size 7x7 [transform={m=((1.00,0.00)(0.00,1.00)) t=(-15.00,-15.00)}]
                RenderPath {rect} at (61.50,191.50) size 7x7 [stroke={[type=SOLID] [color=#FFB400]}] [fill={[type=SOLID] [color=#FFB400]}] [data="M-3.00,-3.00 L3.00,-3.00 L3.00,3.00 L-3.00,3.00"]
              RenderSVGContainer {g} at (91.50,191.50) size 7x7 [transform={m=((1.00,0.00)(0.00,1.00)) t=(15.00,-15.00)}]
                RenderPath {rect} at (91.50,191.50) size 7x7 [stroke={[type=SOLID] [color=#FFB400]}] [fill={[type=SOLID] [color=#E6E6E6]}] [data="M-3.00,-3.00 L3.00,-3.00 L3.00,3.00 L-3.00,3.00"]
              RenderSVGContainer {g} at (91.50,221.50) size 7x7 [transform={m=((1.00,0.00)(0.00,1.00)) t=(15.00,15.00)}]
                RenderPath {rect} at (91.50,221.50) size 7x7 [stroke={[type=SOLID] [color=#FFB400]}] [fill={[type=SOLID] [color=#E6E6E6]}] [data="M-3.00,-3.00 L3.00,-3.00 L3.00,3.00 L-3.00,3.00"]
              RenderSVGContainer {g} at (61.50,221.50) size 7x7 [transform={m=((1.00,0.00)(0.00,1.00)) t=(-15.00,15.00)}]
                RenderPath {rect} at (61.50,221.50) size 7x7 [stroke={[type=SOLID] [color=#FFB400]}] [fill={[type=SOLID] [color=#E6E6E6]}] [data="M-3.00,-3.00 L3.00,-3.00 L3.00,3.00 L-3.00,3.00"]
        RenderSVGText {text} at (-52,60) size 104x18 contains 1 chunk(s)
          RenderSVGInlineText {#text} at (0,-14) size 104x18
            chunk 1 (middle anchor) text run 1 at (-51.50,60.00) startOffset 0 endOffset 16 width 103.00: "x/y on <text>(2)"
      RenderSVGContainer {g} at (138,168) size 82x121 [transform={m=((1.00,0.00)(0.00,1.00)) t=(180.00,210.00)}]
        RenderImage {image} at (0,0) size 50x50
        RenderPath {rect} at (138,168) size 54x54 [stroke={[type=SOLID] [color=#FFB400] [stroke width=4.00]}] [data="M-40.00,-40.00 L10.00,-40.00 L10.00,10.00 L-40.00,10.00"]
        RenderPath {rect} at (140,170) size 80x20 [stroke={[type=SOLID] [color=#FFB400] [stroke width=0.00]}] [data="M-40.00,-40.00 L40.00,-40.00 L40.00,-20.00 L-40.00,-20.00"]
        RenderPath {rect} at (140,170) size 20x80 [stroke={[type=SOLID] [color=#FFB400] [stroke width=0.00]}] [data="M-40.00,-40.00 L-20.00,-40.00 L-20.00,40.00 L-40.00,40.00"]
        RenderSVGText {text} at (-40,60) size 80x18 contains 1 chunk(s)
          RenderSVGInlineText {#text} at (0,-14) size 80x18
            chunk 1 (middle anchor) text run 1 at (-39.50,60.00) startOffset 0 endOffset 12 width 79.00: "width/height"
        RenderSVGText {text} at (-38,75) size 76x18 contains 1 chunk(s)
          RenderSVGInlineText {#text} at (0,-14) size 76x18
            chunk 1 (middle anchor) text run 1 at (-38.00,75.00) startOffset 0 endOffset 10 width 76.00: "on <image>"
      RenderSVGContainer {g} at (258,168) size 82x121 [transform={m=((1.00,0.00)(0.00,1.00)) t=(300.00,210.00)}]
        RenderPath {rect} at (260,170) size 50x50 [fill={[type=SOLID] [color=#808080]}] [data="M-40.00,-40.00 L10.00,-40.00 L10.00,10.00 L-40.00,10.00"]
        RenderPath {rect} at (258,168) size 54x54 [stroke={[type=SOLID] [color=#FFB400] [stroke width=4.00]}] [data="M-40.00,-40.00 L10.00,-40.00 L10.00,10.00 L-40.00,10.00"]
        RenderPath {rect} at (260,170) size 80x20 [stroke={[type=SOLID] [color=#FFB400] [stroke width=0.00]}] [data="M-40.00,-40.00 L40.00,-40.00 L40.00,-20.00 L-40.00,-20.00"]
        RenderPath {rect} at (260,170) size 20x80 [stroke={[type=SOLID] [color=#FFB400] [stroke width=0.00]}] [data="M-40.00,-40.00 L-20.00,-40.00 L-20.00,40.00 L-40.00,40.00"]
        RenderSVGText {text} at (-40,60) size 80x18 contains 1 chunk(s)
          RenderSVGInlineText {#text} at (0,-14) size 80x18
            chunk 1 (middle anchor) text run 1 at (-39.50,60.00) startOffset 0 endOffset 12 width 79.00: "width/height"
        RenderSVGText {text} at (-31,75) size 62x18 contains 1 chunk(s)
          RenderSVGInlineText {#text} at (0,-14) size 62x18
            chunk 1 (middle anchor) text run 1 at (-30.50,75.00) startOffset 0 endOffset 9 width 61.00: "on <rect>"
    RenderSVGText {text} at (10,340) size 264x46 contains 1 chunk(s)
      RenderSVGInlineText {#text} at (0,-36) size 264x46
        chunk 1 text run 1 at (10.00,340.00) startOffset 0 endOffset 16 width 264.00: "$Revision: 1.8 $"
    RenderPath {rect} at (0.50,0.50) size 479x359 [stroke={[type=SOLID] [color=#000000]}] [data="M1.00,1.00 L479.00,1.00 L479.00,359.00 L1.00,359.00"]
