layer at (0,0) size 480x360
  RenderView at (0,0) size 480x360
layer at (0,0) size 480x360
  RenderSVGRoot {svg} at (0.50,0.50) size 495x359
    RenderSVGText {text} at (10,340) size 264x46 contains 1 chunk(s)
      RenderSVGInlineText {#text} at (0,-36) size 264x46
        chunk 1 text run 1 at (10.00,340.00) startOffset 0 endOffset 16 width 264.00: "$Revision: 1.7 $"
    RenderPath {rect} at (0.50,0.50) size 479x359 [stroke={[type=SOLID] [color=#000000]}] [data="M1.00,1.00 L479.00,1.00 L479.00,359.00 L1.00,359.00"]
    RenderSVGText {text} at (173,25) size 134x18 contains 1 chunk(s)
      RenderSVGInlineText {#text} at (0,-14) size 134x18
        chunk 1 (middle anchor) text run 1 at (173.50,25.00) startOffset 0 endOffset 18 width 133.00: "<animateTransform>"
    RenderSVGHiddenContainer {defs} at (0,0) size 0x0
      RenderSVGContainer {g} at (-45,-45) size 90x90
        RenderPath {circle} at (-41.00,-41.00) size 82.00x82.00 [stroke={[type=SOLID] [color=#C0C0C0] [stroke width=2.00]}] [data="M40.00,0.00 L39.92,2.51 L39.68,5.01 L39.29,7.50 L38.74,9.95 L38.04,12.36 L37.19,14.72 L36.19,17.03 L35.05,19.27 L33.77,21.43 L32.36,23.51 L30.82,25.50 L29.16,27.38 L27.38,29.16 L25.50,30.82 L23.51,32.36 L21.43,33.77 L19.27,35.05 L17.03,36.19 L14.72,37.19 L12.36,38.04 L9.95,38.74 L7.50,39.29 L5.01,39.68 L2.51,39.92 L-0.00,40.00 L-2.51,39.92 L-5.01,39.68 L-7.50,39.29 L-9.95,38.74 L-12.36,38.04 L-14.72,37.19 L-17.03,36.19 L-19.27,35.05 L-21.43,33.77 L-23.51,32.36 L-25.50,30.82 L-27.38,29.16 L-29.16,27.38 L-30.82,25.50 L-32.36,23.51 L-33.77,21.43 L-35.05,19.27 L-36.19,17.03 L-37.19,14.72 L-38.04,12.36 L-38.74,9.95 L-39.29,7.50 L-39.68,5.01 L-39.92,2.51 L-40.00,-0.00 L-39.92,-2.51 L-39.68,-5.01 L-39.29,-7.50 L-38.74,-9.95 L-38.04,-12.36 L-37.19,-14.72 L-36.19,-17.03 L-35.05,-19.27 L-33.77,-21.43 L-32.36,-23.51 L-30.82,-25.50 L-29.16,-27.38 L-27.38,-29.16 L-25.50,-30.82 L-23.51,-32.36 L-21.43,-33.77 L-19.27,-35.05 L-17.03,-36.19 L-14.72,-37.19 L-12.36,-38.04 L-9.95,-38.74 L-7.50,-39.29 L-5.01,-39.68 L-2.51,-39.92 L0.00,-40.00 L2.51,-39.92 L5.01,-39.68 L7.50,-39.29 L9.95,-38.74 L12.36,-38.04 L14.72,-37.19 L17.03,-36.19 L19.27,-35.05 L21.43,-33.77 L23.51,-32.36 L25.50,-30.82 L27.38,-29.16 L29.16,-27.38 L30.82,-25.50 L32.36,-23.51 L33.77,-21.43 L35.05,-19.27 L36.19,-17.03 L37.19,-14.72 L38.04,-12.36 L38.74,-9.95 L39.29,-7.50 L39.68,-5.01 L39.92,-2.51"]
        RenderPath {line} at (-45,-0.50) size 90x1 [stroke={[type=SOLID] [color=#C0C0C0]}] [data="M-45.00,0.00 L45.00,0.00"]
        RenderPath {line} at (-0.50,-45) size 1x90 [stroke={[type=SOLID] [color=#C0C0C0]}] [data="M0.00,-45.00 L0.00,45.00"]
    RenderSVGContainer {g} at (14.50,34.50) size 481x301
      RenderSVGContainer {g} at (18,65.96) size 84x103.04 [transform={m=((1.00,0.00)(0.00,1.00)) t=(60.00,90.00)}]
        RenderPath {rect} at (35.96,65.96) size 48.08x48.08 [transform={m=((0.71,0.71)(-0.71,0.71)) t=(0.00,0.00)}] [stroke={[type=SOLID] [color=#808080] [stroke width=4.00]}] [fill={[type=SOLID] [color=#E6E6E6]}] [data="M-15.00,-15.00 L15.00,-15.00 L15.00,15.00 L-15.00,15.00"]
        RenderPath {rect} at (35.96,65.96) size 48.08x48.08 [transform={m=((0.71,0.71)(-0.71,0.71)) t=(0.00,0.00)}] [stroke={[type=SOLID] [color=#FFB400] [stroke width=4.00]}] [data="M-15.00,-15.00 L15.00,-15.00 L15.00,15.00 L-15.00,15.00"]
        RenderPath {rect} at (39.75,69.75) size 40.50x40.50 [transform={m=((0.38,0.92)(-0.92,0.38)) t=(0.00,0.00)}] [stroke={[type=SOLID] [color=#FFB400]}] [data="M-15.00,-15.00 L15.00,-15.00 L15.00,15.00 L-15.00,15.00"]
        RenderPath {rect} at (44.50,74.50) size 31x31 [transform={m=((-0.00,1.00)(-1.00,-0.00)) t=(0.00,0.00)}] [stroke={[type=SOLID] [color=#FFB400]}] [data="M-15.00,-15.00 L15.00,-15.00 L15.00,15.00 L-15.00,15.00"]
        RenderSVGText {text} at (-42,60) size 84x18 contains 1 chunk(s)
          RenderSVGInlineText {#text} at (0,-14) size 84x18
            chunk 1 (middle anchor) text run 1 at (-42.00,60.00) startOffset 0 endOffset 13 width 84.00: "same rotation"
        RenderSVGText {text} at (-19,75) size 38x18 contains 1 chunk(s)
          RenderSVGInlineText {#text} at (0,-14) size 38x18
            chunk 1 (middle anchor) text run 1 at (-19.00,75.00) startOffset 0 endOffset 6 width 38.00: "center"
      RenderSVGContainer {g} at (127,65.96) size 106x103.04 [transform={m=((1.00,0.00)(0.00,1.00)) t=(180.00,90.00)}]
        RenderPath {rect} at (155.96,65.96) size 48.08x48.08 [transform={m=((0.71,0.71)(-0.71,0.71)) t=(0.00,0.00)}] [stroke={[type=SOLID] [color=#808080] [stroke width=4.00]}] [fill={[type=SOLID] [color=#E6E6E6]}] [data="M-15.00,-15.00 L15.00,-15.00 L15.00,15.00 L-15.00,15.00"]
        RenderPath {rect} at (155.96,65.96) size 48.08x48.08 [transform={m=((0.71,0.71)(-0.71,0.71)) t=(0.00,0.00)}] [stroke={[type=SOLID] [color=#FFB400] [stroke width=4.00]}] [data="M-15.00,-15.00 L15.00,-15.00 L15.00,15.00 L-15.00,15.00"]
        RenderPath {rect} at (148.19,72.05) size 40.50x40.50 [transform={m=((0.38,0.92)(-0.92,0.38)) t=(-11.56,2.30)}] [stroke={[type=SOLID] [color=#FFB400]}] [data="M-15.00,-15.00 L15.00,-15.00 L15.00,15.00 L-15.00,15.00"]
        RenderPath {rect} at (134.50,74.50) size 31x31 [transform={m=((-0.00,1.00)(-1.00,-0.00)) t=(-30.00,-0.00)}] [stroke={[type=SOLID] [color=#FFB400]}] [data="M-15.00,-15.00 L15.00,-15.00 L15.00,15.00 L-15.00,15.00"]
        RenderSVGText {text} at (-53,60) size 106x18 contains 1 chunk(s)
          RenderSVGInlineText {#text} at (0,-14) size 106x18
            chunk 1 (middle anchor) text run 1 at (-52.50,60.00) startOffset 0 endOffset 18 width 105.00: "different rotation"
        RenderSVGText {text} at (-22,75) size 44x18 contains 1 chunk(s)
          RenderSVGInlineText {#text} at (0,-14) size 44x18
            chunk 1 (middle anchor) text run 1 at (-22.00,75.00) startOffset 0 endOffset 7 width 44.00: "centers"
      RenderSVGContainer {g} at (243,34.50) size 112.50x134.50 [transform={m=((1.00,0.00)(0.00,1.00)) t=(300.00,90.00)}]
        RenderPath {rect} at (243,113) size 34x34 [transform={m=((1.00,0.00)(0.00,1.00)) t=(-40.00,40.00)}] [stroke={[type=SOLID] [color=#808080] [stroke width=4.00]}] [fill={[type=SOLID] [color=#E6E6E6]}] [data="M-15.00,-15.00 L15.00,-15.00 L15.00,15.00 L-15.00,15.00"]
        RenderPath {rect} at (243,113) size 34x34 [transform={m=((1.00,0.00)(0.00,1.00)) t=(-40.00,40.00)}] [stroke={[type=SOLID] [color=#FFB400] [stroke width=4.00]}] [data="M-15.00,-15.00 L15.00,-15.00 L15.00,15.00 L-15.00,15.00"]
        RenderPath {rect} at (284.50,74.50) size 31x31 [stroke={[type=SOLID] [color=#FFB400]}] [data="M-15.00,-15.00 L15.00,-15.00 L15.00,15.00 L-15.00,15.00"]
        RenderPath {rect} at (324.50,34.50) size 31x31 [transform={m=((1.00,0.00)(0.00,1.00)) t=(40.00,-40.00)}] [stroke={[type=SOLID] [color=#FFB400]}] [data="M-15.00,-15.00 L15.00,-15.00 L15.00,15.00 L-15.00,15.00"]
        RenderSVGText {text} at (-53,75) size 106x18 contains 1 chunk(s)
          RenderSVGInlineText {#text} at (0,-14) size 106x18
            chunk 1 (middle anchor) text run 1 at (-53.00,75.00) startOffset 0 endOffset 17 width 106.00: "paced translation"
      RenderSVGContainer {g} at (363,34.50) size 112.50x134.50 [transform={m=((1.00,0.00)(0.00,1.00)) t=(420.00,90.00)}]
        RenderPath {rect} at (363,113) size 34x34 [transform={m=((1.00,0.00)(0.00,1.00)) t=(-40.00,40.00)}] [stroke={[type=SOLID] [color=#808080] [stroke width=4.00]}] [fill={[type=SOLID] [color=#E6E6E6]}] [data="M-15.00,-15.00 L15.00,-15.00 L15.00,15.00 L-15.00,15.00"]
        RenderPath {rect} at (363,113) size 34x34 [transform={m=((1.00,0.00)(0.00,1.00)) t=(-40.00,40.00)}] [stroke={[type=SOLID] [color=#FFB400] [stroke width=4.00]}] [data="M-15.00,-15.00 L15.00,-15.00 L15.00,15.00 L-15.00,15.00"]
        RenderPath {rect} at (384.50,54.50) size 31x31 [transform={m=((1.00,0.00)(0.00,1.00)) t=(-20.00,-20.00)}] [stroke={[type=SOLID] [color=#FFB400]}] [data="M-15.00,-15.00 L15.00,-15.00 L15.00,15.00 L-15.00,15.00"]
        RenderPath {rect} at (444.50,34.50) size 31x31 [transform={m=((1.00,0.00)(0.00,1.00)) t=(40.00,-40.00)}] [stroke={[type=SOLID] [color=#FFB400]}] [data="M-15.00,-15.00 L15.00,-15.00 L15.00,15.00 L-15.00,15.00"]
        RenderSVGText {text} at (-52,75) size 104x18 contains 1 chunk(s)
          RenderSVGInlineText {#text} at (0,-14) size 104x18
            chunk 1 (middle anchor) text run 1 at (-52.00,75.00) startOffset 0 endOffset 18 width 104.00: "linear translation"
      RenderSVGContainer {g} at (14.50,188) size 91x96 [transform={m=((1.00,0.00)(0.00,1.00)) t=(60.00,220.00)}]
        RenderPath {rect} at (45,190) size 30x60 [transform={m=((1.00,0.00)(0.00,2.00)) t=(0.00,0.00)}] [fill={[type=SOLID] [color=#E6E6E6]}] [data="M-15.00,-15.00 L15.00,-15.00 L15.00,15.00 L-15.00,15.00"]
        RenderPath {rect} at (43,188) size 34x64 [stroke={[type=SOLID] [color=#FFB400] [stroke width=4.00]}] [data="M-15.00,-30.00 L15.00,-30.00 L15.00,30.00 L-15.00,30.00"]
        RenderPath {rect} at (14.50,197) size 91x46 [stroke={[type=SOLID] [color=#FFB400]}] [data="M-45.00,-22.50 L45.00,-22.50 L45.00,22.50 L-45.00,22.50"]
        RenderPath {rect} at (44.50,204.50) size 31x31 [stroke={[type=SOLID] [color=#FFB400]}] [data="M-15.00,-15.00 L15.00,-15.00 L15.00,15.00 L-15.00,15.00"]
        RenderSVGText {text} at (-36,60) size 72x18 contains 1 chunk(s)
          RenderSVGInlineText {#text} at (0,-14) size 72x18
            chunk 1 (middle anchor) text run 1 at (-36.00,60.00) startOffset 0 endOffset 11 width 72.00: "paced scale"
      RenderSVGContainer {g} at (134.50,188) size 91x96 [transform={m=((1.00,0.00)(0.00,1.00)) t=(180.00,220.00)}]
        RenderPath {rect} at (165,190) size 30x60 [transform={m=((1.00,0.00)(0.00,2.00)) t=(0.00,0.00)}] [fill={[type=SOLID] [color=#E6E6E6]}] [data="M-15.00,-15.00 L15.00,-15.00 L15.00,15.00 L-15.00,15.00"]
        RenderPath {rect} at (163,188) size 34x64 [stroke={[type=SOLID] [color=#FFB400] [stroke width=4.00]}] [data="M-15.00,-30.00 L15.00,-30.00 L15.00,30.00 L-15.00,30.00"]
        RenderPath {rect} at (134.50,189.50) size 91x61 [stroke={[type=SOLID] [color=#FFB400]}] [data="M-45.00,-30.00 L45.00,-30.00 L45.00,30.00 L-45.00,30.00"]
        RenderPath {rect} at (164.50,204.50) size 31x31 [stroke={[type=SOLID] [color=#FFB400]}] [data="M-15.00,-15.00 L15.00,-15.00 L15.00,15.00 L-15.00,15.00"]
        RenderSVGText {text} at (-35,60) size 70x18 contains 1 chunk(s)
          RenderSVGInlineText {#text} at (0,-14) size 70x18
            chunk 1 (middle anchor) text run 1 at (-35.00,60.00) startOffset 0 endOffset 12 width 70.00: "linear scale"
      RenderSVGContainer {g} at (255,203) size 120.50x132.50 [transform={m=((1.00,0.00)(0.00,1.00)) t=(300.00,220.00)}]
        RenderPath {rect} at (283,203) size 34x34 [stroke={[type=SOLID] [color=#808080] [stroke width=4.00]}] [fill={[type=SOLID] [color=#E6E6E6]}] [data="M-15.00,-15.00 L15.00,-15.00 L15.00,15.00 L-15.00,15.00"]
        RenderPath {rect} at (283,203) size 34x34 [stroke={[type=SOLID] [color=#FFB400] [stroke width=4.00]}] [data="M-15.00,-15.00 L15.00,-15.00 L15.00,15.00 L-15.00,15.00"]
        RenderPath {rect} at (289.50,209.50) size 31x31 [transform={m=((-0.00,1.00)(-1.00,-0.00)) t=(5.00,5.00)}] [stroke={[type=SOLID] [color=#FFB400]}] [data="M-15.00,-15.00 L15.00,-15.00 L15.00,15.00 L-15.00,15.00"]
        RenderPath {rect} at (344.50,304.50) size 31x31 [transform={m=((-1.00,-0.00)(0.00,-1.00)) t=(60.00,100.00)}] [stroke={[type=SOLID] [color=#FFB400]}] [data="M-15.00,-15.00 L15.00,-15.00 L15.00,15.00 L-15.00,15.00"]
        RenderSVGText {text} at (-45,75) size 90x18 contains 1 chunk(s)
          RenderSVGInlineText {#text} at (0,-14) size 90x18
            chunk 1 (middle anchor) text run 1 at (-44.50,75.00) startOffset 0 endOffset 14 width 89.00: "paced rotation"
      RenderSVGContainer {g} at (376,202.83) size 119.50x132.67 [transform={m=((1.00,0.00)(0.00,1.00)) t=(420.00,220.00)}]
        RenderPath {rect} at (403,203) size 34x34 [stroke={[type=SOLID] [color=#808080] [stroke width=4.00]}] [fill={[type=SOLID] [color=#E6E6E6]}] [data="M-15.00,-15.00 L15.00,-15.00 L15.00,15.00 L-15.00,15.00"]
        RenderPath {rect} at (403,203) size 34x34 [stroke={[type=SOLID] [color=#FFB400] [stroke width=4.00]}] [data="M-15.00,-15.00 L15.00,-15.00 L15.00,15.00 L-15.00,15.00"]
        RenderPath {rect} at (379.54,202.83) size 43.84x43.84 [transform={m=((0.71,0.71)(-0.71,0.71)) t=(-18.54,4.75)}] [stroke={[type=SOLID] [color=#FFB400]}] [data="M-15.00,-15.00 L15.00,-15.00 L15.00,15.00 L-15.00,15.00"]
        RenderPath {rect} at (464.50,304.50) size 31x31 [transform={m=((-1.00,-0.00)(0.00,-1.00)) t=(60.00,100.00)}] [stroke={[type=SOLID] [color=#FFB400]}] [data="M-15.00,-15.00 L15.00,-15.00 L15.00,15.00 L-15.00,15.00"]
        RenderSVGText {text} at (-44,75) size 88x18 contains 1 chunk(s)
          RenderSVGInlineText {#text} at (0,-14) size 88x18
            chunk 1 (middle anchor) text run 1 at (-43.50,75.00) startOffset 0 endOffset 15 width 87.00: "linear rotation"
