layer at (0,0) size 480x360
  RenderView at (0,0) size 480x360
layer at (0,0) size 480x360
  RenderSVGRoot {svg} at (0.50,0.50) size 479x359
    RenderSVGContainer {g} at (31.70,1.62) size 405.60x274.82 [transform={m=((1.30,0.00)(0.00,1.30)) t=(20.00,0.00)}]
      RenderPath {path} at (240.41,52) size 53.24x195.26 [stroke={[type=SOLID] [color=#B4B4B4]}] [data="M210.00,40.00 C210.00,40.00,210.00,100.00,170.00,190.00"]
      RenderPath {path} at (242.30,226.20) size 13x18.20 [fill={[type=SOLID] [color=#B4B4B4]}] [data="M171.00,188.00 L181.00,178.00 L171.00,174.00"]
      RenderPath {polyline} at (278.70,26) size 28.60x52 [stroke={[type=SOLID] [color=#B4B4B4] [stroke width=2.00]}] [data="M200.00,20.00 L200.00,40.00 L220.00,40.00 L220.00,60.00"]
      RenderPath {polyline} at (211.66,216.46) size 49.87x59.99 [transform={m=((0.97,0.26)(-0.26,0.97)) t=(0.00,0.00)}] [stroke={[type=SOLID] [color=#B4B4B4] [stroke width=9.00]}] [data="M200.00,120.00 L200.00,140.00 L220.00,140.00 L220.00,160.00"]
      RenderPath {line} at (44.26,12.13) size 29.49x53.74 [stroke={[type=SOLID] [color=#B4B4B4] [stroke width=3.00]}] [fill={[type=SOLID] [color=#000000]}] [data="M40.00,50.00 L20.00,10.00"]
      RenderPath {line} at (123.13,11.26) size 105.74x55.49 [stroke={[type=SOLID] [color=#B4B4B4] [stroke width=3.00]}] [fill={[type=SOLID] [color=#000000]}] [data="M160.00,50.00 L80.00,10.00"]
      RenderPath {line} at (59,38.35) size 117.00x1.30 [stroke={[type=SOLID] [color=#B4B4B4]}] [fill={[type=SOLID] [color=#000000]}] [data="M30.00,30.00 L120.00,30.00"]
      RenderPath {path} at (163,35.10) size 13x7.80 [fill={[type=SOLID] [color=#B4B4B4]}] [data="M120.00,30.00 L110.00,33.00 L110.00,27.00"]
      RenderPath {line} at (111,90.35) size 97.50x1.30 [stroke={[type=SOLID] [color=#B4B4B4]}] [fill={[type=SOLID] [color=#000000]}] [data="M70.00,70.00 L145.00,70.00"]
      RenderPath {rect} at (31.70,76.70) size 80.60x28.60 [stroke={[type=SOLID] [color=#B4B4B4] [stroke width=2.00]}] [fill={[type=SOLID] [color=#B4B4B4]}] [data="M10.00,60.00 L70.00,60.00 L70.00,80.00 L10.00,80.00"]
      RenderPath {rect} at (207.20,76.70) size 41.60x54.60 [stroke={[type=SOLID] [color=#B4B4B4] [stroke width=2.00]}] [fill={[type=SOLID] [color=#B4B4B4]}] [data="M145.00,60.00 L175.00,60.00 L175.00,100.00 L145.00,100.00"]
      RenderPath {path} at (195.50,87.10) size 13x7.80 [fill={[type=SOLID] [color=#B4B4B4]}] [data="M145.00,70.00 L135.00,73.00 L135.00,67.00"]
      RenderPath {circle} at (45.35,116.35) size 27.30x27.30 [stroke={[type=SOLID] [color=#B4B4B4]}] [fill={[type=SOLID] [color=#B4B4B4]}] [data="M40.00,100.00 L39.98,100.63 L39.92,101.25 L39.82,101.87 L39.69,102.49 L39.51,103.09 L39.30,103.68 L39.05,104.26 L38.76,104.82 L38.44,105.36 L38.09,105.88 L37.71,106.37 L37.29,106.85 L36.85,107.29 L36.37,107.71 L35.88,108.09 L35.36,108.44 L34.82,108.76 L34.26,109.05 L33.68,109.30 L33.09,109.51 L32.49,109.69 L31.87,109.82 L31.25,109.92 L30.63,109.98 L30.00,110.00 L29.37,109.98 L28.75,109.92 L28.13,109.82 L27.51,109.69 L26.91,109.51 L26.32,109.30 L25.74,109.05 L25.18,108.76 L24.64,108.44 L24.12,108.09 L23.63,107.71 L23.15,107.29 L22.71,106.85 L22.29,106.37 L21.91,105.88 L21.56,105.36 L21.24,104.82 L20.95,104.26 L20.70,103.68 L20.49,103.09 L20.31,102.49 L20.18,101.87 L20.08,101.25 L20.02,100.63 L20.00,100.00 L20.02,99.37 L20.08,98.75 L20.18,98.13 L20.31,97.51 L20.49,96.91 L20.70,96.32 L20.95,95.74 L21.24,95.18 L21.56,94.64 L21.91,94.12 L22.29,93.63 L22.71,93.15 L23.15,92.71 L23.63,92.29 L24.12,91.91 L24.64,91.56 L25.18,91.24 L25.74,90.95 L26.32,90.70 L26.91,90.49 L27.51,90.31 L28.13,90.18 L28.75,90.08 L29.37,90.02 L30.00,90.00 L30.63,90.02 L31.25,90.08 L31.87,90.18 L32.49,90.31 L33.09,90.49 L33.68,90.70 L34.26,90.95 L34.82,91.24 L35.36,91.56 L35.88,91.91 L36.37,92.29 L36.85,92.71 L37.29,93.15 L37.71,93.63 L38.09,94.12 L38.44,94.64 L38.76,95.18 L39.05,95.74 L39.30,96.32 L39.51,96.91 L39.69,97.51 L39.82,98.13 L39.92,98.75 L39.98,99.37"]
      RenderPath {circle} at (129.85,233.35) size 40.30x40.30 [stroke={[type=SOLID] [color=#B4B4B4]}] [fill={[type=SOLID] [color=#B4B4B4]}] [data="M115.00,195.00 L114.97,195.94 L114.88,196.88 L114.73,197.81 L114.53,198.73 L114.27,199.64 L113.95,200.52 L113.57,201.39 L113.14,202.23 L112.66,203.04 L112.14,203.82 L111.56,204.56 L110.93,205.27 L110.27,205.93 L109.56,206.56 L108.82,207.14 L108.04,207.66 L107.23,208.14 L106.39,208.57 L105.52,208.95 L104.64,209.27 L103.73,209.53 L102.81,209.73 L101.88,209.88 L100.94,209.97 L100.00,210.00 L99.06,209.97 L98.12,209.88 L97.19,209.73 L96.27,209.53 L95.36,209.27 L94.48,208.95 L93.61,208.57 L92.77,208.14 L91.96,207.66 L91.18,207.14 L90.44,206.56 L89.73,205.93 L89.07,205.27 L88.44,204.56 L87.86,203.82 L87.34,203.04 L86.86,202.23 L86.43,201.39 L86.05,200.52 L85.73,199.64 L85.47,198.73 L85.27,197.81 L85.12,196.88 L85.03,195.94 L85.00,195.00 L85.03,194.06 L85.12,193.12 L85.27,192.19 L85.47,191.27 L85.73,190.36 L86.05,189.48 L86.43,188.61 L86.86,187.77 L87.34,186.96 L87.86,186.18 L88.44,185.44 L89.07,184.73 L89.73,184.07 L90.44,183.44 L91.18,182.86 L91.96,182.34 L92.77,181.86 L93.61,181.43 L94.48,181.05 L95.36,180.73 L96.27,180.47 L97.19,180.27 L98.12,180.12 L99.06,180.03 L100.00,180.00 L100.94,180.03 L101.88,180.12 L102.81,180.27 L103.73,180.47 L104.64,180.73 L105.52,181.05 L106.39,181.43 L107.23,181.86 L108.04,182.34 L108.82,182.86 L109.56,183.44 L110.27,184.07 L110.93,184.73 L111.56,185.44 L112.14,186.18 L112.66,186.96 L113.14,187.77 L113.57,188.61 L113.95,189.48 L114.27,190.36 L114.53,191.27 L114.73,192.19 L114.88,193.12 L114.97,194.06"]
      RenderPath {line} at (67.56,138.74) size 68.68x100.83 [stroke={[type=SOLID] [color=#B4B4B4]}] [fill={[type=SOLID] [color=#000000]}] [data="M37.00,107.00 L89.00,184.00"]
      RenderPath {path} at (125.30,224.90) size 11.70x15.60 [fill={[type=SOLID] [color=#B4B4B4]}] [data="M90.00,185.00 L87.00,173.00 L81.00,178.00"]
      RenderPath {rect} at (408.70,11.70) size 28.60x28.60 [stroke={[type=SOLID] [color=#B4B4B4] [stroke width=2.00]}] [fill={[type=SOLID] [color=#B4B4B4]}] [data="M300.00,10.00 L320.00,10.00 L320.00,30.00 L300.00,30.00"]
      RenderPath {rect} at (408.70,219.70) size 28.60x54.60 [stroke={[type=SOLID] [color=#B4B4B4] [stroke width=2.00]}] [fill={[type=SOLID] [color=#B4B4B4]}] [data="M300.00,170.00 L320.00,170.00 L320.00,210.00 L300.00,210.00"]
      RenderPath {line} at (422.35,39) size 1.30x182 [stroke={[type=SOLID] [color=#B4B4B4]}] [fill={[type=SOLID] [color=#000000]}] [data="M310.00,30.00 L310.00,170.00"]
      RenderPath {path} at (419.10,208) size 7.80x13 [fill={[type=SOLID] [color=#B4B4B4]}] [data="M310.00,170.00 L307.00,160.00 L313.00,160.00"]
      RenderPath {rect} at (319,9.75) size 52x9.75 [fill={[type=SOLID] [color=#B4B4B4]}] [data="M230.00,7.50 L270.00,7.50 L270.00,15.00 L230.00,15.00"]
      RenderPath {rect} at (319,221.00) size 52x39 [fill={[type=SOLID] [color=#B4B4B4]}] [data="M230.00,170.00 L270.00,170.00 L270.00,200.00 L230.00,200.00"]
      RenderPath {line} at (344.35,13) size 1.30x208 [stroke={[type=SOLID] [color=#B4B4B4]}] [fill={[type=SOLID] [color=#000000]}] [data="M250.00,10.00 L250.00,170.00"]
      RenderPath {path} at (341.10,208) size 7.80x13 [fill={[type=SOLID] [color=#B4B4B4]}] [data="M250.00,170.00 L247.00,160.00 L253.00,160.00"]
      RenderSVGHiddenContainer {defs} at (0,0) size 0x0
        RenderPath {line} at (8.66,9.33) size 22.68x41.34 [stroke={[type=SOLID] [color=#105D8C] [stroke width=3.00]}] [fill={[type=SOLID] [color=#000000]}] [data="M30.00,50.00 L10.00,10.00"]
      RenderSVGHiddenContainer {defs} at (0,0) size 0x0
        RenderPath {rect} at (9,59) size 62x22 [stroke={[type=SOLID] [color=#000000] [stroke width=2.00]}] [fill={[type=SOLID] [color=#FFFFFF]}] [data="M10.00,60.00 L70.00,60.00 L70.00,80.00 L10.00,80.00"]
      RenderSVGHiddenContainer {defs} at (0,0) size 0x0
        RenderPath {circle} at (9.50,89.50) size 21.00x21.00 [stroke={[type=SOLID] [color=#000000]}] [fill={[type=SOLID] [color=#105D8C]}] [data="M30.00,100.00 L29.98,100.63 L29.92,101.25 L29.82,101.87 L29.69,102.49 L29.51,103.09 L29.30,103.68 L29.05,104.26 L28.76,104.82 L28.44,105.36 L28.09,105.88 L27.71,106.37 L27.29,106.85 L26.85,107.29 L26.37,107.71 L25.88,108.09 L25.36,108.44 L24.82,108.76 L24.26,109.05 L23.68,109.30 L23.09,109.51 L22.49,109.69 L21.87,109.82 L21.25,109.92 L20.63,109.98 L20.00,110.00 L19.37,109.98 L18.75,109.92 L18.13,109.82 L17.51,109.69 L16.91,109.51 L16.32,109.30 L15.74,109.05 L15.18,108.76 L14.64,108.44 L14.12,108.09 L13.63,107.71 L13.15,107.29 L12.71,106.85 L12.29,106.37 L11.91,105.88 L11.56,105.36 L11.24,104.82 L10.95,104.26 L10.70,103.68 L10.49,103.09 L10.31,102.49 L10.18,101.87 L10.08,101.25 L10.02,100.63 L10.00,100.00 L10.02,99.37 L10.08,98.75 L10.18,98.13 L10.31,97.51 L10.49,96.91 L10.70,96.32 L10.95,95.74 L11.24,95.18 L11.56,94.64 L11.91,94.12 L12.29,93.63 L12.71,93.15 L13.15,92.71 L13.63,92.29 L14.12,91.91 L14.64,91.56 L15.18,91.24 L15.74,90.95 L16.32,90.70 L16.91,90.49 L17.51,90.31 L18.13,90.18 L18.75,90.08 L19.37,90.02 L20.00,90.00 L20.63,90.02 L21.25,90.08 L21.87,90.18 L22.49,90.31 L23.09,90.49 L23.68,90.70 L24.26,90.95 L24.82,91.24 L25.36,91.56 L25.88,91.91 L26.37,92.29 L26.85,92.71 L27.29,93.15 L27.71,93.63 L28.09,94.12 L28.44,94.64 L28.76,95.18 L29.05,95.74 L29.30,96.32 L29.51,96.91 L29.69,97.51 L29.82,98.13 L29.92,98.75 L29.98,99.37"]
      RenderSVGHiddenContainer {defs} at (0,0) size 0x0
        RenderPath {polyline} at (199,20) size 22x40 [stroke={[type=SOLID] [color=#105D8C] [stroke width=2.00]}] [data="M200.00,20.00 L200.00,40.00 L220.00,40.00 L220.00,60.00"]
      RenderSVGHiddenContainer {defs} at (0,0) size 0x0
        RenderPath {polygon} at (239,19) size 22x22 [stroke={[type=SOLID] [color=#000000] [stroke width=2.00]}] [fill={[type=SOLID] [color=#FFFFFF]}] [data="M240.00,20.00 L240.00,40.00 L260.00,40.00 L260.00,20.00"]
      RenderSVGHiddenContainer {defs} at (0,0) size 0x0
        RenderImage {image} at (0,0) size 40x80
      RenderSVGContainer {use} at (44.26,12.13) size 29.49x53.74
        RenderSVGContainer {g} at (44.26,12.13) size 29.49x53.74 [transform={m=((1.00,0.00)(0.00,1.00)) t=(10.00,0.00)}]
          RenderPath {line} at (44.26,12.13) size 29.49x53.74 [stroke={[type=SOLID] [color=#105D8C] [stroke width=3.00]}] [fill={[type=SOLID] [color=#000000]}] [data="M30.00,50.00 L10.00,10.00"]
      RenderSVGContainer {use} at (31.70,76.70) size 80.60x28.60
        RenderSVGContainer {g} at (31.70,76.70) size 80.60x28.60
          RenderPath {rect} at (31.70,76.70) size 80.60x28.60 [stroke={[type=SOLID] [color=#000000] [stroke width=2.00]}] [fill={[type=SOLID] [color=#FFFFFF]}] [data="M10.00,60.00 L70.00,60.00 L70.00,80.00 L10.00,80.00"]
      RenderSVGContainer {use} at (45.35,116.35) size 27.30x27.30
        RenderSVGContainer {g} at (45.35,116.35) size 27.30x27.30 [transform={m=((1.00,0.00)(0.00,1.00)) t=(10.00,0.00)}]
          RenderPath {circle} at (45.35,116.35) size 27.30x27.30 [stroke={[type=SOLID] [color=#000000]}] [fill={[type=SOLID] [color=#105D8C]}] [data="M30.00,100.00 L29.98,100.63 L29.92,101.25 L29.82,101.87 L29.69,102.49 L29.51,103.09 L29.30,103.68 L29.05,104.26 L28.76,104.82 L28.44,105.36 L28.09,105.88 L27.71,106.37 L27.29,106.85 L26.85,107.29 L26.37,107.71 L25.88,108.09 L25.36,108.44 L24.82,108.76 L24.26,109.05 L23.68,109.30 L23.09,109.51 L22.49,109.69 L21.87,109.82 L21.25,109.92 L20.63,109.98 L20.00,110.00 L19.37,109.98 L18.75,109.92 L18.13,109.82 L17.51,109.69 L16.91,109.51 L16.32,109.30 L15.74,109.05 L15.18,108.76 L14.64,108.44 L14.12,108.09 L13.63,107.71 L13.15,107.29 L12.71,106.85 L12.29,106.37 L11.91,105.88 L11.56,105.36 L11.24,104.82 L10.95,104.26 L10.70,103.68 L10.49,103.09 L10.31,102.49 L10.18,101.87 L10.08,101.25 L10.02,100.63 L10.00,100.00 L10.02,99.37 L10.08,98.75 L10.18,98.13 L10.31,97.51 L10.49,96.91 L10.70,96.32 L10.95,95.74 L11.24,95.18 L11.56,94.64 L11.91,94.12 L12.29,93.63 L12.71,93.15 L13.15,92.71 L13.63,92.29 L14.12,91.91 L14.64,91.56 L15.18,91.24 L15.74,90.95 L16.32,90.70 L16.91,90.49 L17.51,90.31 L18.13,90.18 L18.75,90.08 L19.37,90.02 L20.00,90.00 L20.63,90.02 L21.25,90.08 L21.87,90.18 L22.49,90.31 L23.09,90.49 L23.68,90.70 L24.26,90.95 L24.82,91.24 L25.36,91.56 L25.88,91.91 L26.37,92.29 L26.85,92.71 L27.29,93.15 L27.71,93.63 L28.09,94.12 L28.44,94.64 L28.76,95.18 L29.05,95.74 L29.30,96.32 L29.51,96.91 L29.69,97.51 L29.82,98.13 L29.92,98.75 L29.98,99.37"]
      RenderSVGContainer {use} at (278.70,26) size 28.60x52
        RenderSVGContainer {g} at (278.70,26) size 28.60x52
          RenderPath {polyline} at (278.70,26) size 28.60x52 [stroke={[type=SOLID] [color=#105D8C] [stroke width=2.00]}] [data="M200.00,20.00 L200.00,40.00 L220.00,40.00 L220.00,60.00"]
      RenderSVGContainer {use} at (408.70,11.70) size 28.60x28.60
        RenderSVGContainer {g} at (408.70,11.70) size 28.60x28.60 [transform={m=((1.00,0.00)(0.00,1.00)) t=(60.00,-10.00)}]
          RenderPath {polygon} at (408.70,11.70) size 28.60x28.60 [stroke={[type=SOLID] [color=#000000] [stroke width=2.00]}] [fill={[type=SOLID] [color=#FFFFFF]}] [data="M240.00,20.00 L240.00,40.00 L260.00,40.00 L260.00,20.00"]
      RenderSVGContainer {use} at (319,1.62) size 52x26 [transform={m=((1.00,0.00)(0.00,0.25)) t=(0.00,0.00)}]
        RenderSVGContainer {g} at (319,1.62) size 52x26
          RenderImage {image} at (0,0) size 40x80
    RenderSVGText {text} at (10,340) size 264x46 contains 1 chunk(s)
      RenderSVGInlineText {#text} at (0,-36) size 264x46
        chunk 1 text run 1 at (10.00,340.00) startOffset 0 endOffset 16 width 264.00: "$Revision: 1.6 $"
    RenderPath {rect} at (0.50,0.50) size 479x359 [stroke={[type=SOLID] [color=#000000]}] [data="M1.00,1.00 L479.00,1.00 L479.00,359.00 L1.00,359.00"]
