layer at (0,0) size 480x360
  RenderView at (0,0) size 480x360
layer at (0,0) size 480x360
  RenderSVGRoot {svg} at (3,3) size 474x354
    RenderSVGContainer {g} at (42,6) size 420x306
      RenderSVGText {text} at (7,8) size 62x9 contains 1 chunk(s)
        RenderSVGInlineText {#text} at (0,-7) size 62x9
          chunk 1 text run 1 at (7.00,8.00) startOffset 0 endOffset 18 width 62.00: "Test a motion path"
      RenderSVGText {text} at (10,18) size 56x9 contains 1 chunk(s)
        RenderSVGInlineText {#text} at (0,-7) size 56x9
          chunk 1 text run 1 at (10.00,18.00) startOffset 0 endOffset 16 width 56.00: "'mpath' element."
      RenderSVGContainer {g} at (42,135) size 420x177
        RenderPath {path} at (87.78,154.48) size 303.44x105.55 [stroke={[type=SOLID] [color=#000000]}] [data="M15.00,43.00 C15.00,43.00,36.00,20.00,65.00,33.00"]
        RenderPath {rect} at (57,195) size 66x66 [stroke={[type=SOLID] [color=#000000]}] [fill={[type=SOLID] [color=#FFCCCC]}] [data="M10.00,33.00 L20.00,33.00 L20.00,43.00 L10.00,43.00"]
        RenderSVGText {text} at (7,50) size 20x9 contains 1 chunk(s)
          RenderSVGInlineText {#text} at (0,-7) size 20x9
            chunk 1 text run 1 at (7.00,50.00) startOffset 0 endOffset 6 width 20.00: "0 sec."
        RenderPath {rect} at (357,135) size 66x66 [stroke={[type=SOLID] [color=#000000]}] [fill={[type=SOLID] [color=#FFCCCC]}] [data="M60.00,23.00 L70.00,23.00 L70.00,33.00 L60.00,33.00"]
        RenderSVGText {text} at (52,40) size 25x9 contains 1 chunk(s)
          RenderSVGInlineText {#text} at (0,-7) size 25x9
            chunk 1 text run 1 at (52.00,40.00) startOffset 0 endOffset 7 width 25.00: "6+ sec."
        RenderPath {path} at (55.15,191.29) size 69.71x69.71 [transform={m=((1.00,0.00)(0.00,1.00)) t=(15.00,43.00)}] [stroke={[type=SOLID] [color=#FF0000]}] [fill={[type=SOLID] [color=#0000FF]}] [data="M-5.00,0.00 L0.00,-10.00 L5.00,0.00"]
    RenderSVGText {text} at (5,57) size 42x8 contains 1 chunk(s)
      RenderSVGInlineText {#text} at (0,-6) size 42x8
        chunk 1 text run 1 at (5.00,57.00) startOffset 0 endOffset 16 width 42.00: "$Revision: 1.8 $"
    RenderPath {rect} at (3,3) size 474x354 [stroke={[type=SOLID] [color=#000000]}] [data="M1.00,1.00 L79.00,1.00 L79.00,59.00 L1.00,59.00"]
