layer at (0,0) size 480x360
  RenderView at (0,0) size 480x360
layer at (0,0) size 480x360
  RenderSVGRoot {svg} at (0.50,0) size 479.50x360
    RenderSVGContainer {g} at (20,0) size 460x360
      RenderPath {circle} at (24.99,124.99) size 150.01x150.01 [stroke={[type=SOLID] [color=#FFFFFF] [stroke width=30.00]}] [data="M160.00,200.00 L159.88,203.77 L159.53,207.52 L158.94,211.24 L158.11,214.92 L157.06,218.54 L155.79,222.09 L154.29,225.55 L152.58,228.91 L150.66,232.15 L148.54,235.27 L146.23,238.25 L143.74,241.07 L141.07,243.74 L138.25,246.23 L135.27,248.54 L132.15,250.66 L128.91,252.58 L125.55,254.29 L122.09,255.79 L118.54,257.06 L114.92,258.11 L111.24,258.94 L107.52,259.53 L103.77,259.88 L100.00,260.00 L96.23,259.88 L92.48,259.53 L88.76,258.94 L85.08,258.11 L81.46,257.06 L77.91,255.79 L74.45,254.29 L71.09,252.58 L67.85,250.66 L64.73,248.54 L61.75,246.23 L58.93,243.74 L56.26,241.07 L53.77,238.25 L51.46,235.27 L49.34,232.15 L47.42,228.91 L45.71,225.55 L44.21,222.09 L42.94,218.54 L41.89,214.92 L41.06,211.24 L40.47,207.52 L40.12,203.77 L40.00,200.00 L40.12,196.23 L40.47,192.48 L41.06,188.76 L41.89,185.08 L42.94,181.46 L44.21,177.91 L45.71,174.45 L47.42,171.09 L49.34,167.85 L51.46,164.73 L53.77,161.75 L56.26,158.93 L58.93,156.26 L61.75,153.77 L64.73,151.46 L67.85,149.34 L71.09,147.42 L74.45,145.71 L77.91,144.21 L81.46,142.94 L85.08,141.89 L88.76,141.06 L92.48,140.47 L96.23,140.12 L100.00,140.00 L103.77,140.12 L107.52,140.47 L111.24,141.06 L114.92,141.89 L118.54,142.94 L122.09,144.21 L125.55,145.71 L128.91,147.42 L132.15,149.34 L135.27,151.46 L138.25,153.77 L141.07,156.26 L143.74,158.93 L146.23,161.75 L148.54,164.73 L150.66,167.85 L152.58,171.09 L154.29,174.45 L155.79,177.91 L157.06,181.46 L158.11,185.08 L158.94,188.76 L159.53,192.48 L159.88,196.23"]
      RenderPath {rect} at (20,20) size 180x180 [fill={[type=SOLID] [color=#FFFFFF]}] [data="M20.00,20.00 L200.00,20.00 L200.00,200.00 L20.00,200.00"]
      RenderPath {circle} at (110.00,20.00) size 180.01x180.01 [stroke={[type=SOLID] [color=#FFFFFF] [stroke width=20.00]}] [data="M280.00,110.00 L279.84,115.02 L279.37,120.03 L278.58,124.99 L277.49,129.90 L276.08,134.72 L274.38,139.45 L272.39,144.06 L270.10,148.54 L267.55,152.87 L264.72,157.02 L261.64,160.99 L258.32,164.76 L254.76,168.32 L250.99,171.64 L247.02,174.72 L242.87,177.55 L238.54,180.10 L234.06,182.39 L229.45,184.38 L224.72,186.08 L219.90,187.49 L214.99,188.58 L210.03,189.37 L205.02,189.84 L200.00,190.00 L194.98,189.84 L189.97,189.37 L185.01,188.58 L180.10,187.49 L175.28,186.08 L170.55,184.38 L165.94,182.39 L161.46,180.10 L157.13,177.55 L152.98,174.72 L149.01,171.64 L145.24,168.32 L141.68,164.76 L138.36,160.99 L135.28,157.02 L132.45,152.87 L129.90,148.54 L127.61,144.06 L125.62,139.45 L123.92,134.72 L122.51,129.90 L121.42,124.99 L120.63,120.03 L120.16,115.02 L120.00,110.00 L120.16,104.98 L120.63,99.97 L121.42,95.01 L122.51,90.10 L123.92,85.28 L125.62,80.55 L127.61,75.94 L129.90,71.46 L132.45,67.13 L135.28,62.98 L138.36,59.01 L141.68,55.24 L145.24,51.68 L149.01,48.36 L152.98,45.28 L157.13,42.45 L161.46,39.90 L165.94,37.61 L170.55,35.62 L175.28,33.92 L180.10,32.51 L185.01,31.42 L189.97,30.63 L194.98,30.16 L200.00,30.00 L205.02,30.16 L210.03,30.63 L214.99,31.42 L219.90,32.51 L224.72,33.92 L229.45,35.62 L234.06,37.61 L238.54,39.90 L242.87,42.45 L247.02,45.28 L250.99,48.36 L254.76,51.68 L258.32,55.24 L261.64,59.01 L264.72,62.98 L267.55,67.13 L270.10,71.46 L272.39,75.94 L274.38,80.55 L276.08,85.28 L277.49,90.10 L278.58,95.01 L279.37,99.97 L279.84,104.98"]
      RenderSVGContainer {g} at (320,0) size 160x360
        RenderSVGContainer {a} at (320,0) size 160x180
          RenderPath {rect} at (320,0) size 160x180 [fill={[type=SOLID] [color=#008000]}] [data="M320.00,0.00 L480.00,0.00 L480.00,180.00 L320.00,180.00"]
          RenderSVGText {text} at (330,90) size 96x36 contains 1 chunk(s)
            RenderSVGInlineText {#text} at (0,-28) size 96x36
              chunk 1 text run 1 at (330.00,90.00) startOffset 0 endOffset 7 width 96.00: "Fade in"
        RenderSVGContainer {a} at (320,180) size 160x180
          RenderPath {rect} at (320,180) size 160x180 [fill={[type=SOLID] [color=#800000]}] [data="M320.00,180.00 L480.00,180.00 L480.00,360.00 L320.00,360.00"]
          RenderSVGText {text} at (330,280) size 113x36 contains 1 chunk(s)
            RenderSVGInlineText {#text} at (0,-28) size 113x36
              chunk 1 text run 1 at (330.00,280.00) startOffset 0 endOffset 8 width 113.00: "Fade out"
    RenderSVGText {text} at (10,340) size 264x46 contains 1 chunk(s)
      RenderSVGInlineText {#text} at (0,-36) size 264x46
        chunk 1 text run 1 at (10.00,340.00) startOffset 0 endOffset 16 width 264.00: "$Revision: 1.8 $"
    RenderPath {rect} at (0.50,0.50) size 479x359 [stroke={[type=SOLID] [color=#000000]}] [data="M1.00,1.00 L479.00,1.00 L479.00,359.00 L1.00,359.00"]
