KRenderingPaintServer {id="grad" [type=LINEAR-GRADIENT] [stops=[(0.05,#6600FF), (0.50,#FF0000), (0.95,#FFFF66)]] [start=(0,0)] [end=(1,0)]}
layer at (0,0) size 480x360
  RenderView at (0,0) size 480x360
layer at (0,0) size 480x360
  RenderSVGRoot {svg} at (0.50,0.50) size 479x359
    RenderSVGContainer {g} at (60,18.00) size 360x277.00
      RenderSVGHiddenContainer {defs} at (0,0) size 0x0
        RenderSVGHiddenContainer {linearGradient} at (0,0) size 0x0
          RenderSVGGradientStop {stop} at (0,0) size 0x0
          RenderSVGGradientStop {stop} at (0,0) size 0x0
          RenderSVGGradientStop {stop} at (0,0) size 0x0
      RenderSVGContainer {g} at (70,18.00) size 342.00x124.00
        RenderSVGContainer {g} at (70,18.00) size 342.00x124.00
          RenderPath {circle} at (70,20) size 120x120 [fill={[type=SOLID] [color=#FF0000]}] [data="M190.00,80.00 L189.88,83.77 L189.53,87.52 L188.94,91.24 L188.11,94.92 L187.06,98.54 L185.79,102.09 L184.29,105.55 L182.58,108.91 L180.66,112.15 L178.54,115.27 L176.23,118.25 L173.74,121.07 L171.07,123.74 L168.25,126.23 L165.27,128.54 L162.15,130.66 L158.91,132.58 L155.55,134.29 L152.09,135.79 L148.54,137.06 L144.92,138.11 L141.24,138.94 L137.52,139.53 L133.77,139.88 L130.00,140.00 L126.23,139.88 L122.48,139.53 L118.76,138.94 L115.08,138.11 L111.46,137.06 L107.91,135.79 L104.45,134.29 L101.09,132.58 L97.85,130.66 L94.73,128.54 L91.75,126.23 L88.93,123.74 L86.26,121.07 L83.77,118.25 L81.46,115.27 L79.34,112.15 L77.42,108.91 L75.71,105.55 L74.21,102.09 L72.94,98.54 L71.89,94.92 L71.06,91.24 L70.47,87.52 L70.12,83.77 L70.00,80.00 L70.12,76.23 L70.47,72.48 L71.06,68.76 L71.89,65.08 L72.94,61.46 L74.21,57.91 L75.71,54.45 L77.42,51.09 L79.34,47.85 L81.46,44.73 L83.77,41.75 L86.26,38.93 L88.93,36.26 L91.75,33.77 L94.73,31.46 L97.85,29.34 L101.09,27.42 L104.45,25.71 L107.91,24.21 L111.46,22.94 L115.08,21.89 L118.76,21.06 L122.48,20.47 L126.23,20.12 L130.00,20.00 L133.77,20.12 L137.52,20.47 L141.24,21.06 L144.92,21.89 L148.54,22.94 L152.09,24.21 L155.55,25.71 L158.91,27.42 L162.15,29.34 L165.27,31.46 L168.25,33.77 L171.07,36.26 L173.74,38.93 L176.23,41.75 L178.54,44.73 L180.66,47.85 L182.58,51.09 L184.29,54.45 L185.79,57.91 L187.06,61.46 L188.11,65.08 L188.94,68.76 L189.53,72.48 L189.88,76.23"]
          RenderPath {circle} at (288.00,18.00) size 124.00x124.00 [stroke={[type=SOLID] [color=#FF0000] [stroke width=4.00]}] [data="M410.00,80.00 L409.88,83.77 L409.53,87.52 L408.94,91.24 L408.11,94.92 L407.06,98.54 L405.79,102.09 L404.29,105.55 L402.58,108.91 L400.66,112.15 L398.54,115.27 L396.23,118.25 L393.74,121.07 L391.07,123.74 L388.25,126.23 L385.27,128.54 L382.15,130.66 L378.91,132.58 L375.55,134.29 L372.09,135.79 L368.54,137.06 L364.92,138.11 L361.24,138.94 L357.52,139.53 L353.77,139.88 L350.00,140.00 L346.23,139.88 L342.48,139.53 L338.76,138.94 L335.08,138.11 L331.46,137.06 L327.91,135.79 L324.45,134.29 L321.09,132.58 L317.85,130.66 L314.73,128.54 L311.75,126.23 L308.93,123.74 L306.26,121.07 L303.77,118.25 L301.46,115.27 L299.34,112.15 L297.42,108.91 L295.71,105.55 L294.21,102.09 L292.94,98.54 L291.89,94.92 L291.06,91.24 L290.47,87.52 L290.12,83.77 L290.00,80.00 L290.12,76.23 L290.47,72.48 L291.06,68.76 L291.89,65.08 L292.94,61.46 L294.21,57.91 L295.71,54.45 L297.42,51.09 L299.34,47.85 L301.46,44.73 L303.77,41.75 L306.26,38.93 L308.93,36.26 L311.75,33.77 L314.73,31.46 L317.85,29.34 L321.09,27.42 L324.45,25.71 L327.91,24.21 L331.46,22.94 L335.08,21.89 L338.76,21.06 L342.48,20.47 L346.23,20.12 L350.00,20.00 L353.77,20.12 L357.52,20.47 L361.24,21.06 L364.92,21.89 L368.54,22.94 L372.09,24.21 L375.55,25.71 L378.91,27.42 L382.15,29.34 L385.27,31.46 L388.25,33.77 L391.07,36.26 L393.74,38.93 L396.23,41.75 L398.54,44.73 L400.66,47.85 L402.58,51.09 L404.29,54.45 L405.79,57.91 L407.06,61.46 L408.11,65.08 L408.94,68.76 L409.53,72.48 L409.88,76.23"]
      RenderSVGContainer {g} at (60,215) size 360x80
        RenderSVGContainer {g} at (60,215) size 360x80
          RenderPath {rect} at (60,215) size 360x80 [fill={[type=LINEAR-GRADIENT] [stops=[(0.05,#6600FF), (0.50,#FF0000), (0.95,#FFFF66)]] [start=(0,0)] [end=(1,0)]}] [data="M60.00,215.00 L420.00,215.00 L420.00,295.00 L60.00,295.00"]
      RenderSVGContainer {g} at (120,142) size 263x71
        RenderSVGText {text} at (120,170) size 34x36 contains 1 chunk(s)
          RenderSVGInlineText {#text} at (0,-28) size 34x36
            chunk 1 text run 1 at (120.00,170.00) startOffset 0 endOffset 4 width 34.00: "fill"
        RenderSVGText {text} at (310,170) size 73x36 contains 1 chunk(s)
          RenderSVGInlineText {#text} at (0,-28) size 73x36
            chunk 1 text run 1 at (310.00,170.00) startOffset 0 endOffset 6 width 73.00: "stroke"
        RenderSVGText {text} at (180,205) size 121x36 contains 1 chunk(s)
          RenderSVGInlineText {#text} at (0,-28) size 121x36
            chunk 1 text run 1 at (180.00,205.00) startOffset 0 endOffset 10 width 121.00: "stop-color"
    RenderSVGText {text} at (10,340) size 264x46 contains 1 chunk(s)
      RenderSVGInlineText {#text} at (0,-36) size 264x46
        chunk 1 text run 1 at (10.00,340.00) startOffset 0 endOffset 16 width 264.00: "$Revision: 1.4 $"
    RenderPath {rect} at (0.50,0.50) size 479x359 [stroke={[type=SOLID] [color=#000000]}] [data="M1.00,1.00 L479.00,1.00 L479.00,359.00 L1.00,359.00"]
