layer at (0,0) size 480x360
  RenderView at (0,0) size 480x360
layer at (0,0) size 480x360
  RenderSVGRoot {svg} at (0.50,0.50) size 479x359
    RenderSVGContainer {g} at (10,52) size 420x243 [transform={m=((1.00,0.00)(0.00,1.00)) t=(0.00,30.00)}]
      RenderSVGContainer {g} at (10,52) size 420x243
        RenderSVGText {text} at (10,30) size 38x10 contains 1 chunk(s)
          RenderSVGInlineText {#text} at (0,-8) size 38x10
            chunk 1 text run 1 at (10.00,30.00) startOffset 0 endOffset 10 width 38.00: "SVG to fit"
        RenderSVGContainer {g} at (20,70) size 30x40 [transform={m=((1.00,0.00)(0.00,1.00)) t=(20.00,40.00)}]
          RenderPath {rect} at (20,70) size 30x40 [stroke={[type=SOLID] [color=#FF0000]}] [fill={[type=SOLID] [color=#000000]}] [data="M0.50,0.50 L29.50,0.50 L29.50,39.50 L0.50,39.50"]
          RenderSVGContainer {g} at (25,80) size 20x20 [transform={m=((1.00,0.00)(0.00,1.00)) t=(0.00,5.00)}]
            RenderPath {circle} at (25,80) size 20x20 [fill={[type=SOLID] [color=#FFFF00]}] [data="M25.00,15.00 L24.98,15.63 L24.92,16.25 L24.82,16.87 L24.69,17.49 L24.51,18.09 L24.30,18.68 L24.05,19.26 L23.76,19.82 L23.44,20.36 L23.09,20.88 L22.71,21.37 L22.29,21.85 L21.85,22.29 L21.37,22.71 L20.88,23.09 L20.36,23.44 L19.82,23.76 L19.26,24.05 L18.68,24.30 L18.09,24.51 L17.49,24.69 L16.87,24.82 L16.25,24.92 L15.63,24.98 L15.00,25.00 L14.37,24.98 L13.75,24.92 L13.13,24.82 L12.51,24.69 L11.91,24.51 L11.32,24.30 L10.74,24.05 L10.18,23.76 L9.64,23.44 L9.12,23.09 L8.63,22.71 L8.15,22.29 L7.71,21.85 L7.29,21.37 L6.91,20.88 L6.56,20.36 L6.24,19.82 L5.95,19.26 L5.70,18.68 L5.49,18.09 L5.31,17.49 L5.18,16.87 L5.08,16.25 L5.02,15.63 L5.00,15.00 L5.02,14.37 L5.08,13.75 L5.18,13.13 L5.31,12.51 L5.49,11.91 L5.70,11.32 L5.95,10.74 L6.24,10.18 L6.56,9.64 L6.91,9.12 L7.29,8.63 L7.71,8.15 L8.15,7.71 L8.63,7.29 L9.12,6.91 L9.64,6.56 L10.18,6.24 L10.74,5.95 L11.32,5.70 L11.91,5.49 L12.51,5.31 L13.13,5.18 L13.75,5.08 L14.37,5.02 L15.00,5.00 L15.63,5.02 L16.25,5.08 L16.87,5.18 L17.49,5.31 L18.09,5.49 L18.68,5.70 L19.26,5.95 L19.82,6.24 L20.36,6.56 L20.88,6.91 L21.37,7.29 L21.85,7.71 L22.29,8.15 L22.71,8.63 L23.09,9.12 L23.44,9.64 L23.76,10.18 L24.05,10.74 L24.30,11.32 L24.51,11.91 L24.69,12.51 L24.82,13.13 L24.92,13.75 L24.98,14.37"]
            RenderPath {circle} at (30.50,85.50) size 3x3 [fill={[type=SOLID] [color=#000000]}] [data="M13.50,12.00 L13.50,12.09 L13.49,12.19 L13.47,12.28 L13.45,12.37 L13.43,12.46 L13.39,12.55 L13.36,12.64 L13.31,12.72 L13.27,12.80 L13.21,12.88 L13.16,12.96 L13.09,13.03 L13.03,13.09 L12.96,13.16 L12.88,13.21 L12.80,13.27 L12.72,13.31 L12.64,13.36 L12.55,13.39 L12.46,13.43 L12.37,13.45 L12.28,13.47 L12.19,13.49 L12.09,13.50 L12.00,13.50 L11.91,13.50 L11.81,13.49 L11.72,13.47 L11.63,13.45 L11.54,13.43 L11.45,13.39 L11.36,13.36 L11.28,13.31 L11.20,13.27 L11.12,13.21 L11.04,13.16 L10.97,13.09 L10.91,13.03 L10.84,12.96 L10.79,12.88 L10.73,12.80 L10.69,12.72 L10.64,12.64 L10.61,12.55 L10.57,12.46 L10.55,12.37 L10.53,12.28 L10.51,12.19 L10.50,12.09 L10.50,12.00 L10.50,11.91 L10.51,11.81 L10.53,11.72 L10.55,11.63 L10.57,11.54 L10.61,11.45 L10.64,11.36 L10.69,11.28 L10.73,11.20 L10.79,11.12 L10.84,11.04 L10.91,10.97 L10.97,10.91 L11.04,10.84 L11.12,10.79 L11.20,10.73 L11.28,10.69 L11.36,10.64 L11.45,10.61 L11.54,10.57 L11.63,10.55 L11.72,10.53 L11.81,10.51 L11.91,10.50 L12.00,10.50 L12.09,10.50 L12.19,10.51 L12.28,10.53 L12.37,10.55 L12.46,10.57 L12.55,10.61 L12.64,10.64 L12.72,10.69 L12.80,10.73 L12.88,10.79 L12.96,10.84 L13.03,10.91 L13.09,10.97 L13.16,11.04 L13.21,11.12 L13.27,11.20 L13.31,11.28 L13.36,11.36 L13.39,11.45 L13.43,11.54 L13.45,11.63 L13.47,11.72 L13.49,11.81 L13.50,11.91"]
            RenderPath {circle} at (35.50,85.50) size 3x3 [fill={[type=SOLID] [color=#000000]}] [data="M18.50,12.00 L18.50,12.09 L18.49,12.19 L18.47,12.28 L18.45,12.37 L18.43,12.46 L18.39,12.55 L18.36,12.64 L18.31,12.72 L18.27,12.80 L18.21,12.88 L18.16,12.96 L18.09,13.03 L18.03,13.09 L17.96,13.16 L17.88,13.21 L17.80,13.27 L17.72,13.31 L17.64,13.36 L17.55,13.39 L17.46,13.43 L17.37,13.45 L17.28,13.47 L17.19,13.49 L17.09,13.50 L17.00,13.50 L16.91,13.50 L16.81,13.49 L16.72,13.47 L16.63,13.45 L16.54,13.43 L16.45,13.39 L16.36,13.36 L16.28,13.31 L16.20,13.27 L16.12,13.21 L16.04,13.16 L15.97,13.09 L15.91,13.03 L15.84,12.96 L15.79,12.88 L15.73,12.80 L15.69,12.72 L15.64,12.64 L15.61,12.55 L15.57,12.46 L15.55,12.37 L15.53,12.28 L15.51,12.19 L15.50,12.09 L15.50,12.00 L15.50,11.91 L15.51,11.81 L15.53,11.72 L15.55,11.63 L15.57,11.54 L15.61,11.45 L15.64,11.36 L15.69,11.28 L15.73,11.20 L15.79,11.12 L15.84,11.04 L15.91,10.97 L15.97,10.91 L16.04,10.84 L16.12,10.79 L16.20,10.73 L16.28,10.69 L16.36,10.64 L16.45,10.61 L16.54,10.57 L16.63,10.55 L16.72,10.53 L16.81,10.51 L16.91,10.50 L17.00,10.50 L17.09,10.50 L17.19,10.51 L17.28,10.53 L17.37,10.55 L17.46,10.57 L17.55,10.61 L17.64,10.64 L17.72,10.69 L17.80,10.73 L17.88,10.79 L17.96,10.84 L18.03,10.91 L18.09,10.97 L18.16,11.04 L18.21,11.12 L18.27,11.20 L18.31,11.28 L18.36,11.36 L18.39,11.45 L18.43,11.54 L18.45,11.63 L18.47,11.72 L18.49,11.81 L18.50,11.91"]
            RenderPath {path} at (29.38,93.22) size 11.25x6.06 [stroke={[type=SOLID] [color=#000000] [stroke width=2.00]}] [fill={[type=SOLID] [color=#000000]}] [data="M10.00,19.00 L15.00,23.00 L20.00,19.00"]
        RenderSVGText {text} at (10,110) size 42x10 contains 1 chunk(s)
          RenderSVGInlineText {#text} at (0,-8) size 42x10
            chunk 1 text run 1 at (10.00,110.00) startOffset 0 endOffset 10 width 42.00: "Viewport 1"
        RenderSVGContainer {g} at (10,150) size 50x30 [transform={m=((1.00,0.00)(0.00,1.00)) t=(10.00,120.00)}]
          RenderPath {rect} at (10,150) size 50x30 [stroke={[type=SOLID] [color=#0000FF]}] [data="M0.50,0.50 L49.50,0.50 L49.50,29.50 L0.50,29.50"]
        RenderSVGText {text} at (10,180) size 42x10 contains 1 chunk(s)
          RenderSVGInlineText {#text} at (0,-8) size 42x10
            chunk 1 text run 1 at (10.00,180.00) startOffset 0 endOffset 10 width 42.00: "Viewport 2"
        RenderSVGContainer {g} at (20,220) size 30x60 [transform={m=((1.00,0.00)(0.00,1.00)) t=(20.00,190.00)}]
          RenderPath {rect} at (20,220) size 30x60 [stroke={[type=SOLID] [color=#0000FF]}] [data="M0.50,0.50 L29.50,0.50 L29.50,59.50 L0.50,59.50"]
        RenderSVGContainer {g} at (120,52) size 120x108 [transform={m=((1.00,0.00)(0.00,1.00)) t=(120.00,50.00)}]
          RenderSVGText {text} at (0,-20) size 112x10 contains 1 chunk(s)
            RenderSVGInlineText {#text} at (0,-8) size 112x10
              chunk 1 text run 1 at (0.00,-20.00) startOffset 0 endOffset 36 width 112.00: "---------- meet --------------------"
          RenderSVGContainer {g} at (120,67) size 50x43
            RenderSVGText {text} at (0,-5) size 26x10 contains 1 chunk(s)
              RenderSVGInlineText {#text} at (0,-8) size 26x10
                chunk 1 text run 1 at (0.00,-5.00) startOffset 0 endOffset 5 width 26.00: "xMin*"
            RenderPath {rect} at (120,80) size 50x30 [stroke={[type=SOLID] [color=#0000FF]}] [data="M0.50,0.50 L49.50,0.50 L49.50,29.50 L0.50,29.50"]
            RenderSVGViewportContainer {svg} at (120,80) size 22.50x30
              RenderPath {rect} at (120,80) size 22.50x30 [stroke={[type=SOLID] [color=#FF0000]}] [fill={[type=SOLID] [color=#000000]}] [data="M0.50,0.50 L29.50,0.50 L29.50,39.50 L0.50,39.50"]
              RenderSVGContainer {g} at (123.75,87.50) size 15x15 [transform={m=((1.00,0.00)(0.00,1.00)) t=(0.00,5.00)}]
                RenderPath {circle} at (123.75,87.50) size 15x15 [fill={[type=SOLID] [color=#FFFF00]}] [data="M25.00,15.00 L24.98,15.63 L24.92,16.25 L24.82,16.87 L24.69,17.49 L24.51,18.09 L24.30,18.68 L24.05,19.26 L23.76,19.82 L23.44,20.36 L23.09,20.88 L22.71,21.37 L22.29,21.85 L21.85,22.29 L21.37,22.71 L20.88,23.09 L20.36,23.44 L19.82,23.76 L19.26,24.05 L18.68,24.30 L18.09,24.51 L17.49,24.69 L16.87,24.82 L16.25,24.92 L15.63,24.98 L15.00,25.00 L14.37,24.98 L13.75,24.92 L13.13,24.82 L12.51,24.69 L11.91,24.51 L11.32,24.30 L10.74,24.05 L10.18,23.76 L9.64,23.44 L9.12,23.09 L8.63,22.71 L8.15,22.29 L7.71,21.85 L7.29,21.37 L6.91,20.88 L6.56,20.36 L6.24,19.82 L5.95,19.26 L5.70,18.68 L5.49,18.09 L5.31,17.49 L5.18,16.87 L5.08,16.25 L5.02,15.63 L5.00,15.00 L5.02,14.37 L5.08,13.75 L5.18,13.13 L5.31,12.51 L5.49,11.91 L5.70,11.32 L5.95,10.74 L6.24,10.18 L6.56,9.64 L6.91,9.12 L7.29,8.63 L7.71,8.15 L8.15,7.71 L8.63,7.29 L9.12,6.91 L9.64,6.56 L10.18,6.24 L10.74,5.95 L11.32,5.70 L11.91,5.49 L12.51,5.31 L13.13,5.18 L13.75,5.08 L14.37,5.02 L15.00,5.00 L15.63,5.02 L16.25,5.08 L16.87,5.18 L17.49,5.31 L18.09,5.49 L18.68,5.70 L19.26,5.95 L19.82,6.24 L20.36,6.56 L20.88,6.91 L21.37,7.29 L21.85,7.71 L22.29,8.15 L22.71,8.63 L23.09,9.12 L23.44,9.64 L23.76,10.18 L24.05,10.74 L24.30,11.32 L24.51,11.91 L24.69,12.51 L24.82,13.13 L24.92,13.75 L24.98,14.37"]
                RenderPath {circle} at (127.88,91.62) size 2.25x2.25 [fill={[type=SOLID] [color=#000000]}] [data="M13.50,12.00 L13.50,12.09 L13.49,12.19 L13.47,12.28 L13.45,12.37 L13.43,12.46 L13.39,12.55 L13.36,12.64 L13.31,12.72 L13.27,12.80 L13.21,12.88 L13.16,12.96 L13.09,13.03 L13.03,13.09 L12.96,13.16 L12.88,13.21 L12.80,13.27 L12.72,13.31 L12.64,13.36 L12.55,13.39 L12.46,13.43 L12.37,13.45 L12.28,13.47 L12.19,13.49 L12.09,13.50 L12.00,13.50 L11.91,13.50 L11.81,13.49 L11.72,13.47 L11.63,13.45 L11.54,13.43 L11.45,13.39 L11.36,13.36 L11.28,13.31 L11.20,13.27 L11.12,13.21 L11.04,13.16 L10.97,13.09 L10.91,13.03 L10.84,12.96 L10.79,12.88 L10.73,12.80 L10.69,12.72 L10.64,12.64 L10.61,12.55 L10.57,12.46 L10.55,12.37 L10.53,12.28 L10.51,12.19 L10.50,12.09 L10.50,12.00 L10.50,11.91 L10.51,11.81 L10.53,11.72 L10.55,11.63 L10.57,11.54 L10.61,11.45 L10.64,11.36 L10.69,11.28 L10.73,11.20 L10.79,11.12 L10.84,11.04 L10.91,10.97 L10.97,10.91 L11.04,10.84 L11.12,10.79 L11.20,10.73 L11.28,10.69 L11.36,10.64 L11.45,10.61 L11.54,10.57 L11.63,10.55 L11.72,10.53 L11.81,10.51 L11.91,10.50 L12.00,10.50 L12.09,10.50 L12.19,10.51 L12.28,10.53 L12.37,10.55 L12.46,10.57 L12.55,10.61 L12.64,10.64 L12.72,10.69 L12.80,10.73 L12.88,10.79 L12.96,10.84 L13.03,10.91 L13.09,10.97 L13.16,11.04 L13.21,11.12 L13.27,11.20 L13.31,11.28 L13.36,11.36 L13.39,11.45 L13.43,11.54 L13.45,11.63 L13.47,11.72 L13.49,11.81 L13.50,11.91"]
                RenderPath {circle} at (131.62,91.62) size 2.25x2.25 [fill={[type=SOLID] [color=#000000]}] [data="M18.50,12.00 L18.50,12.09 L18.49,12.19 L18.47,12.28 L18.45,12.37 L18.43,12.46 L18.39,12.55 L18.36,12.64 L18.31,12.72 L18.27,12.80 L18.21,12.88 L18.16,12.96 L18.09,13.03 L18.03,13.09 L17.96,13.16 L17.88,13.21 L17.80,13.27 L17.72,13.31 L17.64,13.36 L17.55,13.39 L17.46,13.43 L17.37,13.45 L17.28,13.47 L17.19,13.49 L17.09,13.50 L17.00,13.50 L16.91,13.50 L16.81,13.49 L16.72,13.47 L16.63,13.45 L16.54,13.43 L16.45,13.39 L16.36,13.36 L16.28,13.31 L16.20,13.27 L16.12,13.21 L16.04,13.16 L15.97,13.09 L15.91,13.03 L15.84,12.96 L15.79,12.88 L15.73,12.80 L15.69,12.72 L15.64,12.64 L15.61,12.55 L15.57,12.46 L15.55,12.37 L15.53,12.28 L15.51,12.19 L15.50,12.09 L15.50,12.00 L15.50,11.91 L15.51,11.81 L15.53,11.72 L15.55,11.63 L15.57,11.54 L15.61,11.45 L15.64,11.36 L15.69,11.28 L15.73,11.20 L15.79,11.12 L15.84,11.04 L15.91,10.97 L15.97,10.91 L16.04,10.84 L16.12,10.79 L16.20,10.73 L16.28,10.69 L16.36,10.64 L16.45,10.61 L16.54,10.57 L16.63,10.55 L16.72,10.53 L16.81,10.51 L16.91,10.50 L17.00,10.50 L17.09,10.50 L17.19,10.51 L17.28,10.53 L17.37,10.55 L17.46,10.57 L17.55,10.61 L17.64,10.64 L17.72,10.69 L17.80,10.73 L17.88,10.79 L17.96,10.84 L18.03,10.91 L18.09,10.97 L18.16,11.04 L18.21,11.12 L18.27,11.20 L18.31,11.28 L18.36,11.36 L18.39,11.45 L18.43,11.54 L18.45,11.63 L18.47,11.72 L18.49,11.81 L18.50,11.91"]
                RenderPath {path} at (127.03,97.41) size 8.44x4.55 [stroke={[type=SOLID] [color=#000000] [stroke width=2.00]}] [fill={[type=SOLID] [color=#000000]}] [data="M10.00,19.00 L15.00,23.00 L20.00,19.00"]
          RenderSVGContainer {g} at (190,67) size 50x43 [transform={m=((1.00,0.00)(0.00,1.00)) t=(70.00,0.00)}]
            RenderSVGText {text} at (0,-5) size 26x10 contains 1 chunk(s)
              RenderSVGInlineText {#text} at (0,-8) size 26x10
                chunk 1 text run 1 at (0.00,-5.00) startOffset 0 endOffset 5 width 26.00: "xMid*"
            RenderPath {rect} at (190,80) size 50x30 [stroke={[type=SOLID] [color=#0000FF]}] [data="M0.50,0.50 L49.50,0.50 L49.50,29.50 L0.50,29.50"]
            RenderSVGViewportContainer {svg} at (203.75,80) size 22.50x30
              RenderPath {rect} at (203.75,80) size 22.50x30 [stroke={[type=SOLID] [color=#FF0000]}] [fill={[type=SOLID] [color=#000000]}] [data="M0.50,0.50 L29.50,0.50 L29.50,39.50 L0.50,39.50"]
              RenderSVGContainer {g} at (207.50,87.50) size 15x15 [transform={m=((1.00,0.00)(0.00,1.00)) t=(0.00,5.00)}]
                RenderPath {circle} at (207.50,87.50) size 15x15 [fill={[type=SOLID] [color=#FFFF00]}] [data="M25.00,15.00 L24.98,15.63 L24.92,16.25 L24.82,16.87 L24.69,17.49 L24.51,18.09 L24.30,18.68 L24.05,19.26 L23.76,19.82 L23.44,20.36 L23.09,20.88 L22.71,21.37 L22.29,21.85 L21.85,22.29 L21.37,22.71 L20.88,23.09 L20.36,23.44 L19.82,23.76 L19.26,24.05 L18.68,24.30 L18.09,24.51 L17.49,24.69 L16.87,24.82 L16.25,24.92 L15.63,24.98 L15.00,25.00 L14.37,24.98 L13.75,24.92 L13.13,24.82 L12.51,24.69 L11.91,24.51 L11.32,24.30 L10.74,24.05 L10.18,23.76 L9.64,23.44 L9.12,23.09 L8.63,22.71 L8.15,22.29 L7.71,21.85 L7.29,21.37 L6.91,20.88 L6.56,20.36 L6.24,19.82 L5.95,19.26 L5.70,18.68 L5.49,18.09 L5.31,17.49 L5.18,16.87 L5.08,16.25 L5.02,15.63 L5.00,15.00 L5.02,14.37 L5.08,13.75 L5.18,13.13 L5.31,12.51 L5.49,11.91 L5.70,11.32 L5.95,10.74 L6.24,10.18 L6.56,9.64 L6.91,9.12 L7.29,8.63 L7.71,8.15 L8.15,7.71 L8.63,7.29 L9.12,6.91 L9.64,6.56 L10.18,6.24 L10.74,5.95 L11.32,5.70 L11.91,5.49 L12.51,5.31 L13.13,5.18 L13.75,5.08 L14.37,5.02 L15.00,5.00 L15.63,5.02 L16.25,5.08 L16.87,5.18 L17.49,5.31 L18.09,5.49 L18.68,5.70 L19.26,5.95 L19.82,6.24 L20.36,6.56 L20.88,6.91 L21.37,7.29 L21.85,7.71 L22.29,8.15 L22.71,8.63 L23.09,9.12 L23.44,9.64 L23.76,10.18 L24.05,10.74 L24.30,11.32 L24.51,11.91 L24.69,12.51 L24.82,13.13 L24.92,13.75 L24.98,14.37"]
                RenderPath {circle} at (211.62,91.62) size 2.25x2.25 [fill={[type=SOLID] [color=#000000]}] [data="M13.50,12.00 L13.50,12.09 L13.49,12.19 L13.47,12.28 L13.45,12.37 L13.43,12.46 L13.39,12.55 L13.36,12.64 L13.31,12.72 L13.27,12.80 L13.21,12.88 L13.16,12.96 L13.09,13.03 L13.03,13.09 L12.96,13.16 L12.88,13.21 L12.80,13.27 L12.72,13.31 L12.64,13.36 L12.55,13.39 L12.46,13.43 L12.37,13.45 L12.28,13.47 L12.19,13.49 L12.09,13.50 L12.00,13.50 L11.91,13.50 L11.81,13.49 L11.72,13.47 L11.63,13.45 L11.54,13.43 L11.45,13.39 L11.36,13.36 L11.28,13.31 L11.20,13.27 L11.12,13.21 L11.04,13.16 L10.97,13.09 L10.91,13.03 L10.84,12.96 L10.79,12.88 L10.73,12.80 L10.69,12.72 L10.64,12.64 L10.61,12.55 L10.57,12.46 L10.55,12.37 L10.53,12.28 L10.51,12.19 L10.50,12.09 L10.50,12.00 L10.50,11.91 L10.51,11.81 L10.53,11.72 L10.55,11.63 L10.57,11.54 L10.61,11.45 L10.64,11.36 L10.69,11.28 L10.73,11.20 L10.79,11.12 L10.84,11.04 L10.91,10.97 L10.97,10.91 L11.04,10.84 L11.12,10.79 L11.20,10.73 L11.28,10.69 L11.36,10.64 L11.45,10.61 L11.54,10.57 L11.63,10.55 L11.72,10.53 L11.81,10.51 L11.91,10.50 L12.00,10.50 L12.09,10.50 L12.19,10.51 L12.28,10.53 L12.37,10.55 L12.46,10.57 L12.55,10.61 L12.64,10.64 L12.72,10.69 L12.80,10.73 L12.88,10.79 L12.96,10.84 L13.03,10.91 L13.09,10.97 L13.16,11.04 L13.21,11.12 L13.27,11.20 L13.31,11.28 L13.36,11.36 L13.39,11.45 L13.43,11.54 L13.45,11.63 L13.47,11.72 L13.49,11.81 L13.50,11.91"]
                RenderPath {circle} at (215.38,91.62) size 2.25x2.25 [fill={[type=SOLID] [color=#000000]}] [data="M18.50,12.00 L18.50,12.09 L18.49,12.19 L18.47,12.28 L18.45,12.37 L18.43,12.46 L18.39,12.55 L18.36,12.64 L18.31,12.72 L18.27,12.80 L18.21,12.88 L18.16,12.96 L18.09,13.03 L18.03,13.09 L17.96,13.16 L17.88,13.21 L17.80,13.27 L17.72,13.31 L17.64,13.36 L17.55,13.39 L17.46,13.43 L17.37,13.45 L17.28,13.47 L17.19,13.49 L17.09,13.50 L17.00,13.50 L16.91,13.50 L16.81,13.49 L16.72,13.47 L16.63,13.45 L16.54,13.43 L16.45,13.39 L16.36,13.36 L16.28,13.31 L16.20,13.27 L16.12,13.21 L16.04,13.16 L15.97,13.09 L15.91,13.03 L15.84,12.96 L15.79,12.88 L15.73,12.80 L15.69,12.72 L15.64,12.64 L15.61,12.55 L15.57,12.46 L15.55,12.37 L15.53,12.28 L15.51,12.19 L15.50,12.09 L15.50,12.00 L15.50,11.91 L15.51,11.81 L15.53,11.72 L15.55,11.63 L15.57,11.54 L15.61,11.45 L15.64,11.36 L15.69,11.28 L15.73,11.20 L15.79,11.12 L15.84,11.04 L15.91,10.97 L15.97,10.91 L16.04,10.84 L16.12,10.79 L16.20,10.73 L16.28,10.69 L16.36,10.64 L16.45,10.61 L16.54,10.57 L16.63,10.55 L16.72,10.53 L16.81,10.51 L16.91,10.50 L17.00,10.50 L17.09,10.50 L17.19,10.51 L17.28,10.53 L17.37,10.55 L17.46,10.57 L17.55,10.61 L17.64,10.64 L17.72,10.69 L17.80,10.73 L17.88,10.79 L17.96,10.84 L18.03,10.91 L18.09,10.97 L18.16,11.04 L18.21,11.12 L18.27,11.20 L18.31,11.28 L18.36,11.36 L18.39,11.45 L18.43,11.54 L18.45,11.63 L18.47,11.72 L18.49,11.81 L18.50,11.91"]
                RenderPath {path} at (210.78,97.41) size 8.44x4.55 [stroke={[type=SOLID] [color=#000000] [stroke width=2.00]}] [fill={[type=SOLID] [color=#000000]}] [data="M10.00,19.00 L15.00,23.00 L20.00,19.00"]
          RenderSVGContainer {g} at (120,117) size 50x43 [transform={m=((1.00,0.00)(0.00,1.00)) t=(0.00,50.00)}]
            RenderSVGText {text} at (0,-5) size 27x10 contains 1 chunk(s)
              RenderSVGInlineText {#text} at (0,-8) size 27x10
                chunk 1 text run 1 at (0.00,-5.00) startOffset 0 endOffset 5 width 27.00: "xMax*"
            RenderPath {rect} at (120,130) size 50x30 [stroke={[type=SOLID] [color=#0000FF]}] [data="M0.50,0.50 L49.50,0.50 L49.50,29.50 L0.50,29.50"]
            RenderSVGViewportContainer {svg} at (147.50,130) size 22.50x30
              RenderPath {rect} at (147.50,130) size 22.50x30 [stroke={[type=SOLID] [color=#FF0000]}] [fill={[type=SOLID] [color=#000000]}] [data="M0.50,0.50 L29.50,0.50 L29.50,39.50 L0.50,39.50"]
              RenderSVGContainer {g} at (151.25,137.50) size 15x15 [transform={m=((1.00,0.00)(0.00,1.00)) t=(0.00,5.00)}]
                RenderPath {circle} at (151.25,137.50) size 15x15 [fill={[type=SOLID] [color=#FFFF00]}] [data="M25.00,15.00 L24.98,15.63 L24.92,16.25 L24.82,16.87 L24.69,17.49 L24.51,18.09 L24.30,18.68 L24.05,19.26 L23.76,19.82 L23.44,20.36 L23.09,20.88 L22.71,21.37 L22.29,21.85 L21.85,22.29 L21.37,22.71 L20.88,23.09 L20.36,23.44 L19.82,23.76 L19.26,24.05 L18.68,24.30 L18.09,24.51 L17.49,24.69 L16.87,24.82 L16.25,24.92 L15.63,24.98 L15.00,25.00 L14.37,24.98 L13.75,24.92 L13.13,24.82 L12.51,24.69 L11.91,24.51 L11.32,24.30 L10.74,24.05 L10.18,23.76 L9.64,23.44 L9.12,23.09 L8.63,22.71 L8.15,22.29 L7.71,21.85 L7.29,21.37 L6.91,20.88 L6.56,20.36 L6.24,19.82 L5.95,19.26 L5.70,18.68 L5.49,18.09 L5.31,17.49 L5.18,16.87 L5.08,16.25 L5.02,15.63 L5.00,15.00 L5.02,14.37 L5.08,13.75 L5.18,13.13 L5.31,12.51 L5.49,11.91 L5.70,11.32 L5.95,10.74 L6.24,10.18 L6.56,9.64 L6.91,9.12 L7.29,8.63 L7.71,8.15 L8.15,7.71 L8.63,7.29 L9.12,6.91 L9.64,6.56 L10.18,6.24 L10.74,5.95 L11.32,5.70 L11.91,5.49 L12.51,5.31 L13.13,5.18 L13.75,5.08 L14.37,5.02 L15.00,5.00 L15.63,5.02 L16.25,5.08 L16.87,5.18 L17.49,5.31 L18.09,5.49 L18.68,5.70 L19.26,5.95 L19.82,6.24 L20.36,6.56 L20.88,6.91 L21.37,7.29 L21.85,7.71 L22.29,8.15 L22.71,8.63 L23.09,9.12 L23.44,9.64 L23.76,10.18 L24.05,10.74 L24.30,11.32 L24.51,11.91 L24.69,12.51 L24.82,13.13 L24.92,13.75 L24.98,14.37"]
                RenderPath {circle} at (155.38,141.62) size 2.25x2.25 [fill={[type=SOLID] [color=#000000]}] [data="M13.50,12.00 L13.50,12.09 L13.49,12.19 L13.47,12.28 L13.45,12.37 L13.43,12.46 L13.39,12.55 L13.36,12.64 L13.31,12.72 L13.27,12.80 L13.21,12.88 L13.16,12.96 L13.09,13.03 L13.03,13.09 L12.96,13.16 L12.88,13.21 L12.80,13.27 L12.72,13.31 L12.64,13.36 L12.55,13.39 L12.46,13.43 L12.37,13.45 L12.28,13.47 L12.19,13.49 L12.09,13.50 L12.00,13.50 L11.91,13.50 L11.81,13.49 L11.72,13.47 L11.63,13.45 L11.54,13.43 L11.45,13.39 L11.36,13.36 L11.28,13.31 L11.20,13.27 L11.12,13.21 L11.04,13.16 L10.97,13.09 L10.91,13.03 L10.84,12.96 L10.79,12.88 L10.73,12.80 L10.69,12.72 L10.64,12.64 L10.61,12.55 L10.57,12.46 L10.55,12.37 L10.53,12.28 L10.51,12.19 L10.50,12.09 L10.50,12.00 L10.50,11.91 L10.51,11.81 L10.53,11.72 L10.55,11.63 L10.57,11.54 L10.61,11.45 L10.64,11.36 L10.69,11.28 L10.73,11.20 L10.79,11.12 L10.84,11.04 L10.91,10.97 L10.97,10.91 L11.04,10.84 L11.12,10.79 L11.20,10.73 L11.28,10.69 L11.36,10.64 L11.45,10.61 L11.54,10.57 L11.63,10.55 L11.72,10.53 L11.81,10.51 L11.91,10.50 L12.00,10.50 L12.09,10.50 L12.19,10.51 L12.28,10.53 L12.37,10.55 L12.46,10.57 L12.55,10.61 L12.64,10.64 L12.72,10.69 L12.80,10.73 L12.88,10.79 L12.96,10.84 L13.03,10.91 L13.09,10.97 L13.16,11.04 L13.21,11.12 L13.27,11.20 L13.31,11.28 L13.36,11.36 L13.39,11.45 L13.43,11.54 L13.45,11.63 L13.47,11.72 L13.49,11.81 L13.50,11.91"]
                RenderPath {circle} at (159.12,141.62) size 2.25x2.25 [fill={[type=SOLID] [color=#000000]}] [data="M18.50,12.00 L18.50,12.09 L18.49,12.19 L18.47,12.28 L18.45,12.37 L18.43,12.46 L18.39,12.55 L18.36,12.64 L18.31,12.72 L18.27,12.80 L18.21,12.88 L18.16,12.96 L18.09,13.03 L18.03,13.09 L17.96,13.16 L17.88,13.21 L17.80,13.27 L17.72,13.31 L17.64,13.36 L17.55,13.39 L17.46,13.43 L17.37,13.45 L17.28,13.47 L17.19,13.49 L17.09,13.50 L17.00,13.50 L16.91,13.50 L16.81,13.49 L16.72,13.47 L16.63,13.45 L16.54,13.43 L16.45,13.39 L16.36,13.36 L16.28,13.31 L16.20,13.27 L16.12,13.21 L16.04,13.16 L15.97,13.09 L15.91,13.03 L15.84,12.96 L15.79,12.88 L15.73,12.80 L15.69,12.72 L15.64,12.64 L15.61,12.55 L15.57,12.46 L15.55,12.37 L15.53,12.28 L15.51,12.19 L15.50,12.09 L15.50,12.00 L15.50,11.91 L15.51,11.81 L15.53,11.72 L15.55,11.63 L15.57,11.54 L15.61,11.45 L15.64,11.36 L15.69,11.28 L15.73,11.20 L15.79,11.12 L15.84,11.04 L15.91,10.97 L15.97,10.91 L16.04,10.84 L16.12,10.79 L16.20,10.73 L16.28,10.69 L16.36,10.64 L16.45,10.61 L16.54,10.57 L16.63,10.55 L16.72,10.53 L16.81,10.51 L16.91,10.50 L17.00,10.50 L17.09,10.50 L17.19,10.51 L17.28,10.53 L17.37,10.55 L17.46,10.57 L17.55,10.61 L17.64,10.64 L17.72,10.69 L17.80,10.73 L17.88,10.79 L17.96,10.84 L18.03,10.91 L18.09,10.97 L18.16,11.04 L18.21,11.12 L18.27,11.20 L18.31,11.28 L18.36,11.36 L18.39,11.45 L18.43,11.54 L18.45,11.63 L18.47,11.72 L18.49,11.81 L18.50,11.91"]
                RenderPath {path} at (154.53,147.41) size 8.44x4.55 [stroke={[type=SOLID] [color=#000000] [stroke width=2.00]}] [fill={[type=SOLID] [color=#000000]}] [data="M10.00,19.00 L15.00,23.00 L20.00,19.00"]
        RenderSVGContainer {g} at (300,52) size 130x88 [transform={m=((1.00,0.00)(0.00,1.00)) t=(300.00,50.00)}]
          RenderSVGText {text} at (0,-20) size 124x10 contains 1 chunk(s)
            RenderSVGInlineText {#text} at (0,-8) size 124x10
              chunk 1 text run 1 at (0.00,-20.00) startOffset 0 endOffset 40 width 124.00: "---------- meet ------------------------"
          RenderSVGContainer {g} at (300,67) size 30x73
            RenderSVGText {text} at (0,-5) size 27x10 contains 1 chunk(s)
              RenderSVGInlineText {#text} at (0,-8) size 27x10
                chunk 1 text run 1 at (0.00,-5.00) startOffset 0 endOffset 5 width 27.00: "*YMin"
            RenderPath {rect} at (300,80) size 30x60 [stroke={[type=SOLID] [color=#0000FF]}] [data="M0.50,0.50 L29.50,0.50 L29.50,59.50 L0.50,59.50"]
            RenderSVGViewportContainer {svg} at (300,80) size 30x40
              RenderPath {rect} at (300,80) size 30x40 [stroke={[type=SOLID] [color=#FF0000]}] [fill={[type=SOLID] [color=#000000]}] [data="M0.50,0.50 L29.50,0.50 L29.50,39.50 L0.50,39.50"]
              RenderSVGContainer {g} at (305,90) size 20x20 [transform={m=((1.00,0.00)(0.00,1.00)) t=(0.00,5.00)}]
                RenderPath {circle} at (305,90) size 20x20 [fill={[type=SOLID] [color=#FFFF00]}] [data="M25.00,15.00 L24.98,15.63 L24.92,16.25 L24.82,16.87 L24.69,17.49 L24.51,18.09 L24.30,18.68 L24.05,19.26 L23.76,19.82 L23.44,20.36 L23.09,20.88 L22.71,21.37 L22.29,21.85 L21.85,22.29 L21.37,22.71 L20.88,23.09 L20.36,23.44 L19.82,23.76 L19.26,24.05 L18.68,24.30 L18.09,24.51 L17.49,24.69 L16.87,24.82 L16.25,24.92 L15.63,24.98 L15.00,25.00 L14.37,24.98 L13.75,24.92 L13.13,24.82 L12.51,24.69 L11.91,24.51 L11.32,24.30 L10.74,24.05 L10.18,23.76 L9.64,23.44 L9.12,23.09 L8.63,22.71 L8.15,22.29 L7.71,21.85 L7.29,21.37 L6.91,20.88 L6.56,20.36 L6.24,19.82 L5.95,19.26 L5.70,18.68 L5.49,18.09 L5.31,17.49 L5.18,16.87 L5.08,16.25 L5.02,15.63 L5.00,15.00 L5.02,14.37 L5.08,13.75 L5.18,13.13 L5.31,12.51 L5.49,11.91 L5.70,11.32 L5.95,10.74 L6.24,10.18 L6.56,9.64 L6.91,9.12 L7.29,8.63 L7.71,8.15 L8.15,7.71 L8.63,7.29 L9.12,6.91 L9.64,6.56 L10.18,6.24 L10.74,5.95 L11.32,5.70 L11.91,5.49 L12.51,5.31 L13.13,5.18 L13.75,5.08 L14.37,5.02 L15.00,5.00 L15.63,5.02 L16.25,5.08 L16.87,5.18 L17.49,5.31 L18.09,5.49 L18.68,5.70 L19.26,5.95 L19.82,6.24 L20.36,6.56 L20.88,6.91 L21.37,7.29 L21.85,7.71 L22.29,8.15 L22.71,8.63 L23.09,9.12 L23.44,9.64 L23.76,10.18 L24.05,10.74 L24.30,11.32 L24.51,11.91 L24.69,12.51 L24.82,13.13 L24.92,13.75 L24.98,14.37"]
                RenderPath {circle} at (310.50,95.50) size 3x3 [fill={[type=SOLID] [color=#000000]}] [data="M13.50,12.00 L13.50,12.09 L13.49,12.19 L13.47,12.28 L13.45,12.37 L13.43,12.46 L13.39,12.55 L13.36,12.64 L13.31,12.72 L13.27,12.80 L13.21,12.88 L13.16,12.96 L13.09,13.03 L13.03,13.09 L12.96,13.16 L12.88,13.21 L12.80,13.27 L12.72,13.31 L12.64,13.36 L12.55,13.39 L12.46,13.43 L12.37,13.45 L12.28,13.47 L12.19,13.49 L12.09,13.50 L12.00,13.50 L11.91,13.50 L11.81,13.49 L11.72,13.47 L11.63,13.45 L11.54,13.43 L11.45,13.39 L11.36,13.36 L11.28,13.31 L11.20,13.27 L11.12,13.21 L11.04,13.16 L10.97,13.09 L10.91,13.03 L10.84,12.96 L10.79,12.88 L10.73,12.80 L10.69,12.72 L10.64,12.64 L10.61,12.55 L10.57,12.46 L10.55,12.37 L10.53,12.28 L10.51,12.19 L10.50,12.09 L10.50,12.00 L10.50,11.91 L10.51,11.81 L10.53,11.72 L10.55,11.63 L10.57,11.54 L10.61,11.45 L10.64,11.36 L10.69,11.28 L10.73,11.20 L10.79,11.12 L10.84,11.04 L10.91,10.97 L10.97,10.91 L11.04,10.84 L11.12,10.79 L11.20,10.73 L11.28,10.69 L11.36,10.64 L11.45,10.61 L11.54,10.57 L11.63,10.55 L11.72,10.53 L11.81,10.51 L11.91,10.50 L12.00,10.50 L12.09,10.50 L12.19,10.51 L12.28,10.53 L12.37,10.55 L12.46,10.57 L12.55,10.61 L12.64,10.64 L12.72,10.69 L12.80,10.73 L12.88,10.79 L12.96,10.84 L13.03,10.91 L13.09,10.97 L13.16,11.04 L13.21,11.12 L13.27,11.20 L13.31,11.28 L13.36,11.36 L13.39,11.45 L13.43,11.54 L13.45,11.63 L13.47,11.72 L13.49,11.81 L13.50,11.91"]
                RenderPath {circle} at (315.50,95.50) size 3x3 [fill={[type=SOLID] [color=#000000]}] [data="M18.50,12.00 L18.50,12.09 L18.49,12.19 L18.47,12.28 L18.45,12.37 L18.43,12.46 L18.39,12.55 L18.36,12.64 L18.31,12.72 L18.27,12.80 L18.21,12.88 L18.16,12.96 L18.09,13.03 L18.03,13.09 L17.96,13.16 L17.88,13.21 L17.80,13.27 L17.72,13.31 L17.64,13.36 L17.55,13.39 L17.46,13.43 L17.37,13.45 L17.28,13.47 L17.19,13.49 L17.09,13.50 L17.00,13.50 L16.91,13.50 L16.81,13.49 L16.72,13.47 L16.63,13.45 L16.54,13.43 L16.45,13.39 L16.36,13.36 L16.28,13.31 L16.20,13.27 L16.12,13.21 L16.04,13.16 L15.97,13.09 L15.91,13.03 L15.84,12.96 L15.79,12.88 L15.73,12.80 L15.69,12.72 L15.64,12.64 L15.61,12.55 L15.57,12.46 L15.55,12.37 L15.53,12.28 L15.51,12.19 L15.50,12.09 L15.50,12.00 L15.50,11.91 L15.51,11.81 L15.53,11.72 L15.55,11.63 L15.57,11.54 L15.61,11.45 L15.64,11.36 L15.69,11.28 L15.73,11.20 L15.79,11.12 L15.84,11.04 L15.91,10.97 L15.97,10.91 L16.04,10.84 L16.12,10.79 L16.20,10.73 L16.28,10.69 L16.36,10.64 L16.45,10.61 L16.54,10.57 L16.63,10.55 L16.72,10.53 L16.81,10.51 L16.91,10.50 L17.00,10.50 L17.09,10.50 L17.19,10.51 L17.28,10.53 L17.37,10.55 L17.46,10.57 L17.55,10.61 L17.64,10.64 L17.72,10.69 L17.80,10.73 L17.88,10.79 L17.96,10.84 L18.03,10.91 L18.09,10.97 L18.16,11.04 L18.21,11.12 L18.27,11.20 L18.31,11.28 L18.36,11.36 L18.39,11.45 L18.43,11.54 L18.45,11.63 L18.47,11.72 L18.49,11.81 L18.50,11.91"]
                RenderPath {path} at (309.38,103.22) size 11.25x6.06 [stroke={[type=SOLID] [color=#000000] [stroke width=2.00]}] [fill={[type=SOLID] [color=#000000]}] [data="M10.00,19.00 L15.00,23.00 L20.00,19.00"]
          RenderSVGContainer {g} at (350,67) size 30x73 [transform={m=((1.00,0.00)(0.00,1.00)) t=(50.00,0.00)}]
            RenderSVGText {text} at (0,-5) size 27x10 contains 1 chunk(s)
              RenderSVGInlineText {#text} at (0,-8) size 27x10
                chunk 1 text run 1 at (0.00,-5.00) startOffset 0 endOffset 5 width 27.00: "*YMid"
            RenderPath {rect} at (350,80) size 30x60 [stroke={[type=SOLID] [color=#0000FF]}] [data="M0.50,0.50 L29.50,0.50 L29.50,59.50 L0.50,59.50"]
            RenderSVGViewportContainer {svg} at (350,90) size 30x40
              RenderPath {rect} at (350,90) size 30x40 [stroke={[type=SOLID] [color=#FF0000]}] [fill={[type=SOLID] [color=#000000]}] [data="M0.50,0.50 L29.50,0.50 L29.50,39.50 L0.50,39.50"]
              RenderSVGContainer {g} at (355,100) size 20x20 [transform={m=((1.00,0.00)(0.00,1.00)) t=(0.00,5.00)}]
                RenderPath {circle} at (355,100) size 20x20 [fill={[type=SOLID] [color=#FFFF00]}] [data="M25.00,15.00 L24.98,15.63 L24.92,16.25 L24.82,16.87 L24.69,17.49 L24.51,18.09 L24.30,18.68 L24.05,19.26 L23.76,19.82 L23.44,20.36 L23.09,20.88 L22.71,21.37 L22.29,21.85 L21.85,22.29 L21.37,22.71 L20.88,23.09 L20.36,23.44 L19.82,23.76 L19.26,24.05 L18.68,24.30 L18.09,24.51 L17.49,24.69 L16.87,24.82 L16.25,24.92 L15.63,24.98 L15.00,25.00 L14.37,24.98 L13.75,24.92 L13.13,24.82 L12.51,24.69 L11.91,24.51 L11.32,24.30 L10.74,24.05 L10.18,23.76 L9.64,23.44 L9.12,23.09 L8.63,22.71 L8.15,22.29 L7.71,21.85 L7.29,21.37 L6.91,20.88 L6.56,20.36 L6.24,19.82 L5.95,19.26 L5.70,18.68 L5.49,18.09 L5.31,17.49 L5.18,16.87 L5.08,16.25 L5.02,15.63 L5.00,15.00 L5.02,14.37 L5.08,13.75 L5.18,13.13 L5.31,12.51 L5.49,11.91 L5.70,11.32 L5.95,10.74 L6.24,10.18 L6.56,9.64 L6.91,9.12 L7.29,8.63 L7.71,8.15 L8.15,7.71 L8.63,7.29 L9.12,6.91 L9.64,6.56 L10.18,6.24 L10.74,5.95 L11.32,5.70 L11.91,5.49 L12.51,5.31 L13.13,5.18 L13.75,5.08 L14.37,5.02 L15.00,5.00 L15.63,5.02 L16.25,5.08 L16.87,5.18 L17.49,5.31 L18.09,5.49 L18.68,5.70 L19.26,5.95 L19.82,6.24 L20.36,6.56 L20.88,6.91 L21.37,7.29 L21.85,7.71 L22.29,8.15 L22.71,8.63 L23.09,9.12 L23.44,9.64 L23.76,10.18 L24.05,10.74 L24.30,11.32 L24.51,11.91 L24.69,12.51 L24.82,13.13 L24.92,13.75 L24.98,14.37"]
                RenderPath {circle} at (360.50,105.50) size 3x3 [fill={[type=SOLID] [color=#000000]}] [data="M13.50,12.00 L13.50,12.09 L13.49,12.19 L13.47,12.28 L13.45,12.37 L13.43,12.46 L13.39,12.55 L13.36,12.64 L13.31,12.72 L13.27,12.80 L13.21,12.88 L13.16,12.96 L13.09,13.03 L13.03,13.09 L12.96,13.16 L12.88,13.21 L12.80,13.27 L12.72,13.31 L12.64,13.36 L12.55,13.39 L12.46,13.43 L12.37,13.45 L12.28,13.47 L12.19,13.49 L12.09,13.50 L12.00,13.50 L11.91,13.50 L11.81,13.49 L11.72,13.47 L11.63,13.45 L11.54,13.43 L11.45,13.39 L11.36,13.36 L11.28,13.31 L11.20,13.27 L11.12,13.21 L11.04,13.16 L10.97,13.09 L10.91,13.03 L10.84,12.96 L10.79,12.88 L10.73,12.80 L10.69,12.72 L10.64,12.64 L10.61,12.55 L10.57,12.46 L10.55,12.37 L10.53,12.28 L10.51,12.19 L10.50,12.09 L10.50,12.00 L10.50,11.91 L10.51,11.81 L10.53,11.72 L10.55,11.63 L10.57,11.54 L10.61,11.45 L10.64,11.36 L10.69,11.28 L10.73,11.20 L10.79,11.12 L10.84,11.04 L10.91,10.97 L10.97,10.91 L11.04,10.84 L11.12,10.79 L11.20,10.73 L11.28,10.69 L11.36,10.64 L11.45,10.61 L11.54,10.57 L11.63,10.55 L11.72,10.53 L11.81,10.51 L11.91,10.50 L12.00,10.50 L12.09,10.50 L12.19,10.51 L12.28,10.53 L12.37,10.55 L12.46,10.57 L12.55,10.61 L12.64,10.64 L12.72,10.69 L12.80,10.73 L12.88,10.79 L12.96,10.84 L13.03,10.91 L13.09,10.97 L13.16,11.04 L13.21,11.12 L13.27,11.20 L13.31,11.28 L13.36,11.36 L13.39,11.45 L13.43,11.54 L13.45,11.63 L13.47,11.72 L13.49,11.81 L13.50,11.91"]
                RenderPath {circle} at (365.50,105.50) size 3x3 [fill={[type=SOLID] [color=#000000]}] [data="M18.50,12.00 L18.50,12.09 L18.49,12.19 L18.47,12.28 L18.45,12.37 L18.43,12.46 L18.39,12.55 L18.36,12.64 L18.31,12.72 L18.27,12.80 L18.21,12.88 L18.16,12.96 L18.09,13.03 L18.03,13.09 L17.96,13.16 L17.88,13.21 L17.80,13.27 L17.72,13.31 L17.64,13.36 L17.55,13.39 L17.46,13.43 L17.37,13.45 L17.28,13.47 L17.19,13.49 L17.09,13.50 L17.00,13.50 L16.91,13.50 L16.81,13.49 L16.72,13.47 L16.63,13.45 L16.54,13.43 L16.45,13.39 L16.36,13.36 L16.28,13.31 L16.20,13.27 L16.12,13.21 L16.04,13.16 L15.97,13.09 L15.91,13.03 L15.84,12.96 L15.79,12.88 L15.73,12.80 L15.69,12.72 L15.64,12.64 L15.61,12.55 L15.57,12.46 L15.55,12.37 L15.53,12.28 L15.51,12.19 L15.50,12.09 L15.50,12.00 L15.50,11.91 L15.51,11.81 L15.53,11.72 L15.55,11.63 L15.57,11.54 L15.61,11.45 L15.64,11.36 L15.69,11.28 L15.73,11.20 L15.79,11.12 L15.84,11.04 L15.91,10.97 L15.97,10.91 L16.04,10.84 L16.12,10.79 L16.20,10.73 L16.28,10.69 L16.36,10.64 L16.45,10.61 L16.54,10.57 L16.63,10.55 L16.72,10.53 L16.81,10.51 L16.91,10.50 L17.00,10.50 L17.09,10.50 L17.19,10.51 L17.28,10.53 L17.37,10.55 L17.46,10.57 L17.55,10.61 L17.64,10.64 L17.72,10.69 L17.80,10.73 L17.88,10.79 L17.96,10.84 L18.03,10.91 L18.09,10.97 L18.16,11.04 L18.21,11.12 L18.27,11.20 L18.31,11.28 L18.36,11.36 L18.39,11.45 L18.43,11.54 L18.45,11.63 L18.47,11.72 L18.49,11.81 L18.50,11.91"]
                RenderPath {path} at (359.38,113.22) size 11.25x6.06 [stroke={[type=SOLID] [color=#000000] [stroke width=2.00]}] [fill={[type=SOLID] [color=#000000]}] [data="M10.00,19.00 L15.00,23.00 L20.00,19.00"]
          RenderSVGContainer {g} at (400,67) size 30x73 [transform={m=((1.00,0.00)(0.00,1.00)) t=(100.00,0.00)}]
            RenderSVGText {text} at (0,-5) size 28x10 contains 1 chunk(s)
              RenderSVGInlineText {#text} at (0,-8) size 28x10
                chunk 1 text run 1 at (0.00,-5.00) startOffset 0 endOffset 5 width 28.00: "*YMax"
            RenderPath {rect} at (400,80) size 30x60 [stroke={[type=SOLID] [color=#0000FF]}] [data="M0.50,0.50 L29.50,0.50 L29.50,59.50 L0.50,59.50"]
            RenderSVGViewportContainer {svg} at (400,100) size 30x40
              RenderPath {rect} at (400,100) size 30x40 [stroke={[type=SOLID] [color=#FF0000]}] [fill={[type=SOLID] [color=#000000]}] [data="M0.50,0.50 L29.50,0.50 L29.50,39.50 L0.50,39.50"]
              RenderSVGContainer {g} at (405,110) size 20x20 [transform={m=((1.00,0.00)(0.00,1.00)) t=(0.00,5.00)}]
                RenderPath {circle} at (405,110) size 20x20 [fill={[type=SOLID] [color=#FFFF00]}] [data="M25.00,15.00 L24.98,15.63 L24.92,16.25 L24.82,16.87 L24.69,17.49 L24.51,18.09 L24.30,18.68 L24.05,19.26 L23.76,19.82 L23.44,20.36 L23.09,20.88 L22.71,21.37 L22.29,21.85 L21.85,22.29 L21.37,22.71 L20.88,23.09 L20.36,23.44 L19.82,23.76 L19.26,24.05 L18.68,24.30 L18.09,24.51 L17.49,24.69 L16.87,24.82 L16.25,24.92 L15.63,24.98 L15.00,25.00 L14.37,24.98 L13.75,24.92 L13.13,24.82 L12.51,24.69 L11.91,24.51 L11.32,24.30 L10.74,24.05 L10.18,23.76 L9.64,23.44 L9.12,23.09 L8.63,22.71 L8.15,22.29 L7.71,21.85 L7.29,21.37 L6.91,20.88 L6.56,20.36 L6.24,19.82 L5.95,19.26 L5.70,18.68 L5.49,18.09 L5.31,17.49 L5.18,16.87 L5.08,16.25 L5.02,15.63 L5.00,15.00 L5.02,14.37 L5.08,13.75 L5.18,13.13 L5.31,12.51 L5.49,11.91 L5.70,11.32 L5.95,10.74 L6.24,10.18 L6.56,9.64 L6.91,9.12 L7.29,8.63 L7.71,8.15 L8.15,7.71 L8.63,7.29 L9.12,6.91 L9.64,6.56 L10.18,6.24 L10.74,5.95 L11.32,5.70 L11.91,5.49 L12.51,5.31 L13.13,5.18 L13.75,5.08 L14.37,5.02 L15.00,5.00 L15.63,5.02 L16.25,5.08 L16.87,5.18 L17.49,5.31 L18.09,5.49 L18.68,5.70 L19.26,5.95 L19.82,6.24 L20.36,6.56 L20.88,6.91 L21.37,7.29 L21.85,7.71 L22.29,8.15 L22.71,8.63 L23.09,9.12 L23.44,9.64 L23.76,10.18 L24.05,10.74 L24.30,11.32 L24.51,11.91 L24.69,12.51 L24.82,13.13 L24.92,13.75 L24.98,14.37"]
                RenderPath {circle} at (410.50,115.50) size 3x3 [fill={[type=SOLID] [color=#000000]}] [data="M13.50,12.00 L13.50,12.09 L13.49,12.19 L13.47,12.28 L13.45,12.37 L13.43,12.46 L13.39,12.55 L13.36,12.64 L13.31,12.72 L13.27,12.80 L13.21,12.88 L13.16,12.96 L13.09,13.03 L13.03,13.09 L12.96,13.16 L12.88,13.21 L12.80,13.27 L12.72,13.31 L12.64,13.36 L12.55,13.39 L12.46,13.43 L12.37,13.45 L12.28,13.47 L12.19,13.49 L12.09,13.50 L12.00,13.50 L11.91,13.50 L11.81,13.49 L11.72,13.47 L11.63,13.45 L11.54,13.43 L11.45,13.39 L11.36,13.36 L11.28,13.31 L11.20,13.27 L11.12,13.21 L11.04,13.16 L10.97,13.09 L10.91,13.03 L10.84,12.96 L10.79,12.88 L10.73,12.80 L10.69,12.72 L10.64,12.64 L10.61,12.55 L10.57,12.46 L10.55,12.37 L10.53,12.28 L10.51,12.19 L10.50,12.09 L10.50,12.00 L10.50,11.91 L10.51,11.81 L10.53,11.72 L10.55,11.63 L10.57,11.54 L10.61,11.45 L10.64,11.36 L10.69,11.28 L10.73,11.20 L10.79,11.12 L10.84,11.04 L10.91,10.97 L10.97,10.91 L11.04,10.84 L11.12,10.79 L11.20,10.73 L11.28,10.69 L11.36,10.64 L11.45,10.61 L11.54,10.57 L11.63,10.55 L11.72,10.53 L11.81,10.51 L11.91,10.50 L12.00,10.50 L12.09,10.50 L12.19,10.51 L12.28,10.53 L12.37,10.55 L12.46,10.57 L12.55,10.61 L12.64,10.64 L12.72,10.69 L12.80,10.73 L12.88,10.79 L12.96,10.84 L13.03,10.91 L13.09,10.97 L13.16,11.04 L13.21,11.12 L13.27,11.20 L13.31,11.28 L13.36,11.36 L13.39,11.45 L13.43,11.54 L13.45,11.63 L13.47,11.72 L13.49,11.81 L13.50,11.91"]
                RenderPath {circle} at (415.50,115.50) size 3x3 [fill={[type=SOLID] [color=#000000]}] [data="M18.50,12.00 L18.50,12.09 L18.49,12.19 L18.47,12.28 L18.45,12.37 L18.43,12.46 L18.39,12.55 L18.36,12.64 L18.31,12.72 L18.27,12.80 L18.21,12.88 L18.16,12.96 L18.09,13.03 L18.03,13.09 L17.96,13.16 L17.88,13.21 L17.80,13.27 L17.72,13.31 L17.64,13.36 L17.55,13.39 L17.46,13.43 L17.37,13.45 L17.28,13.47 L17.19,13.49 L17.09,13.50 L17.00,13.50 L16.91,13.50 L16.81,13.49 L16.72,13.47 L16.63,13.45 L16.54,13.43 L16.45,13.39 L16.36,13.36 L16.28,13.31 L16.20,13.27 L16.12,13.21 L16.04,13.16 L15.97,13.09 L15.91,13.03 L15.84,12.96 L15.79,12.88 L15.73,12.80 L15.69,12.72 L15.64,12.64 L15.61,12.55 L15.57,12.46 L15.55,12.37 L15.53,12.28 L15.51,12.19 L15.50,12.09 L15.50,12.00 L15.50,11.91 L15.51,11.81 L15.53,11.72 L15.55,11.63 L15.57,11.54 L15.61,11.45 L15.64,11.36 L15.69,11.28 L15.73,11.20 L15.79,11.12 L15.84,11.04 L15.91,10.97 L15.97,10.91 L16.04,10.84 L16.12,10.79 L16.20,10.73 L16.28,10.69 L16.36,10.64 L16.45,10.61 L16.54,10.57 L16.63,10.55 L16.72,10.53 L16.81,10.51 L16.91,10.50 L17.00,10.50 L17.09,10.50 L17.19,10.51 L17.28,10.53 L17.37,10.55 L17.46,10.57 L17.55,10.61 L17.64,10.64 L17.72,10.69 L17.80,10.73 L17.88,10.79 L17.96,10.84 L18.03,10.91 L18.09,10.97 L18.16,11.04 L18.21,11.12 L18.27,11.20 L18.31,11.28 L18.36,11.36 L18.39,11.45 L18.43,11.54 L18.45,11.63 L18.47,11.72 L18.49,11.81 L18.50,11.91"]
                RenderPath {path} at (409.38,123.22) size 11.25x6.06 [stroke={[type=SOLID] [color=#000000] [stroke width=2.00]}] [fill={[type=SOLID] [color=#000000]}] [data="M10.00,19.00 L15.00,23.00 L20.00,19.00"]
        RenderSVGContainer {g} at (120,187) size 130x88 [transform={m=((1.00,0.00)(0.00,1.00)) t=(120.00,185.00)}]
          RenderSVGText {text} at (0,-20) size 127x10 contains 1 chunk(s)
            RenderSVGInlineText {#text} at (0,-8) size 127x10
              chunk 1 text run 1 at (0.00,-20.00) startOffset 0 endOffset 42 width 127.00: "---------- slice -------------------------"
          RenderSVGContainer {g} at (120,202) size 45x73
            RenderSVGText {text} at (0,-5) size 26x10 contains 1 chunk(s)
              RenderSVGInlineText {#text} at (0,-8) size 26x10
                chunk 1 text run 1 at (0.00,-5.00) startOffset 0 endOffset 5 width 26.00: "xMin*"
            RenderPath {rect} at (120,215) size 30x60 [stroke={[type=SOLID] [color=#0000FF]}] [data="M0.50,0.50 L29.50,0.50 L29.50,59.50 L0.50,59.50"]
            RenderSVGViewportContainer {svg} at (120,215) size 45x60
              RenderPath {rect} at (120,215) size 45x60 [stroke={[type=SOLID] [color=#FF0000]}] [fill={[type=SOLID] [color=#000000]}] [data="M0.50,0.50 L29.50,0.50 L29.50,39.50 L0.50,39.50"]
              RenderSVGContainer {g} at (127.50,230) size 30x30 [transform={m=((1.00,0.00)(0.00,1.00)) t=(0.00,5.00)}]
                RenderPath {circle} at (127.50,230) size 30x30 [fill={[type=SOLID] [color=#FFFF00]}] [data="M25.00,15.00 L24.98,15.63 L24.92,16.25 L24.82,16.87 L24.69,17.49 L24.51,18.09 L24.30,18.68 L24.05,19.26 L23.76,19.82 L23.44,20.36 L23.09,20.88 L22.71,21.37 L22.29,21.85 L21.85,22.29 L21.37,22.71 L20.88,23.09 L20.36,23.44 L19.82,23.76 L19.26,24.05 L18.68,24.30 L18.09,24.51 L17.49,24.69 L16.87,24.82 L16.25,24.92 L15.63,24.98 L15.00,25.00 L14.37,24.98 L13.75,24.92 L13.13,24.82 L12.51,24.69 L11.91,24.51 L11.32,24.30 L10.74,24.05 L10.18,23.76 L9.64,23.44 L9.12,23.09 L8.63,22.71 L8.15,22.29 L7.71,21.85 L7.29,21.37 L6.91,20.88 L6.56,20.36 L6.24,19.82 L5.95,19.26 L5.70,18.68 L5.49,18.09 L5.31,17.49 L5.18,16.87 L5.08,16.25 L5.02,15.63 L5.00,15.00 L5.02,14.37 L5.08,13.75 L5.18,13.13 L5.31,12.51 L5.49,11.91 L5.70,11.32 L5.95,10.74 L6.24,10.18 L6.56,9.64 L6.91,9.12 L7.29,8.63 L7.71,8.15 L8.15,7.71 L8.63,7.29 L9.12,6.91 L9.64,6.56 L10.18,6.24 L10.74,5.95 L11.32,5.70 L11.91,5.49 L12.51,5.31 L13.13,5.18 L13.75,5.08 L14.37,5.02 L15.00,5.00 L15.63,5.02 L16.25,5.08 L16.87,5.18 L17.49,5.31 L18.09,5.49 L18.68,5.70 L19.26,5.95 L19.82,6.24 L20.36,6.56 L20.88,6.91 L21.37,7.29 L21.85,7.71 L22.29,8.15 L22.71,8.63 L23.09,9.12 L23.44,9.64 L23.76,10.18 L24.05,10.74 L24.30,11.32 L24.51,11.91 L24.69,12.51 L24.82,13.13 L24.92,13.75 L24.98,14.37"]
                RenderPath {circle} at (135.75,238.25) size 4.50x4.50 [fill={[type=SOLID] [color=#000000]}] [data="M13.50,12.00 L13.50,12.09 L13.49,12.19 L13.47,12.28 L13.45,12.37 L13.43,12.46 L13.39,12.55 L13.36,12.64 L13.31,12.72 L13.27,12.80 L13.21,12.88 L13.16,12.96 L13.09,13.03 L13.03,13.09 L12.96,13.16 L12.88,13.21 L12.80,13.27 L12.72,13.31 L12.64,13.36 L12.55,13.39 L12.46,13.43 L12.37,13.45 L12.28,13.47 L12.19,13.49 L12.09,13.50 L12.00,13.50 L11.91,13.50 L11.81,13.49 L11.72,13.47 L11.63,13.45 L11.54,13.43 L11.45,13.39 L11.36,13.36 L11.28,13.31 L11.20,13.27 L11.12,13.21 L11.04,13.16 L10.97,13.09 L10.91,13.03 L10.84,12.96 L10.79,12.88 L10.73,12.80 L10.69,12.72 L10.64,12.64 L10.61,12.55 L10.57,12.46 L10.55,12.37 L10.53,12.28 L10.51,12.19 L10.50,12.09 L10.50,12.00 L10.50,11.91 L10.51,11.81 L10.53,11.72 L10.55,11.63 L10.57,11.54 L10.61,11.45 L10.64,11.36 L10.69,11.28 L10.73,11.20 L10.79,11.12 L10.84,11.04 L10.91,10.97 L10.97,10.91 L11.04,10.84 L11.12,10.79 L11.20,10.73 L11.28,10.69 L11.36,10.64 L11.45,10.61 L11.54,10.57 L11.63,10.55 L11.72,10.53 L11.81,10.51 L11.91,10.50 L12.00,10.50 L12.09,10.50 L12.19,10.51 L12.28,10.53 L12.37,10.55 L12.46,10.57 L12.55,10.61 L12.64,10.64 L12.72,10.69 L12.80,10.73 L12.88,10.79 L12.96,10.84 L13.03,10.91 L13.09,10.97 L13.16,11.04 L13.21,11.12 L13.27,11.20 L13.31,11.28 L13.36,11.36 L13.39,11.45 L13.43,11.54 L13.45,11.63 L13.47,11.72 L13.49,11.81 L13.50,11.91"]
                RenderPath {circle} at (143.25,238.25) size 4.50x4.50 [fill={[type=SOLID] [color=#000000]}] [data="M18.50,12.00 L18.50,12.09 L18.49,12.19 L18.47,12.28 L18.45,12.37 L18.43,12.46 L18.39,12.55 L18.36,12.64 L18.31,12.72 L18.27,12.80 L18.21,12.88 L18.16,12.96 L18.09,13.03 L18.03,13.09 L17.96,13.16 L17.88,13.21 L17.80,13.27 L17.72,13.31 L17.64,13.36 L17.55,13.39 L17.46,13.43 L17.37,13.45 L17.28,13.47 L17.19,13.49 L17.09,13.50 L17.00,13.50 L16.91,13.50 L16.81,13.49 L16.72,13.47 L16.63,13.45 L16.54,13.43 L16.45,13.39 L16.36,13.36 L16.28,13.31 L16.20,13.27 L16.12,13.21 L16.04,13.16 L15.97,13.09 L15.91,13.03 L15.84,12.96 L15.79,12.88 L15.73,12.80 L15.69,12.72 L15.64,12.64 L15.61,12.55 L15.57,12.46 L15.55,12.37 L15.53,12.28 L15.51,12.19 L15.50,12.09 L15.50,12.00 L15.50,11.91 L15.51,11.81 L15.53,11.72 L15.55,11.63 L15.57,11.54 L15.61,11.45 L15.64,11.36 L15.69,11.28 L15.73,11.20 L15.79,11.12 L15.84,11.04 L15.91,10.97 L15.97,10.91 L16.04,10.84 L16.12,10.79 L16.20,10.73 L16.28,10.69 L16.36,10.64 L16.45,10.61 L16.54,10.57 L16.63,10.55 L16.72,10.53 L16.81,10.51 L16.91,10.50 L17.00,10.50 L17.09,10.50 L17.19,10.51 L17.28,10.53 L17.37,10.55 L17.46,10.57 L17.55,10.61 L17.64,10.64 L17.72,10.69 L17.80,10.73 L17.88,10.79 L17.96,10.84 L18.03,10.91 L18.09,10.97 L18.16,11.04 L18.21,11.12 L18.27,11.20 L18.31,11.28 L18.36,11.36 L18.39,11.45 L18.43,11.54 L18.45,11.63 L18.47,11.72 L18.49,11.81 L18.50,11.91"]
                RenderPath {path} at (134.06,249.83) size 16.87x9.09 [stroke={[type=SOLID] [color=#000000] [stroke width=2.00]}] [fill={[type=SOLID] [color=#000000]}] [data="M10.00,19.00 L15.00,23.00 L20.00,19.00"]
          RenderSVGContainer {g} at (162.50,202) size 45x73 [transform={m=((1.00,0.00)(0.00,1.00)) t=(50.00,0.00)}]
            RenderSVGText {text} at (0,-5) size 26x10 contains 1 chunk(s)
              RenderSVGInlineText {#text} at (0,-8) size 26x10
                chunk 1 text run 1 at (0.00,-5.00) startOffset 0 endOffset 5 width 26.00: "xMid*"
            RenderPath {rect} at (170,215) size 30x60 [stroke={[type=SOLID] [color=#0000FF]}] [data="M0.50,0.50 L29.50,0.50 L29.50,59.50 L0.50,59.50"]
            RenderSVGViewportContainer {svg} at (162.50,215) size 45x60
              RenderPath {rect} at (162.50,215) size 45x60 [stroke={[type=SOLID] [color=#FF0000]}] [fill={[type=SOLID] [color=#000000]}] [data="M0.50,0.50 L29.50,0.50 L29.50,39.50 L0.50,39.50"]
              RenderSVGContainer {g} at (170,230) size 30x30 [transform={m=((1.00,0.00)(0.00,1.00)) t=(0.00,5.00)}]
                RenderPath {circle} at (170,230) size 30x30 [fill={[type=SOLID] [color=#FFFF00]}] [data="M25.00,15.00 L24.98,15.63 L24.92,16.25 L24.82,16.87 L24.69,17.49 L24.51,18.09 L24.30,18.68 L24.05,19.26 L23.76,19.82 L23.44,20.36 L23.09,20.88 L22.71,21.37 L22.29,21.85 L21.85,22.29 L21.37,22.71 L20.88,23.09 L20.36,23.44 L19.82,23.76 L19.26,24.05 L18.68,24.30 L18.09,24.51 L17.49,24.69 L16.87,24.82 L16.25,24.92 L15.63,24.98 L15.00,25.00 L14.37,24.98 L13.75,24.92 L13.13,24.82 L12.51,24.69 L11.91,24.51 L11.32,24.30 L10.74,24.05 L10.18,23.76 L9.64,23.44 L9.12,23.09 L8.63,22.71 L8.15,22.29 L7.71,21.85 L7.29,21.37 L6.91,20.88 L6.56,20.36 L6.24,19.82 L5.95,19.26 L5.70,18.68 L5.49,18.09 L5.31,17.49 L5.18,16.87 L5.08,16.25 L5.02,15.63 L5.00,15.00 L5.02,14.37 L5.08,13.75 L5.18,13.13 L5.31,12.51 L5.49,11.91 L5.70,11.32 L5.95,10.74 L6.24,10.18 L6.56,9.64 L6.91,9.12 L7.29,8.63 L7.71,8.15 L8.15,7.71 L8.63,7.29 L9.12,6.91 L9.64,6.56 L10.18,6.24 L10.74,5.95 L11.32,5.70 L11.91,5.49 L12.51,5.31 L13.13,5.18 L13.75,5.08 L14.37,5.02 L15.00,5.00 L15.63,5.02 L16.25,5.08 L16.87,5.18 L17.49,5.31 L18.09,5.49 L18.68,5.70 L19.26,5.95 L19.82,6.24 L20.36,6.56 L20.88,6.91 L21.37,7.29 L21.85,7.71 L22.29,8.15 L22.71,8.63 L23.09,9.12 L23.44,9.64 L23.76,10.18 L24.05,10.74 L24.30,11.32 L24.51,11.91 L24.69,12.51 L24.82,13.13 L24.92,13.75 L24.98,14.37"]
                RenderPath {circle} at (178.25,238.25) size 4.50x4.50 [fill={[type=SOLID] [color=#000000]}] [data="M13.50,12.00 L13.50,12.09 L13.49,12.19 L13.47,12.28 L13.45,12.37 L13.43,12.46 L13.39,12.55 L13.36,12.64 L13.31,12.72 L13.27,12.80 L13.21,12.88 L13.16,12.96 L13.09,13.03 L13.03,13.09 L12.96,13.16 L12.88,13.21 L12.80,13.27 L12.72,13.31 L12.64,13.36 L12.55,13.39 L12.46,13.43 L12.37,13.45 L12.28,13.47 L12.19,13.49 L12.09,13.50 L12.00,13.50 L11.91,13.50 L11.81,13.49 L11.72,13.47 L11.63,13.45 L11.54,13.43 L11.45,13.39 L11.36,13.36 L11.28,13.31 L11.20,13.27 L11.12,13.21 L11.04,13.16 L10.97,13.09 L10.91,13.03 L10.84,12.96 L10.79,12.88 L10.73,12.80 L10.69,12.72 L10.64,12.64 L10.61,12.55 L10.57,12.46 L10.55,12.37 L10.53,12.28 L10.51,12.19 L10.50,12.09 L10.50,12.00 L10.50,11.91 L10.51,11.81 L10.53,11.72 L10.55,11.63 L10.57,11.54 L10.61,11.45 L10.64,11.36 L10.69,11.28 L10.73,11.20 L10.79,11.12 L10.84,11.04 L10.91,10.97 L10.97,10.91 L11.04,10.84 L11.12,10.79 L11.20,10.73 L11.28,10.69 L11.36,10.64 L11.45,10.61 L11.54,10.57 L11.63,10.55 L11.72,10.53 L11.81,10.51 L11.91,10.50 L12.00,10.50 L12.09,10.50 L12.19,10.51 L12.28,10.53 L12.37,10.55 L12.46,10.57 L12.55,10.61 L12.64,10.64 L12.72,10.69 L12.80,10.73 L12.88,10.79 L12.96,10.84 L13.03,10.91 L13.09,10.97 L13.16,11.04 L13.21,11.12 L13.27,11.20 L13.31,11.28 L13.36,11.36 L13.39,11.45 L13.43,11.54 L13.45,11.63 L13.47,11.72 L13.49,11.81 L13.50,11.91"]
                RenderPath {circle} at (185.75,238.25) size 4.50x4.50 [fill={[type=SOLID] [color=#000000]}] [data="M18.50,12.00 L18.50,12.09 L18.49,12.19 L18.47,12.28 L18.45,12.37 L18.43,12.46 L18.39,12.55 L18.36,12.64 L18.31,12.72 L18.27,12.80 L18.21,12.88 L18.16,12.96 L18.09,13.03 L18.03,13.09 L17.96,13.16 L17.88,13.21 L17.80,13.27 L17.72,13.31 L17.64,13.36 L17.55,13.39 L17.46,13.43 L17.37,13.45 L17.28,13.47 L17.19,13.49 L17.09,13.50 L17.00,13.50 L16.91,13.50 L16.81,13.49 L16.72,13.47 L16.63,13.45 L16.54,13.43 L16.45,13.39 L16.36,13.36 L16.28,13.31 L16.20,13.27 L16.12,13.21 L16.04,13.16 L15.97,13.09 L15.91,13.03 L15.84,12.96 L15.79,12.88 L15.73,12.80 L15.69,12.72 L15.64,12.64 L15.61,12.55 L15.57,12.46 L15.55,12.37 L15.53,12.28 L15.51,12.19 L15.50,12.09 L15.50,12.00 L15.50,11.91 L15.51,11.81 L15.53,11.72 L15.55,11.63 L15.57,11.54 L15.61,11.45 L15.64,11.36 L15.69,11.28 L15.73,11.20 L15.79,11.12 L15.84,11.04 L15.91,10.97 L15.97,10.91 L16.04,10.84 L16.12,10.79 L16.20,10.73 L16.28,10.69 L16.36,10.64 L16.45,10.61 L16.54,10.57 L16.63,10.55 L16.72,10.53 L16.81,10.51 L16.91,10.50 L17.00,10.50 L17.09,10.50 L17.19,10.51 L17.28,10.53 L17.37,10.55 L17.46,10.57 L17.55,10.61 L17.64,10.64 L17.72,10.69 L17.80,10.73 L17.88,10.79 L17.96,10.84 L18.03,10.91 L18.09,10.97 L18.16,11.04 L18.21,11.12 L18.27,11.20 L18.31,11.28 L18.36,11.36 L18.39,11.45 L18.43,11.54 L18.45,11.63 L18.47,11.72 L18.49,11.81 L18.50,11.91"]
                RenderPath {path} at (176.56,249.83) size 16.87x9.09 [stroke={[type=SOLID] [color=#000000] [stroke width=2.00]}] [fill={[type=SOLID] [color=#000000]}] [data="M10.00,19.00 L15.00,23.00 L20.00,19.00"]
          RenderSVGContainer {g} at (205,202) size 45x73 [transform={m=((1.00,0.00)(0.00,1.00)) t=(100.00,0.00)}]
            RenderSVGText {text} at (0,-5) size 27x10 contains 1 chunk(s)
              RenderSVGInlineText {#text} at (0,-8) size 27x10
                chunk 1 text run 1 at (0.00,-5.00) startOffset 0 endOffset 5 width 27.00: "xMax*"
            RenderPath {rect} at (220,215) size 30x60 [stroke={[type=SOLID] [color=#0000FF]}] [data="M0.50,0.50 L29.50,0.50 L29.50,59.50 L0.50,59.50"]
            RenderSVGViewportContainer {svg} at (205,215) size 45x60
              RenderPath {rect} at (205,215) size 45x60 [stroke={[type=SOLID] [color=#FF0000]}] [fill={[type=SOLID] [color=#000000]}] [data="M0.50,0.50 L29.50,0.50 L29.50,39.50 L0.50,39.50"]
              RenderSVGContainer {g} at (212.50,230) size 30x30 [transform={m=((1.00,0.00)(0.00,1.00)) t=(0.00,5.00)}]
                RenderPath {circle} at (212.50,230) size 30x30 [fill={[type=SOLID] [color=#FFFF00]}] [data="M25.00,15.00 L24.98,15.63 L24.92,16.25 L24.82,16.87 L24.69,17.49 L24.51,18.09 L24.30,18.68 L24.05,19.26 L23.76,19.82 L23.44,20.36 L23.09,20.88 L22.71,21.37 L22.29,21.85 L21.85,22.29 L21.37,22.71 L20.88,23.09 L20.36,23.44 L19.82,23.76 L19.26,24.05 L18.68,24.30 L18.09,24.51 L17.49,24.69 L16.87,24.82 L16.25,24.92 L15.63,24.98 L15.00,25.00 L14.37,24.98 L13.75,24.92 L13.13,24.82 L12.51,24.69 L11.91,24.51 L11.32,24.30 L10.74,24.05 L10.18,23.76 L9.64,23.44 L9.12,23.09 L8.63,22.71 L8.15,22.29 L7.71,21.85 L7.29,21.37 L6.91,20.88 L6.56,20.36 L6.24,19.82 L5.95,19.26 L5.70,18.68 L5.49,18.09 L5.31,17.49 L5.18,16.87 L5.08,16.25 L5.02,15.63 L5.00,15.00 L5.02,14.37 L5.08,13.75 L5.18,13.13 L5.31,12.51 L5.49,11.91 L5.70,11.32 L5.95,10.74 L6.24,10.18 L6.56,9.64 L6.91,9.12 L7.29,8.63 L7.71,8.15 L8.15,7.71 L8.63,7.29 L9.12,6.91 L9.64,6.56 L10.18,6.24 L10.74,5.95 L11.32,5.70 L11.91,5.49 L12.51,5.31 L13.13,5.18 L13.75,5.08 L14.37,5.02 L15.00,5.00 L15.63,5.02 L16.25,5.08 L16.87,5.18 L17.49,5.31 L18.09,5.49 L18.68,5.70 L19.26,5.95 L19.82,6.24 L20.36,6.56 L20.88,6.91 L21.37,7.29 L21.85,7.71 L22.29,8.15 L22.71,8.63 L23.09,9.12 L23.44,9.64 L23.76,10.18 L24.05,10.74 L24.30,11.32 L24.51,11.91 L24.69,12.51 L24.82,13.13 L24.92,13.75 L24.98,14.37"]
                RenderPath {circle} at (220.75,238.25) size 4.50x4.50 [fill={[type=SOLID] [color=#000000]}] [data="M13.50,12.00 L13.50,12.09 L13.49,12.19 L13.47,12.28 L13.45,12.37 L13.43,12.46 L13.39,12.55 L13.36,12.64 L13.31,12.72 L13.27,12.80 L13.21,12.88 L13.16,12.96 L13.09,13.03 L13.03,13.09 L12.96,13.16 L12.88,13.21 L12.80,13.27 L12.72,13.31 L12.64,13.36 L12.55,13.39 L12.46,13.43 L12.37,13.45 L12.28,13.47 L12.19,13.49 L12.09,13.50 L12.00,13.50 L11.91,13.50 L11.81,13.49 L11.72,13.47 L11.63,13.45 L11.54,13.43 L11.45,13.39 L11.36,13.36 L11.28,13.31 L11.20,13.27 L11.12,13.21 L11.04,13.16 L10.97,13.09 L10.91,13.03 L10.84,12.96 L10.79,12.88 L10.73,12.80 L10.69,12.72 L10.64,12.64 L10.61,12.55 L10.57,12.46 L10.55,12.37 L10.53,12.28 L10.51,12.19 L10.50,12.09 L10.50,12.00 L10.50,11.91 L10.51,11.81 L10.53,11.72 L10.55,11.63 L10.57,11.54 L10.61,11.45 L10.64,11.36 L10.69,11.28 L10.73,11.20 L10.79,11.12 L10.84,11.04 L10.91,10.97 L10.97,10.91 L11.04,10.84 L11.12,10.79 L11.20,10.73 L11.28,10.69 L11.36,10.64 L11.45,10.61 L11.54,10.57 L11.63,10.55 L11.72,10.53 L11.81,10.51 L11.91,10.50 L12.00,10.50 L12.09,10.50 L12.19,10.51 L12.28,10.53 L12.37,10.55 L12.46,10.57 L12.55,10.61 L12.64,10.64 L12.72,10.69 L12.80,10.73 L12.88,10.79 L12.96,10.84 L13.03,10.91 L13.09,10.97 L13.16,11.04 L13.21,11.12 L13.27,11.20 L13.31,11.28 L13.36,11.36 L13.39,11.45 L13.43,11.54 L13.45,11.63 L13.47,11.72 L13.49,11.81 L13.50,11.91"]
                RenderPath {circle} at (228.25,238.25) size 4.50x4.50 [fill={[type=SOLID] [color=#000000]}] [data="M18.50,12.00 L18.50,12.09 L18.49,12.19 L18.47,12.28 L18.45,12.37 L18.43,12.46 L18.39,12.55 L18.36,12.64 L18.31,12.72 L18.27,12.80 L18.21,12.88 L18.16,12.96 L18.09,13.03 L18.03,13.09 L17.96,13.16 L17.88,13.21 L17.80,13.27 L17.72,13.31 L17.64,13.36 L17.55,13.39 L17.46,13.43 L17.37,13.45 L17.28,13.47 L17.19,13.49 L17.09,13.50 L17.00,13.50 L16.91,13.50 L16.81,13.49 L16.72,13.47 L16.63,13.45 L16.54,13.43 L16.45,13.39 L16.36,13.36 L16.28,13.31 L16.20,13.27 L16.12,13.21 L16.04,13.16 L15.97,13.09 L15.91,13.03 L15.84,12.96 L15.79,12.88 L15.73,12.80 L15.69,12.72 L15.64,12.64 L15.61,12.55 L15.57,12.46 L15.55,12.37 L15.53,12.28 L15.51,12.19 L15.50,12.09 L15.50,12.00 L15.50,11.91 L15.51,11.81 L15.53,11.72 L15.55,11.63 L15.57,11.54 L15.61,11.45 L15.64,11.36 L15.69,11.28 L15.73,11.20 L15.79,11.12 L15.84,11.04 L15.91,10.97 L15.97,10.91 L16.04,10.84 L16.12,10.79 L16.20,10.73 L16.28,10.69 L16.36,10.64 L16.45,10.61 L16.54,10.57 L16.63,10.55 L16.72,10.53 L16.81,10.51 L16.91,10.50 L17.00,10.50 L17.09,10.50 L17.19,10.51 L17.28,10.53 L17.37,10.55 L17.46,10.57 L17.55,10.61 L17.64,10.64 L17.72,10.69 L17.80,10.73 L17.88,10.79 L17.96,10.84 L18.03,10.91 L18.09,10.97 L18.16,11.04 L18.21,11.12 L18.27,11.20 L18.31,11.28 L18.36,11.36 L18.39,11.45 L18.43,11.54 L18.45,11.63 L18.47,11.72 L18.49,11.81 L18.50,11.91"]
                RenderPath {path} at (219.06,249.83) size 16.87x9.09 [stroke={[type=SOLID] [color=#000000] [stroke width=2.00]}] [fill={[type=SOLID] [color=#000000]}] [data="M10.00,19.00 L15.00,23.00 L20.00,19.00"]
        RenderSVGContainer {g} at (300,187) size 120x108 [transform={m=((1.00,0.00)(0.00,1.00)) t=(300.00,185.00)}]
          RenderSVGText {text} at (0,-20) size 115x10 contains 1 chunk(s)
            RenderSVGInlineText {#text} at (0,-8) size 115x10
              chunk 1 text run 1 at (0.00,-20.00) startOffset 0 endOffset 38 width 115.00: "---------- slice ---------------------"
          RenderSVGContainer {g} at (300,202) size 50x79.67
            RenderSVGText {text} at (0,-5) size 27x10 contains 1 chunk(s)
              RenderSVGInlineText {#text} at (0,-8) size 27x10
                chunk 1 text run 1 at (0.00,-5.00) startOffset 0 endOffset 5 width 27.00: "*YMin"
            RenderPath {rect} at (300,215) size 50x30 [stroke={[type=SOLID] [color=#0000FF]}] [data="M0.50,0.50 L49.50,0.50 L49.50,29.50 L0.50,29.50"]
            RenderSVGViewportContainer {svg} at (300,215) size 50x66.67
              RenderPath {rect} at (300,215) size 50x66.67 [stroke={[type=SOLID] [color=#FF0000]}] [fill={[type=SOLID] [color=#000000]}] [data="M0.50,0.50 L29.50,0.50 L29.50,39.50 L0.50,39.50"]
              RenderSVGContainer {g} at (308.33,231.67) size 33.33x33.33 [transform={m=((1.00,0.00)(0.00,1.00)) t=(0.00,5.00)}]
                RenderPath {circle} at (308.33,231.67) size 33.33x33.33 [fill={[type=SOLID] [color=#FFFF00]}] [data="M25.00,15.00 L24.98,15.63 L24.92,16.25 L24.82,16.87 L24.69,17.49 L24.51,18.09 L24.30,18.68 L24.05,19.26 L23.76,19.82 L23.44,20.36 L23.09,20.88 L22.71,21.37 L22.29,21.85 L21.85,22.29 L21.37,22.71 L20.88,23.09 L20.36,23.44 L19.82,23.76 L19.26,24.05 L18.68,24.30 L18.09,24.51 L17.49,24.69 L16.87,24.82 L16.25,24.92 L15.63,24.98 L15.00,25.00 L14.37,24.98 L13.75,24.92 L13.13,24.82 L12.51,24.69 L11.91,24.51 L11.32,24.30 L10.74,24.05 L10.18,23.76 L9.64,23.44 L9.12,23.09 L8.63,22.71 L8.15,22.29 L7.71,21.85 L7.29,21.37 L6.91,20.88 L6.56,20.36 L6.24,19.82 L5.95,19.26 L5.70,18.68 L5.49,18.09 L5.31,17.49 L5.18,16.87 L5.08,16.25 L5.02,15.63 L5.00,15.00 L5.02,14.37 L5.08,13.75 L5.18,13.13 L5.31,12.51 L5.49,11.91 L5.70,11.32 L5.95,10.74 L6.24,10.18 L6.56,9.64 L6.91,9.12 L7.29,8.63 L7.71,8.15 L8.15,7.71 L8.63,7.29 L9.12,6.91 L9.64,6.56 L10.18,6.24 L10.74,5.95 L11.32,5.70 L11.91,5.49 L12.51,5.31 L13.13,5.18 L13.75,5.08 L14.37,5.02 L15.00,5.00 L15.63,5.02 L16.25,5.08 L16.87,5.18 L17.49,5.31 L18.09,5.49 L18.68,5.70 L19.26,5.95 L19.82,6.24 L20.36,6.56 L20.88,6.91 L21.37,7.29 L21.85,7.71 L22.29,8.15 L22.71,8.63 L23.09,9.12 L23.44,9.64 L23.76,10.18 L24.05,10.74 L24.30,11.32 L24.51,11.91 L24.69,12.51 L24.82,13.13 L24.92,13.75 L24.98,14.37"]
                RenderPath {circle} at (317.50,240.83) size 5x5 [fill={[type=SOLID] [color=#000000]}] [data="M13.50,12.00 L13.50,12.09 L13.49,12.19 L13.47,12.28 L13.45,12.37 L13.43,12.46 L13.39,12.55 L13.36,12.64 L13.31,12.72 L13.27,12.80 L13.21,12.88 L13.16,12.96 L13.09,13.03 L13.03,13.09 L12.96,13.16 L12.88,13.21 L12.80,13.27 L12.72,13.31 L12.64,13.36 L12.55,13.39 L12.46,13.43 L12.37,13.45 L12.28,13.47 L12.19,13.49 L12.09,13.50 L12.00,13.50 L11.91,13.50 L11.81,13.49 L11.72,13.47 L11.63,13.45 L11.54,13.43 L11.45,13.39 L11.36,13.36 L11.28,13.31 L11.20,13.27 L11.12,13.21 L11.04,13.16 L10.97,13.09 L10.91,13.03 L10.84,12.96 L10.79,12.88 L10.73,12.80 L10.69,12.72 L10.64,12.64 L10.61,12.55 L10.57,12.46 L10.55,12.37 L10.53,12.28 L10.51,12.19 L10.50,12.09 L10.50,12.00 L10.50,11.91 L10.51,11.81 L10.53,11.72 L10.55,11.63 L10.57,11.54 L10.61,11.45 L10.64,11.36 L10.69,11.28 L10.73,11.20 L10.79,11.12 L10.84,11.04 L10.91,10.97 L10.97,10.91 L11.04,10.84 L11.12,10.79 L11.20,10.73 L11.28,10.69 L11.36,10.64 L11.45,10.61 L11.54,10.57 L11.63,10.55 L11.72,10.53 L11.81,10.51 L11.91,10.50 L12.00,10.50 L12.09,10.50 L12.19,10.51 L12.28,10.53 L12.37,10.55 L12.46,10.57 L12.55,10.61 L12.64,10.64 L12.72,10.69 L12.80,10.73 L12.88,10.79 L12.96,10.84 L13.03,10.91 L13.09,10.97 L13.16,11.04 L13.21,11.12 L13.27,11.20 L13.31,11.28 L13.36,11.36 L13.39,11.45 L13.43,11.54 L13.45,11.63 L13.47,11.72 L13.49,11.81 L13.50,11.91"]
                RenderPath {circle} at (325.83,240.83) size 5x5 [fill={[type=SOLID] [color=#000000]}] [data="M18.50,12.00 L18.50,12.09 L18.49,12.19 L18.47,12.28 L18.45,12.37 L18.43,12.46 L18.39,12.55 L18.36,12.64 L18.31,12.72 L18.27,12.80 L18.21,12.88 L18.16,12.96 L18.09,13.03 L18.03,13.09 L17.96,13.16 L17.88,13.21 L17.80,13.27 L17.72,13.31 L17.64,13.36 L17.55,13.39 L17.46,13.43 L17.37,13.45 L17.28,13.47 L17.19,13.49 L17.09,13.50 L17.00,13.50 L16.91,13.50 L16.81,13.49 L16.72,13.47 L16.63,13.45 L16.54,13.43 L16.45,13.39 L16.36,13.36 L16.28,13.31 L16.20,13.27 L16.12,13.21 L16.04,13.16 L15.97,13.09 L15.91,13.03 L15.84,12.96 L15.79,12.88 L15.73,12.80 L15.69,12.72 L15.64,12.64 L15.61,12.55 L15.57,12.46 L15.55,12.37 L15.53,12.28 L15.51,12.19 L15.50,12.09 L15.50,12.00 L15.50,11.91 L15.51,11.81 L15.53,11.72 L15.55,11.63 L15.57,11.54 L15.61,11.45 L15.64,11.36 L15.69,11.28 L15.73,11.20 L15.79,11.12 L15.84,11.04 L15.91,10.97 L15.97,10.91 L16.04,10.84 L16.12,10.79 L16.20,10.73 L16.28,10.69 L16.36,10.64 L16.45,10.61 L16.54,10.57 L16.63,10.55 L16.72,10.53 L16.81,10.51 L16.91,10.50 L17.00,10.50 L17.09,10.50 L17.19,10.51 L17.28,10.53 L17.37,10.55 L17.46,10.57 L17.55,10.61 L17.64,10.64 L17.72,10.69 L17.80,10.73 L17.88,10.79 L17.96,10.84 L18.03,10.91 L18.09,10.97 L18.16,11.04 L18.21,11.12 L18.27,11.20 L18.31,11.28 L18.36,11.36 L18.39,11.45 L18.43,11.54 L18.45,11.63 L18.47,11.72 L18.49,11.81 L18.50,11.91"]
                RenderPath {path} at (315.63,253.70) size 18.75x10.10 [stroke={[type=SOLID] [color=#000000] [stroke width=2.00]}] [fill={[type=SOLID] [color=#000000]}] [data="M10.00,19.00 L15.00,23.00 L20.00,19.00"]
          RenderSVGContainer {g} at (370,196.67) size 50x66.67 [transform={m=((1.00,0.00)(0.00,1.00)) t=(70.00,0.00)}]
            RenderSVGText {text} at (0,-5) size 27x10 contains 1 chunk(s)
              RenderSVGInlineText {#text} at (0,-8) size 27x10
                chunk 1 text run 1 at (0.00,-5.00) startOffset 0 endOffset 5 width 27.00: "*YMid"
            RenderPath {rect} at (370,215) size 50x30 [stroke={[type=SOLID] [color=#0000FF]}] [data="M0.50,0.50 L49.50,0.50 L49.50,29.50 L0.50,29.50"]
            RenderSVGViewportContainer {svg} at (370,196.67) size 50x66.67
              RenderPath {rect} at (370,196.67) size 50x66.67 [stroke={[type=SOLID] [color=#FF0000]}] [fill={[type=SOLID] [color=#000000]}] [data="M0.50,0.50 L29.50,0.50 L29.50,39.50 L0.50,39.50"]
              RenderSVGContainer {g} at (378.33,213.33) size 33.33x33.33 [transform={m=((1.00,0.00)(0.00,1.00)) t=(0.00,5.00)}]
                RenderPath {circle} at (378.33,213.33) size 33.33x33.33 [fill={[type=SOLID] [color=#FFFF00]}] [data="M25.00,15.00 L24.98,15.63 L24.92,16.25 L24.82,16.87 L24.69,17.49 L24.51,18.09 L24.30,18.68 L24.05,19.26 L23.76,19.82 L23.44,20.36 L23.09,20.88 L22.71,21.37 L22.29,21.85 L21.85,22.29 L21.37,22.71 L20.88,23.09 L20.36,23.44 L19.82,23.76 L19.26,24.05 L18.68,24.30 L18.09,24.51 L17.49,24.69 L16.87,24.82 L16.25,24.92 L15.63,24.98 L15.00,25.00 L14.37,24.98 L13.75,24.92 L13.13,24.82 L12.51,24.69 L11.91,24.51 L11.32,24.30 L10.74,24.05 L10.18,23.76 L9.64,23.44 L9.12,23.09 L8.63,22.71 L8.15,22.29 L7.71,21.85 L7.29,21.37 L6.91,20.88 L6.56,20.36 L6.24,19.82 L5.95,19.26 L5.70,18.68 L5.49,18.09 L5.31,17.49 L5.18,16.87 L5.08,16.25 L5.02,15.63 L5.00,15.00 L5.02,14.37 L5.08,13.75 L5.18,13.13 L5.31,12.51 L5.49,11.91 L5.70,11.32 L5.95,10.74 L6.24,10.18 L6.56,9.64 L6.91,9.12 L7.29,8.63 L7.71,8.15 L8.15,7.71 L8.63,7.29 L9.12,6.91 L9.64,6.56 L10.18,6.24 L10.74,5.95 L11.32,5.70 L11.91,5.49 L12.51,5.31 L13.13,5.18 L13.75,5.08 L14.37,5.02 L15.00,5.00 L15.63,5.02 L16.25,5.08 L16.87,5.18 L17.49,5.31 L18.09,5.49 L18.68,5.70 L19.26,5.95 L19.82,6.24 L20.36,6.56 L20.88,6.91 L21.37,7.29 L21.85,7.71 L22.29,8.15 L22.71,8.63 L23.09,9.12 L23.44,9.64 L23.76,10.18 L24.05,10.74 L24.30,11.32 L24.51,11.91 L24.69,12.51 L24.82,13.13 L24.92,13.75 L24.98,14.37"]
                RenderPath {circle} at (387.50,222.50) size 5x5 [fill={[type=SOLID] [color=#000000]}] [data="M13.50,12.00 L13.50,12.09 L13.49,12.19 L13.47,12.28 L13.45,12.37 L13.43,12.46 L13.39,12.55 L13.36,12.64 L13.31,12.72 L13.27,12.80 L13.21,12.88 L13.16,12.96 L13.09,13.03 L13.03,13.09 L12.96,13.16 L12.88,13.21 L12.80,13.27 L12.72,13.31 L12.64,13.36 L12.55,13.39 L12.46,13.43 L12.37,13.45 L12.28,13.47 L12.19,13.49 L12.09,13.50 L12.00,13.50 L11.91,13.50 L11.81,13.49 L11.72,13.47 L11.63,13.45 L11.54,13.43 L11.45,13.39 L11.36,13.36 L11.28,13.31 L11.20,13.27 L11.12,13.21 L11.04,13.16 L10.97,13.09 L10.91,13.03 L10.84,12.96 L10.79,12.88 L10.73,12.80 L10.69,12.72 L10.64,12.64 L10.61,12.55 L10.57,12.46 L10.55,12.37 L10.53,12.28 L10.51,12.19 L10.50,12.09 L10.50,12.00 L10.50,11.91 L10.51,11.81 L10.53,11.72 L10.55,11.63 L10.57,11.54 L10.61,11.45 L10.64,11.36 L10.69,11.28 L10.73,11.20 L10.79,11.12 L10.84,11.04 L10.91,10.97 L10.97,10.91 L11.04,10.84 L11.12,10.79 L11.20,10.73 L11.28,10.69 L11.36,10.64 L11.45,10.61 L11.54,10.57 L11.63,10.55 L11.72,10.53 L11.81,10.51 L11.91,10.50 L12.00,10.50 L12.09,10.50 L12.19,10.51 L12.28,10.53 L12.37,10.55 L12.46,10.57 L12.55,10.61 L12.64,10.64 L12.72,10.69 L12.80,10.73 L12.88,10.79 L12.96,10.84 L13.03,10.91 L13.09,10.97 L13.16,11.04 L13.21,11.12 L13.27,11.20 L13.31,11.28 L13.36,11.36 L13.39,11.45 L13.43,11.54 L13.45,11.63 L13.47,11.72 L13.49,11.81 L13.50,11.91"]
                RenderPath {circle} at (395.83,222.50) size 5x5 [fill={[type=SOLID] [color=#000000]}] [data="M18.50,12.00 L18.50,12.09 L18.49,12.19 L18.47,12.28 L18.45,12.37 L18.43,12.46 L18.39,12.55 L18.36,12.64 L18.31,12.72 L18.27,12.80 L18.21,12.88 L18.16,12.96 L18.09,13.03 L18.03,13.09 L17.96,13.16 L17.88,13.21 L17.80,13.27 L17.72,13.31 L17.64,13.36 L17.55,13.39 L17.46,13.43 L17.37,13.45 L17.28,13.47 L17.19,13.49 L17.09,13.50 L17.00,13.50 L16.91,13.50 L16.81,13.49 L16.72,13.47 L16.63,13.45 L16.54,13.43 L16.45,13.39 L16.36,13.36 L16.28,13.31 L16.20,13.27 L16.12,13.21 L16.04,13.16 L15.97,13.09 L15.91,13.03 L15.84,12.96 L15.79,12.88 L15.73,12.80 L15.69,12.72 L15.64,12.64 L15.61,12.55 L15.57,12.46 L15.55,12.37 L15.53,12.28 L15.51,12.19 L15.50,12.09 L15.50,12.00 L15.50,11.91 L15.51,11.81 L15.53,11.72 L15.55,11.63 L15.57,11.54 L15.61,11.45 L15.64,11.36 L15.69,11.28 L15.73,11.20 L15.79,11.12 L15.84,11.04 L15.91,10.97 L15.97,10.91 L16.04,10.84 L16.12,10.79 L16.20,10.73 L16.28,10.69 L16.36,10.64 L16.45,10.61 L16.54,10.57 L16.63,10.55 L16.72,10.53 L16.81,10.51 L16.91,10.50 L17.00,10.50 L17.09,10.50 L17.19,10.51 L17.28,10.53 L17.37,10.55 L17.46,10.57 L17.55,10.61 L17.64,10.64 L17.72,10.69 L17.80,10.73 L17.88,10.79 L17.96,10.84 L18.03,10.91 L18.09,10.97 L18.16,11.04 L18.21,11.12 L18.27,11.20 L18.31,11.28 L18.36,11.36 L18.39,11.45 L18.43,11.54 L18.45,11.63 L18.47,11.72 L18.49,11.81 L18.50,11.91"]
                RenderPath {path} at (385.63,235.37) size 18.75x10.10 [stroke={[type=SOLID] [color=#000000] [stroke width=2.00]}] [fill={[type=SOLID] [color=#000000]}] [data="M10.00,19.00 L15.00,23.00 L20.00,19.00"]
          RenderSVGContainer {g} at (300,228.33) size 50x66.67 [transform={m=((1.00,0.00)(0.00,1.00)) t=(0.00,50.00)}]
            RenderSVGText {text} at (0,-5) size 28x10 contains 1 chunk(s)
              RenderSVGInlineText {#text} at (0,-8) size 28x10
                chunk 1 text run 1 at (0.00,-5.00) startOffset 0 endOffset 5 width 28.00: "*YMax"
            RenderPath {rect} at (300,265) size 50x30 [stroke={[type=SOLID] [color=#0000FF]}] [data="M0.50,0.50 L49.50,0.50 L49.50,29.50 L0.50,29.50"]
            RenderSVGViewportContainer {svg} at (300,228.33) size 50x66.67
              RenderPath {rect} at (300,228.33) size 50x66.67 [stroke={[type=SOLID] [color=#FF0000]}] [fill={[type=SOLID] [color=#000000]}] [data="M0.50,0.50 L29.50,0.50 L29.50,39.50 L0.50,39.50"]
              RenderSVGContainer {g} at (308.33,245) size 33.33x33.33 [transform={m=((1.00,0.00)(0.00,1.00)) t=(0.00,5.00)}]
                RenderPath {circle} at (308.33,245) size 33.33x33.33 [fill={[type=SOLID] [color=#FFFF00]}] [data="M25.00,15.00 L24.98,15.63 L24.92,16.25 L24.82,16.87 L24.69,17.49 L24.51,18.09 L24.30,18.68 L24.05,19.26 L23.76,19.82 L23.44,20.36 L23.09,20.88 L22.71,21.37 L22.29,21.85 L21.85,22.29 L21.37,22.71 L20.88,23.09 L20.36,23.44 L19.82,23.76 L19.26,24.05 L18.68,24.30 L18.09,24.51 L17.49,24.69 L16.87,24.82 L16.25,24.92 L15.63,24.98 L15.00,25.00 L14.37,24.98 L13.75,24.92 L13.13,24.82 L12.51,24.69 L11.91,24.51 L11.32,24.30 L10.74,24.05 L10.18,23.76 L9.64,23.44 L9.12,23.09 L8.63,22.71 L8.15,22.29 L7.71,21.85 L7.29,21.37 L6.91,20.88 L6.56,20.36 L6.24,19.82 L5.95,19.26 L5.70,18.68 L5.49,18.09 L5.31,17.49 L5.18,16.87 L5.08,16.25 L5.02,15.63 L5.00,15.00 L5.02,14.37 L5.08,13.75 L5.18,13.13 L5.31,12.51 L5.49,11.91 L5.70,11.32 L5.95,10.74 L6.24,10.18 L6.56,9.64 L6.91,9.12 L7.29,8.63 L7.71,8.15 L8.15,7.71 L8.63,7.29 L9.12,6.91 L9.64,6.56 L10.18,6.24 L10.74,5.95 L11.32,5.70 L11.91,5.49 L12.51,5.31 L13.13,5.18 L13.75,5.08 L14.37,5.02 L15.00,5.00 L15.63,5.02 L16.25,5.08 L16.87,5.18 L17.49,5.31 L18.09,5.49 L18.68,5.70 L19.26,5.95 L19.82,6.24 L20.36,6.56 L20.88,6.91 L21.37,7.29 L21.85,7.71 L22.29,8.15 L22.71,8.63 L23.09,9.12 L23.44,9.64 L23.76,10.18 L24.05,10.74 L24.30,11.32 L24.51,11.91 L24.69,12.51 L24.82,13.13 L24.92,13.75 L24.98,14.37"]
                RenderPath {circle} at (317.50,254.17) size 5x5 [fill={[type=SOLID] [color=#000000]}] [data="M13.50,12.00 L13.50,12.09 L13.49,12.19 L13.47,12.28 L13.45,12.37 L13.43,12.46 L13.39,12.55 L13.36,12.64 L13.31,12.72 L13.27,12.80 L13.21,12.88 L13.16,12.96 L13.09,13.03 L13.03,13.09 L12.96,13.16 L12.88,13.21 L12.80,13.27 L12.72,13.31 L12.64,13.36 L12.55,13.39 L12.46,13.43 L12.37,13.45 L12.28,13.47 L12.19,13.49 L12.09,13.50 L12.00,13.50 L11.91,13.50 L11.81,13.49 L11.72,13.47 L11.63,13.45 L11.54,13.43 L11.45,13.39 L11.36,13.36 L11.28,13.31 L11.20,13.27 L11.12,13.21 L11.04,13.16 L10.97,13.09 L10.91,13.03 L10.84,12.96 L10.79,12.88 L10.73,12.80 L10.69,12.72 L10.64,12.64 L10.61,12.55 L10.57,12.46 L10.55,12.37 L10.53,12.28 L10.51,12.19 L10.50,12.09 L10.50,12.00 L10.50,11.91 L10.51,11.81 L10.53,11.72 L10.55,11.63 L10.57,11.54 L10.61,11.45 L10.64,11.36 L10.69,11.28 L10.73,11.20 L10.79,11.12 L10.84,11.04 L10.91,10.97 L10.97,10.91 L11.04,10.84 L11.12,10.79 L11.20,10.73 L11.28,10.69 L11.36,10.64 L11.45,10.61 L11.54,10.57 L11.63,10.55 L11.72,10.53 L11.81,10.51 L11.91,10.50 L12.00,10.50 L12.09,10.50 L12.19,10.51 L12.28,10.53 L12.37,10.55 L12.46,10.57 L12.55,10.61 L12.64,10.64 L12.72,10.69 L12.80,10.73 L12.88,10.79 L12.96,10.84 L13.03,10.91 L13.09,10.97 L13.16,11.04 L13.21,11.12 L13.27,11.20 L13.31,11.28 L13.36,11.36 L13.39,11.45 L13.43,11.54 L13.45,11.63 L13.47,11.72 L13.49,11.81 L13.50,11.91"]
                RenderPath {circle} at (325.83,254.17) size 5x5 [fill={[type=SOLID] [color=#000000]}] [data="M18.50,12.00 L18.50,12.09 L18.49,12.19 L18.47,12.28 L18.45,12.37 L18.43,12.46 L18.39,12.55 L18.36,12.64 L18.31,12.72 L18.27,12.80 L18.21,12.88 L18.16,12.96 L18.09,13.03 L18.03,13.09 L17.96,13.16 L17.88,13.21 L17.80,13.27 L17.72,13.31 L17.64,13.36 L17.55,13.39 L17.46,13.43 L17.37,13.45 L17.28,13.47 L17.19,13.49 L17.09,13.50 L17.00,13.50 L16.91,13.50 L16.81,13.49 L16.72,13.47 L16.63,13.45 L16.54,13.43 L16.45,13.39 L16.36,13.36 L16.28,13.31 L16.20,13.27 L16.12,13.21 L16.04,13.16 L15.97,13.09 L15.91,13.03 L15.84,12.96 L15.79,12.88 L15.73,12.80 L15.69,12.72 L15.64,12.64 L15.61,12.55 L15.57,12.46 L15.55,12.37 L15.53,12.28 L15.51,12.19 L15.50,12.09 L15.50,12.00 L15.50,11.91 L15.51,11.81 L15.53,11.72 L15.55,11.63 L15.57,11.54 L15.61,11.45 L15.64,11.36 L15.69,11.28 L15.73,11.20 L15.79,11.12 L15.84,11.04 L15.91,10.97 L15.97,10.91 L16.04,10.84 L16.12,10.79 L16.20,10.73 L16.28,10.69 L16.36,10.64 L16.45,10.61 L16.54,10.57 L16.63,10.55 L16.72,10.53 L16.81,10.51 L16.91,10.50 L17.00,10.50 L17.09,10.50 L17.19,10.51 L17.28,10.53 L17.37,10.55 L17.46,10.57 L17.55,10.61 L17.64,10.64 L17.72,10.69 L17.80,10.73 L17.88,10.79 L17.96,10.84 L18.03,10.91 L18.09,10.97 L18.16,11.04 L18.21,11.12 L18.27,11.20 L18.31,11.28 L18.36,11.36 L18.39,11.45 L18.43,11.54 L18.45,11.63 L18.47,11.72 L18.49,11.81 L18.50,11.91"]
                RenderPath {path} at (315.63,267.03) size 18.75x10.10 [stroke={[type=SOLID] [color=#000000] [stroke width=2.00]}] [fill={[type=SOLID] [color=#000000]}] [data="M10.00,19.00 L15.00,23.00 L20.00,19.00"]
    RenderSVGText {text} at (10,340) size 264x46 contains 1 chunk(s)
      RenderSVGInlineText {#text} at (0,-36) size 264x46
        chunk 1 text run 1 at (10.00,340.00) startOffset 0 endOffset 16 width 264.00: "$Revision: 1.6 $"
    RenderPath {rect} at (0.50,0.50) size 479x359 [stroke={[type=SOLID] [color=#000000]}] [data="M1.00,1.00 L479.00,1.00 L479.00,359.00 L1.00,359.00"]
