layer at (0,0) size 480x360
  RenderView at (0,0) size 480x360
layer at (0,0) size 480x360
  RenderSVGRoot {svg} at (0.50,0.50) size 479x359
    RenderSVGContainer {g} at (65,16) size 350x259.39
      RenderSVGContainer {g} at (65,16) size 350x17
        RenderSVGHiddenContainer {defs} at (0,0) size 0x0
        RenderSVGText {text} at (65,30) size 350x17 contains 1 chunk(s)
          RenderSVGInlineText {#text} at (0,-14) size 350x17
            chunk 1 (middle anchor) text run 1 at (65.50,30.00) startOffset 0 endOffset 51 width 349.00: "Pie chart built from data in a different namespace."
      RenderSVGContainer {g} at (126.05,61.42) size 242.55x213.97
        RenderPath {path} at (263.86,76.89) size 104.74x81.61 [transform={m=((1.00,0.00)(0.00,1.00)) t=(27.00,-13.00)}] [stroke={[type=SOLID] [color=#0000FF] [stroke width=3.00]}] [fill={[type=SOLID] [color=#FF8888]}] [data="M240.00,170.00 L340.00,170.00 C340.10,139.74,326.50,111.06,303.00,92.00"]
        RenderSVGText {text} at (285,142) size 28x16 contains 1 chunk(s)
          RenderSVGInlineText {#text} at (0,-13) size 28x16
            chunk 1 (middle anchor) text run 1 at (285.00,142.00) startOffset 0 endOffset 4 width 28.00: "East"
        RenderPath {path} at (190.64,61.42) size 113.76x110.37 [stroke={[type=SOLID] [color=#000000] [stroke width=2.00]}] [fill={[type=SOLID] [color=#6D6D6D]}] [data="M240.00,170.00 L303.00,92.00 C271.46,66.45,227.60,62.50,192.00,82.00"]
        RenderSVGText {text} at (228,105) size 36x16 contains 1 chunk(s)
          RenderSVGInlineText {#text} at (0,-13) size 36x16
            chunk 1 (middle anchor) text run 1 at (228.50,105.00) startOffset 0 endOffset 5 width 35.00: "North"
        RenderPath {path} at (126.05,80.65) size 115.35x130.67 [stroke={[type=SOLID] [color=#000000] [stroke width=2.00]}] [fill={[type=SOLID] [color=#929292]}] [data="M240.00,170.00 L192.00,82.00 C146.30,106.75,127.18,162.38,148.00,210.00"]
        RenderSVGText {text} at (162,149) size 32x16 contains 1 chunk(s)
          RenderSVGInlineText {#text} at (0,-13) size 32x16
            chunk 1 (middle anchor) text run 1 at (162.00,149.00) startOffset 0 endOffset 4 width 32.00: "West"
        RenderPath {path} at (146.68,168.31) size 94.70x100.88 [stroke={[type=SOLID] [color=#000000] [stroke width=2.00]}] [fill={[type=SOLID] [color=#B6B6B6]}] [data="M240.00,170.00 L148.00,210.00 C160.89,239.68,187.34,261.29,219.00,268.00"]
        RenderSVGText {text} at (176,220) size 46x16 contains 1 chunk(s)
          RenderSVGInlineText {#text} at (0,-13) size 46x16
            chunk 1 (middle anchor) text run 1 at (176.00,220.00) startOffset 0 endOffset 7 width 46.00: "Central"
        RenderPath {path} at (217.81,169) size 123.26x106.39 [stroke={[type=SOLID] [color=#000000] [stroke width=2.00]}] [fill={[type=SOLID] [color=#DBDBDB]}] [data="M240.00,170.00 L219.00,268.00 C248.57,274.35,279.43,266.98,302.94,247.94 C326.44,228.90,340.07,200.25,340.00,170.00"]
        RenderSVGText {text} at (262,220) size 38x16 contains 1 chunk(s)
          RenderSVGInlineText {#text} at (0,-13) size 38x16
            chunk 1 (middle anchor) text run 1 at (262.50,220.00) startOffset 0 endOffset 5 width 37.00: "South"
    RenderSVGText {text} at (10,340) size 264x46 contains 1 chunk(s)
      RenderSVGInlineText {#text} at (0,-36) size 264x46
        chunk 1 text run 1 at (10.00,340.00) startOffset 0 endOffset 16 width 264.00: "$Revision: 1.3 $"
    RenderPath {rect} at (0.50,0.50) size 479x359 [stroke={[type=SOLID] [color=#000000]}] [data="M1.00,1.00 L479.00,1.00 L479.00,359.00 L1.00,359.00"]
