layer at (0,0) size 480x360
  RenderView at (0,0) size 480x360
layer at (0,0) size 480x360
  RenderSVGRoot {svg} at (0.50,0.50) size 479x359
    RenderSVGContainer {g} at (30,46) size 417x180
      RenderSVGContainer {g} at (30,46) size 417x180 [transform={m=((1.00,0.00)(0.00,1.00)) t=(20.00,40.00)}]
        RenderSVGHiddenContainer {defs} at (0,0) size 0x0
        RenderSVGContainer {g} at (30,46) size 417x180
          RenderSVGText {text} at (10,20) size 66x18 contains 1 chunk(s)
            RenderSVGInlineText {#text} at (0,-14) size 66x18
              chunk 1 text run 1 at (10.00,20.00) startOffset 0 endOffset 10 width 66.00: "Blur (3x3)"
          RenderSVGContainer {g} at (30,70) size 50x63
            RenderImage {image} at (0,0) size 50x63
          RenderSVGText {text} at (10,20) size 136x18 contains 1 chunk(s)
            RenderSVGInlineText {#text} at (0,-14) size 136x18
              chunk 1 text run 1 at (10.00,20.00) startOffset 0 endOffset 20 width 136.00: "Edge Detection (3x3)"
          RenderSVGContainer {g} at (180,70) size 50x63 [transform={m=((1.00,0.00)(0.00,1.00)) t=(150.00,0.00)}]
            RenderImage {image} at (0,0) size 50x63
          RenderSVGText {text} at (10,20) size 110x18 contains 1 chunk(s)
            RenderSVGInlineText {#text} at (0,-14) size 110x18
              chunk 1 text run 1 at (10.00,20.00) startOffset 0 endOffset 16 width 110.00: "Sharpening (3x3)"
          RenderSVGContainer {g} at (330,70) size 50x63 [transform={m=((1.00,0.00)(0.00,1.00)) t=(300.00,0.00)}]
            RenderImage {image} at (0,0) size 50x63
          RenderSVGText {text} at (10,20) size 108x18 contains 1 chunk(s)
            RenderSVGInlineText {#text} at (0,-14) size 108x18
              chunk 1 text run 1 at (10.00,20.00) startOffset 0 endOffset 15 width 108.00: "Embossing (3x3)"
          RenderSVGContainer {g} at (30,163) size 50x63 [transform={m=((1.00,0.00)(0.00,1.00)) t=(0.00,93.00)}]
            RenderImage {image} at (0,0) size 50x63
          RenderSVGText {text} at (10,20) size 134x18 contains 1 chunk(s)
            RenderSVGInlineText {#text} at (0,-14) size 134x18
              chunk 1 text run 1 at (10.00,20.00) startOffset 0 endOffset 21 width 134.00: "Horizontal blur (3x1)"
          RenderSVGContainer {g} at (180,163) size 50x63 [transform={m=((1.00,0.00)(0.00,1.00)) t=(150.00,93.00)}]
            RenderImage {image} at (0,0) size 50x63
          RenderSVGText {text} at (10,20) size 117x18 contains 1 chunk(s)
            RenderSVGInlineText {#text} at (0,-14) size 117x18
              chunk 1 text run 1 at (10.00,20.00) startOffset 0 endOffset 19 width 117.00: "Vertical blur (1x3)"
          RenderSVGContainer {g} at (330,163) size 50x63 [transform={m=((1.00,0.00)(0.00,1.00)) t=(300.00,93.00)}]
            RenderImage {image} at (0,0) size 50x63
    RenderSVGText {text} at (10,340) size 264x46 contains 1 chunk(s)
      RenderSVGInlineText {#text} at (0,-36) size 264x46
        chunk 1 text run 1 at (10.00,340.00) startOffset 0 endOffset 16 width 264.00: "$Revision: 1.5 $"
    RenderPath {rect} at (0.50,0.50) size 479x359 [stroke={[type=SOLID] [color=#000000]}] [data="M1.00,1.00 L479.00,1.00 L479.00,359.00 L1.00,359.00"]
