layer at (0,0) size 480x360
  RenderView at (0,0) size 480x360
layer at (0,0) size 480x360
  RenderSVGRoot {svg} at (0.50,0.50) size 479x359
    RenderSVGContainer {g} at (95.67,54.01) size 324.50x215.98
      RenderSVGContainer {g} at (95.67,54.01) size 324.50x215.98 [transform={m=((1.20,0.00)(0.00,1.20)) t=(72.00,36.00)}]
        RenderPath {path} at (95.67,54.01) size 324.50x35.98 [stroke={[type=SOLID] [color=#000000] [stroke width=10.00] [miter limit=20.00]}] [data="M20.00,20.00 L200.00,30.00 L20.00,40.00"]
        RenderPath {path} at (95.67,90.01) size 324.50x35.98 [stroke={[type=SOLID] [color=#000000] [stroke width=10.00] [miter limit=18.10]}] [data="M20.00,50.00 L200.00,60.00 L20.00,70.00"]
        RenderPath {path} at (95.67,126.01) size 216.67x35.98 [stroke={[type=SOLID] [color=#000000] [stroke width=10.00] [miter limit=17.90]}] [data="M20.00,80.00 L200.00,90.00 L20.00,100.00"]
        RenderPath {path} at (95.67,162.01) size 216.67x35.98 [stroke={[type=SOLID] [color=#000000] [stroke width=10.00] [miter limit=17.00]}] [data="M20.00,110.00 L200.00,120.00 L20.00,130.00"]
        RenderPath {path} at (95.67,198.01) size 216.67x35.98 [stroke={[type=SOLID] [color=#000000] [stroke width=10.00]}] [data="M20.00,140.00 L200.00,150.00 L20.00,160.00"]
        RenderPath {path} at (95.67,234.01) size 216.67x35.98 [stroke={[type=SOLID] [color=#000000] [stroke width=10.00] [miter limit=1.00]}] [data="M20.00,170.00 L200.00,180.00 L20.00,190.00"]
    RenderSVGText {text} at (10,340) size 264x46 contains 1 chunk(s)
      RenderSVGInlineText {#text} at (0,-36) size 264x46
        chunk 1 text run 1 at (10.00,340.00) startOffset 0 endOffset 16 width 264.00: "$Revision: 1.4 $"
    RenderPath {rect} at (0.50,0.50) size 479x359 [stroke={[type=SOLID] [color=#000000]}] [data="M1.00,1.00 L479.00,1.00 L479.00,359.00 L1.00,359.00"]
