layer at (0,0) size 480x360
  RenderView at (0,0) size 480x360
layer at (0,0) size 480x360
  RenderSVGRoot {svg} at (0.50,0.50) size 483.50x359
    RenderSVGContainer {g} at (10,27) size 474x239
      RenderSVGText {text} at (10,60) size 474x41 contains 1 chunk(s)
        RenderSVGInlineText {#text} at (0,-33) size 474x41
          chunk 1 text run 1 at (10.00,60.00) startOffset 0 endOffset 31 width 474.00: "Basic paint: stroke properties."
      RenderPath {path} at (50,107.50) size 370x25 [stroke={[type=SOLID] [color=#FF0000] [stroke width=25.00] [dash array={10.00, 10.00}]}] [data="M50.00,120.00 L430.00,120.00"]
      RenderPath {path} at (60,127.50) size 370x25 [stroke={[type=SOLID] [color=#000000] [stroke width=25.00] [dash offset=10.00] [dash array={10.00, 10.00}]}] [data="M50.00,140.00 L430.00,140.00"]
      RenderSVGText {text} at (65,210) size 351x33 contains 1 chunk(s)
        RenderSVGInlineText {#text} at (0,-27) size 351x33
          chunk 1 text run 1 at (65.00,210.00) startOffset 0 endOffset 25 width 351.00: "stroke-dasharray=\"10, 10\""
      RenderSVGText {text} at (75,260) size 305x33 contains 1 chunk(s)
        RenderSVGInlineText {#text} at (0,-27) size 305x33
          chunk 1 text run 1 at (75.00,260.00) startOffset 0 endOffset 22 width 305.00: "stroke-dashoffset=\"10\""
    RenderSVGText {text} at (10,340) size 284x46 contains 1 chunk(s)
      RenderSVGInlineText {#text} at (0,-36) size 284x46
        chunk 1 text run 1 at (10.00,340.00) startOffset 0 endOffset 17 width 284.00: "$Revision: 1.10 $"
    RenderPath {rect} at (0.50,0.50) size 479x359 [stroke={[type=SOLID] [color=#000000]}] [data="M1.00,1.00 L479.00,1.00 L479.00,359.00 L1.00,359.00"]
