KCanvasResource {id="marker1" [type=MARKER] [angle=0.00] [ref x=5.00 y=5.00]}
KCanvasResource {id="marker2" [type=MARKER] [angle=auto] [ref x=5.00 y=5.00]}
KCanvasResource {id="markerStart" [type=MARKER] [angle=0.00] [ref x=5.00 y=5.00]}
KCanvasResource {id="markerMiddle" [type=MARKER] [angle=0.00] [ref x=5.00 y=5.00]}
KCanvasResource {id="markerEnd" [type=MARKER] [angle=0.00] [ref x=5.00 y=5.00]}
layer at (0,0) size 480x360
  RenderView at (0,0) size 480x360
layer at (0,0) size 480x360
  RenderSVGRoot {svg} at (0,0) size 479.50x359.50
    RenderSVGContainer {g} at (0,0) size 311.31x288
      RenderSVGViewportContainer {marker} at (0,0) size 2x2
        RenderPath {rect} at (0,0) size 2x2 [fill={[type=SOLID] [color=#FF0000]}] [data="M0.00,0.00 L10.00,0.00 L10.00,10.00 L0.00,10.00"]
      RenderSVGViewportContainer {marker} at (0,0) size 2x2
        RenderPath {path} at (0,0) size 2x2 [fill={[type=SOLID] [color=#0000FF]}] [data="M5.00,0.00 L10.00,10.00 L0.00,10.00"]
      RenderSVGViewportContainer {marker} at (0,0) size 2x2
        RenderPath {rect} at (0,0) size 2x2 [fill={[type=SOLID] [color=#FF0000]}] [data="M0.00,0.00 L10.00,0.00 L10.00,10.00 L0.00,10.00"]
      RenderSVGViewportContainer {marker} at (0,0) size 2x2
        RenderPath {circle} at (0,0) size 2x2 [fill={[type=SOLID] [color=#008000]}] [data="M10.00,5.00 L9.99,5.31 L9.96,5.63 L9.91,5.94 L9.84,6.24 L9.76,6.55 L9.65,6.84 L9.52,7.13 L9.38,7.41 L9.22,7.68 L9.05,7.94 L8.85,8.19 L8.64,8.42 L8.42,8.64 L8.19,8.85 L7.94,9.05 L7.68,9.22 L7.41,9.38 L7.13,9.52 L6.84,9.65 L6.55,9.76 L6.24,9.84 L5.94,9.91 L5.63,9.96 L5.31,9.99 L5.00,10.00 L4.69,9.99 L4.37,9.96 L4.06,9.91 L3.76,9.84 L3.45,9.76 L3.16,9.65 L2.87,9.52 L2.59,9.38 L2.32,9.22 L2.06,9.05 L1.81,8.85 L1.58,8.64 L1.36,8.42 L1.15,8.19 L0.95,7.94 L0.78,7.68 L0.62,7.41 L0.48,7.13 L0.35,6.84 L0.24,6.55 L0.16,6.24 L0.09,5.94 L0.04,5.63 L0.01,5.31 L0.00,5.00 L0.01,4.69 L0.04,4.37 L0.09,4.06 L0.16,3.76 L0.24,3.45 L0.35,3.16 L0.48,2.87 L0.62,2.59 L0.78,2.32 L0.95,2.06 L1.15,1.81 L1.36,1.58 L1.58,1.36 L1.81,1.15 L2.06,0.95 L2.32,0.78 L2.59,0.62 L2.87,0.48 L3.16,0.35 L3.45,0.24 L3.76,0.16 L4.06,0.09 L4.37,0.04 L4.69,0.01 L5.00,0.00 L5.31,0.01 L5.63,0.04 L5.94,0.09 L6.24,0.16 L6.55,0.24 L6.84,0.35 L7.13,0.48 L7.41,0.62 L7.68,0.78 L7.94,0.95 L8.19,1.15 L8.42,1.36 L8.64,1.58 L8.85,1.81 L9.05,2.06 L9.22,2.32 L9.38,2.59 L9.52,2.87 L9.65,3.16 L9.76,3.45 L9.84,3.76 L9.91,4.06 L9.96,4.37 L9.99,4.69"]
      RenderSVGViewportContainer {marker} at (0,0) size 2x2
        RenderPath {path} at (0,0) size 2x2 [fill={[type=SOLID] [color=#0000FF]}] [data="M5.00,0.00 L10.00,10.00 L0.00,10.00"]
      RenderSVGText {text} at (170,30) size 90x16 contains 1 chunk(s)
        RenderSVGInlineText {#text} at (0,-13) size 90x16
          chunk 1 text run 1 at (170.00,30.00) startOffset 0 endOffset 13 width 90.00: "Basic Markers"
      RenderPath {path} at (130,36) size 54x54 [stroke={[type=SOLID] [color=#000000] [stroke width=8.00]}] [start marker=marker1] [middle marker=marker1] [end marker=marker1] [data="M130.00,40.00 L180.00,40.00 L180.00,90.00"]
      RenderSVGContainer {g} at (242,32) size 66x66 [transform={m=((1.00,0.00)(0.00,1.00)) t=(120.00,0.00)}]
        RenderPath {path} at (250,36) size 54x54 [stroke={[type=SOLID] [color=#000000] [stroke width=8.00]}] [data="M130.00,40.00 L180.00,40.00 L180.00,90.00"]
        RenderSVGContainer {g} at (242,32) size 16x16 [transform={m=((1.60,0.00)(0.00,1.60)) t=(122.00,32.00)}]
          RenderPath {rect} at (242,32) size 16x16 [fill={[type=SOLID] [color=#FF0000]}] [data="M0.00,0.00 L10.00,0.00 L10.00,10.00 L0.00,10.00"]
        RenderSVGContainer {g} at (292,32) size 16x16 [transform={m=((1.60,0.00)(0.00,1.60)) t=(172.00,32.00)}]
          RenderPath {rect} at (292,32) size 16x16 [fill={[type=SOLID] [color=#FF0000]}] [data="M0.00,0.00 L10.00,0.00 L10.00,10.00 L0.00,10.00"]
        RenderSVGContainer {g} at (292,82) size 16x16 [transform={m=((1.60,0.00)(0.00,1.60)) t=(172.00,82.00)}]
          RenderPath {rect} at (292,82) size 16x16 [fill={[type=SOLID] [color=#FF0000]}] [data="M0.00,0.00 L10.00,0.00 L10.00,10.00 L0.00,10.00"]
      RenderSVGText {text} at (145,125) size 137x16 contains 1 chunk(s)
        RenderSVGInlineText {#text} at (0,-13) size 137x16
          chunk 1 text run 1 at (145.00,125.00) startOffset 0 endOffset 21 width 137.00: "Start, Middle and End"
      RenderPath {path} at (130,131) size 54x54 [stroke={[type=SOLID] [color=#000000] [stroke width=8.00]}] [start marker=markerStart] [middle marker=markerMiddle] [end marker=markerEnd] [data="M130.00,135.00 L180.00,135.00 L180.00,185.00"]
      RenderSVGContainer {g} at (242,127) size 66x66 [transform={m=((1.00,0.00)(0.00,1.00)) t=(120.00,0.00)}]
        RenderPath {path} at (250,131) size 54x54 [stroke={[type=SOLID] [color=#000000] [stroke width=8.00]}] [data="M130.00,135.00 L180.00,135.00 L180.00,185.00"]
        RenderSVGContainer {g} at (242,127) size 16x16 [transform={m=((1.60,0.00)(0.00,1.60)) t=(122.00,127.00)}]
          RenderPath {rect} at (242,127) size 16x16 [fill={[type=SOLID] [color=#FF0000]}] [data="M0.00,0.00 L10.00,0.00 L10.00,10.00 L0.00,10.00"]
        RenderSVGContainer {g} at (292,127) size 16x16 [transform={m=((1.60,0.00)(0.00,1.60)) t=(172.00,127.00)}]
          RenderPath {circle} at (292,127) size 16x16 [fill={[type=SOLID] [color=#008000]}] [data="M10.00,5.00 L9.99,5.31 L9.96,5.63 L9.91,5.94 L9.84,6.24 L9.76,6.55 L9.65,6.84 L9.52,7.13 L9.38,7.41 L9.22,7.68 L9.05,7.94 L8.85,8.19 L8.64,8.42 L8.42,8.64 L8.19,8.85 L7.94,9.05 L7.68,9.22 L7.41,9.38 L7.13,9.52 L6.84,9.65 L6.55,9.76 L6.24,9.84 L5.94,9.91 L5.63,9.96 L5.31,9.99 L5.00,10.00 L4.69,9.99 L4.37,9.96 L4.06,9.91 L3.76,9.84 L3.45,9.76 L3.16,9.65 L2.87,9.52 L2.59,9.38 L2.32,9.22 L2.06,9.05 L1.81,8.85 L1.58,8.64 L1.36,8.42 L1.15,8.19 L0.95,7.94 L0.78,7.68 L0.62,7.41 L0.48,7.13 L0.35,6.84 L0.24,6.55 L0.16,6.24 L0.09,5.94 L0.04,5.63 L0.01,5.31 L0.00,5.00 L0.01,4.69 L0.04,4.37 L0.09,4.06 L0.16,3.76 L0.24,3.45 L0.35,3.16 L0.48,2.87 L0.62,2.59 L0.78,2.32 L0.95,2.06 L1.15,1.81 L1.36,1.58 L1.58,1.36 L1.81,1.15 L2.06,0.95 L2.32,0.78 L2.59,0.62 L2.87,0.48 L3.16,0.35 L3.45,0.24 L3.76,0.16 L4.06,0.09 L4.37,0.04 L4.69,0.01 L5.00,0.00 L5.31,0.01 L5.63,0.04 L5.94,0.09 L6.24,0.16 L6.55,0.24 L6.84,0.35 L7.13,0.48 L7.41,0.62 L7.68,0.78 L7.94,0.95 L8.19,1.15 L8.42,1.36 L8.64,1.58 L8.85,1.81 L9.05,2.06 L9.22,2.32 L9.38,2.59 L9.52,2.87 L9.65,3.16 L9.76,3.45 L9.84,3.76 L9.91,4.06 L9.96,4.37 L9.99,4.69"]
        RenderSVGContainer {g} at (292,177) size 16x16 [transform={m=((1.60,0.00)(0.00,1.60)) t=(172.00,177.00)}]
          RenderPath {path} at (292,177) size 16x16 [fill={[type=SOLID] [color=#0000FF]}] [data="M5.00,0.00 L10.00,10.00 L0.00,10.00"]
      RenderSVGText {text} at (145,220) size 137x16 contains 1 chunk(s)
        RenderSVGInlineText {#text} at (0,-13) size 137x16
          chunk 1 text run 1 at (145.00,220.00) startOffset 0 endOffset 21 width 137.00: "Automatic Orientation"
      RenderPath {path} at (130,226) size 54x54 [stroke={[type=SOLID] [color=#000000] [stroke width=8.00]}] [start marker=marker2] [middle marker=marker2] [end marker=marker2] [data="M130.00,230.00 L180.00,230.00 L180.00,280.00"]
      RenderSVGContainer {g} at (242,218.69) size 69.31x69.31 [transform={m=((1.00,0.00)(0.00,1.00)) t=(120.00,0.00)}]
        RenderPath {path} at (250,226) size 54x54 [stroke={[type=SOLID] [color=#000000] [stroke width=8.00]}] [data="M130.00,230.00 L180.00,230.00 L180.00,280.00"]
        RenderSVGContainer {g} at (242,222) size 16x16 [transform={m=((1.60,0.00)(0.00,1.60)) t=(122.00,222.00)}]
          RenderPath {path} at (242,222) size 16x16 [fill={[type=SOLID] [color=#0000FF]}] [data="M5.00,0.00 L10.00,10.00 L0.00,10.00"]
        RenderSVGContainer {g} at (288.69,218.69) size 22.63x22.63 [transform={m=((1.13,1.13)(-1.13,1.13)) t=(180.00,218.69)}]
          RenderPath {path} at (288.69,218.69) size 22.63x22.63 [fill={[type=SOLID] [color=#0000FF]}] [data="M5.00,0.00 L10.00,10.00 L0.00,10.00"]
        RenderSVGContainer {g} at (292,272) size 16x16 [transform={m=((-0.00,1.60)(-1.60,-0.00)) t=(188.00,272.00)}]
          RenderPath {path} at (292,272) size 16x16 [fill={[type=SOLID] [color=#0000FF]}] [data="M5.00,0.00 L10.00,10.00 L0.00,10.00"]
    RenderSVGText {text} at (10,340) size 264x46 contains 1 chunk(s)
      RenderSVGInlineText {#text} at (0,-36) size 264x46
        chunk 1 text run 1 at (10.00,340.00) startOffset 0 endOffset 16 width 264.00: "$Revision: 1.8 $"
    RenderPath {rect} at (0.50,0.50) size 479x359 [stroke={[type=SOLID] [color=#000000]}] [data="M1.00,1.00 L479.00,1.00 L479.00,359.00 L1.00,359.00"]
