layer at (0,0) size 480x360
  RenderView at (0,0) size 480x360
layer at (0,0) size 480x360
  RenderSVGRoot {svg} at (0.50,0.50) size 479x359
    RenderSVGContainer {g} at (3,3) size 452.44x340
      RenderSVGText {text} at (100,14) size 236x14 contains 1 chunk(s)
        RenderSVGInlineText {#text} at (0,-11) size 236x14
          chunk 1 text run 1 at (100.00,14.00) startOffset 0 endOffset 40 width 236.00: "Cubic bezier curves drawn with commands:"
      RenderPath {path} at (10,24.50) size 200x106 [stroke={[type=SOLID] [color=#00C000]}] [fill={[type=SOLID] [color=#FF0000]}] [data="M210.00,130.00 C145.00,130.00,110.00,80.00,110.00,80.00 C110.00,80.00,75.00,25.00,10.00,25.00 M10.00,130.00 C75.00,130.00,110.00,80.00,110.00,80.00 C110.00,80.00,145.00,25.00,210.00,25.00"]
      RenderPath {rect} at (208,128) size 4x4 [fill={[type=SOLID] [color=#4A83FF]}] [data="M208.00,128.00 L212.00,128.00 L212.00,132.00 L208.00,132.00"]
      RenderPath {rect} at (108,78) size 4x4 [fill={[type=SOLID] [color=#4A83FF]}] [data="M108.00,78.00 L112.00,78.00 L112.00,82.00 L108.00,82.00"]
      RenderPath {rect} at (8,23) size 4x4 [fill={[type=SOLID] [color=#4A83FF]}] [data="M8.00,23.00 L12.00,23.00 L12.00,27.00 L8.00,27.00"]
      RenderPath {rect} at (8,128) size 4x4 [fill={[type=SOLID] [color=#4A83FF]}] [data="M8.00,128.00 L12.00,128.00 L12.00,132.00 L8.00,132.00"]
      RenderPath {rect} at (108,78) size 4x4 [fill={[type=SOLID] [color=#4A83FF]}] [data="M108.00,78.00 L112.00,78.00 L112.00,82.00 L108.00,82.00"]
      RenderPath {rect} at (208,23) size 4x4 [fill={[type=SOLID] [color=#4A83FF]}] [data="M208.00,23.00 L212.00,23.00 L212.00,27.00 L208.00,27.00"]
      RenderSVGText {text} at (5,82) size 79x14 contains 1 chunk(s)
        RenderSVGInlineText {#text} at (0,-11) size 79x14
          chunk 1 text run 1 at (5.00,82.00) startOffset 0 endOffset 16 width 79.00: "M, C, S, m, c, s"
      RenderPath {path} at (239.50,56.72) size 101x66.56 [stroke={[type=SOLID] [color=#000000]}] [data="M240.00,90.00 C240.00,120.00,247.00,140.00,290.00,90.00 C333.00,40.00,340.00,60.00,340.00,90.00 C340.00,173.00,272.00,56.00,250.00,60.00 C240.00,60.00,240.00,90.00,240.00,90.00"]
      RenderPath {rect} at (238,88) size 4x4 [fill={[type=SOLID] [color=#4A83FF]}] [data="M238.00,88.00 L242.00,88.00 L242.00,92.00 L238.00,92.00"]
      RenderPath {rect} at (288,88) size 4x4 [fill={[type=SOLID] [color=#4A83FF]}] [data="M288.00,88.00 L292.00,88.00 L292.00,92.00 L288.00,92.00"]
      RenderPath {rect} at (338,88) size 4x4 [fill={[type=SOLID] [color=#4A83FF]}] [data="M338.00,88.00 L342.00,88.00 L342.00,92.00 L338.00,92.00"]
      RenderPath {rect} at (248,58) size 4x4 [fill={[type=SOLID] [color=#4A83FF]}] [data="M248.00,58.00 L252.00,58.00 L252.00,62.00 L248.00,62.00"]
      RenderSVGText {text} at (253,50) size 73x14 contains 1 chunk(s)
        RenderSVGInlineText {#text} at (0,-11) size 73x14
          chunk 1 text run 1 at (253.00,50.00) startOffset 0 endOffset 16 width 73.00: "M, c, c, c, C, z"
      RenderPath {path} at (80,169.50) size 100x1 [stroke={[type=SOLID] [color=#000000]}] [data="M80.00,170.00 C100.00,170.00,160.00,170.00,180.00,170.00"]
      RenderPath {rect} at (78,168) size 4x4 [fill={[type=SOLID] [color=#4A83FF]}] [data="M78.00,168.00 L82.00,168.00 L82.00,172.00 L78.00,172.00"]
      RenderPath {rect} at (178,168) size 4x4 [fill={[type=SOLID] [color=#4A83FF]}] [data="M178.00,168.00 L182.00,168.00 L182.00,172.00 L178.00,172.00"]
      RenderSVGText {text} at (110,190) size 38x14 contains 1 chunk(s)
        RenderSVGInlineText {#text} at (0,-11) size 38x14
          chunk 1 text run 1 at (110.00,190.00) startOffset 0 endOffset 7 width 38.00: "M, C, Z"
      RenderPath {path} at (5,160) size 100x100 [fill={[type=SOLID] [color=#00C000]}] [data="M5.00,260.00 C40.00,260.00,60.00,175.00,55.00,160.00 C50.00,175.00,70.00,260.00,105.00,260.00"]
      RenderPath {rect} at (3,258) size 4x4 [fill={[type=SOLID] [color=#4A83FF]}] [data="M3.00,258.00 L7.00,258.00 L7.00,262.00 L3.00,262.00"]
      RenderPath {rect} at (53,158) size 4x4 [fill={[type=SOLID] [color=#4A83FF]}] [data="M53.00,158.00 L57.00,158.00 L57.00,162.00 L53.00,162.00"]
      RenderPath {rect} at (103,258) size 4x4 [fill={[type=SOLID] [color=#4A83FF]}] [data="M103.00,258.00 L107.00,258.00 L107.00,262.00 L103.00,262.00"]
      RenderSVGText {text} at (85,220) size 50x14 contains 1 chunk(s)
        RenderSVGInlineText {#text} at (0,-11) size 50x14
          chunk 1 text run 1 at (85.00,220.00) startOffset 0 endOffset 10 width 50.00: "M, C, c, Z"
      RenderPath {path} at (199.69,159.50) size 50.62x100.89 [stroke={[type=SOLID] [color=#000000]}] [data="M200.00,260.00 C250.00,220.00,250.00,160.00,225.00,160.00 C200.00,160.00,200.00,220.00,250.00,260.00"]
      RenderPath {rect} at (198,258) size 4x4 [fill={[type=SOLID] [color=#4A83FF]}] [data="M198.00,258.00 L202.00,258.00 L202.00,262.00 L198.00,262.00"]
      RenderPath {rect} at (223,158) size 4x4 [fill={[type=SOLID] [color=#4A83FF]}] [data="M223.00,158.00 L227.00,158.00 L227.00,162.00 L223.00,162.00"]
      RenderPath {rect} at (248,258) size 4x4 [fill={[type=SOLID] [color=#4A83FF]}] [data="M248.00,258.00 L252.00,258.00 L252.00,262.00 L248.00,262.00"]
      RenderSVGText {text} at (165,210) size 34x14 contains 1 chunk(s)
        RenderSVGInlineText {#text} at (0,-11) size 34x14
          chunk 1 text run 1 at (165.00,210.00) startOffset 0 endOffset 7 width 34.00: "m, c, s"
      RenderPath {path} at (359.92,94.74) size 95.52x95.36 [stroke={[type=SOLID] [color=#000000]}] [fill={[type=SOLID] [color=#0000FF]}] [data="M360.00,100.00 C420.00,90.00,460.00,140.00,450.00,190.00"]
      RenderPath {rect} at (358,98) size 4x4 [fill={[type=SOLID] [color=#4A83FF]}] [data="M358.00,98.00 L362.00,98.00 L362.00,102.00 L358.00,102.00"]
      RenderPath {rect} at (448,188) size 4x4 [fill={[type=SOLID] [color=#4A83FF]}] [data="M448.00,188.00 L452.00,188.00 L452.00,192.00 L448.00,192.00"]
      RenderSVGText {text} at (360,150) size 25x14 contains 1 chunk(s)
        RenderSVGInlineText {#text} at (0,-11) size 25x14
          chunk 1 text run 1 at (360.00,150.00) startOffset 0 endOffset 4 width 25.00: "M, C"
      RenderPath {path} at (287.50,173.50) size 73x73 [stroke={[type=SOLID] [color=#000000]}] [fill={[type=SOLID] [color=#FFFF00]}] [data="M360.00,210.00 C360.00,230.00,344.00,246.00,324.00,246.00 C304.00,246.00,288.00,230.00,288.00,210.00 C288.00,190.00,304.00,174.00,324.00,174.00 C344.00,174.00,360.00,190.00,360.00,210.00"]
      RenderPath {rect} at (358,208) size 4x4 [fill={[type=SOLID] [color=#4A83FF]}] [data="M358.00,208.00 L362.00,208.00 L362.00,212.00 L358.00,212.00"]
      RenderPath {rect} at (322,244) size 4x4 [fill={[type=SOLID] [color=#4A83FF]}] [data="M322.00,244.00 L326.00,244.00 L326.00,248.00 L322.00,248.00"]
      RenderPath {rect} at (286,208) size 4x4 [fill={[type=SOLID] [color=#4A83FF]}] [data="M286.00,208.00 L290.00,208.00 L290.00,212.00 L286.00,212.00"]
      RenderPath {rect} at (322,172) size 4x4 [fill={[type=SOLID] [color=#4A83FF]}] [data="M322.00,172.00 L326.00,172.00 L326.00,176.00 L322.00,176.00"]
      RenderSVGText {text} at (290,265) size 70x14 contains 1 chunk(s)
        RenderSVGInlineText {#text} at (0,-11) size 70x14
          chunk 1 text run 1 at (290.00,265.00) startOffset 0 endOffset 16 width 70.00: "M, c, s, s, s, z"
      RenderPath {path} at (349.79,261.81) size 94.22x63.69 [stroke={[type=SOLID] [color=#FF0000]}] [fill={[type=SOLID] [color=#F0F0F0]}] [data="M360.00,325.00 C320.00,265.00,455.00,225.00,440.00,325.00"]
      RenderPath {rect} at (358,323) size 4x4 [fill={[type=SOLID] [color=#4A83FF]}] [data="M358.00,323.00 L362.00,323.00 L362.00,327.00 L358.00,327.00"]
      RenderPath {rect} at (438,323) size 4x4 [fill={[type=SOLID] [color=#4A83FF]}] [data="M438.00,323.00 L442.00,323.00 L442.00,327.00 L438.00,327.00"]
      RenderSVGText {text} at (380,340) size 34x14 contains 1 chunk(s)
        RenderSVGInlineText {#text} at (0,-11) size 34x14
          chunk 1 text run 1 at (380.00,340.00) startOffset 0 endOffset 7 width 34.00: "m, c, z"
    RenderSVGText {text} at (10,340) size 264x46 contains 1 chunk(s)
      RenderSVGInlineText {#text} at (0,-36) size 264x46
        chunk 1 text run 1 at (10.00,340.00) startOffset 0 endOffset 16 width 264.00: "$Revision: 1.6 $"
    RenderPath {rect} at (0.50,0.50) size 479x359 [stroke={[type=SOLID] [color=#000000]}] [data="M1.00,1.00 L479.00,1.00 L479.00,359.00 L1.00,359.00"]
