layer at (0,0) size 480x360
  RenderView at (0,0) size 480x360
layer at (0,0) size 480x360
  RenderSVGRoot {svg} at (0.50,0.50) size 479x359
    RenderSVGContainer {g} at (14.47,12) size 401.26x285
      RenderSVGText {text} at (75,34) size 306x27 contains 1 chunk(s)
        RenderSVGInlineText {#text} at (0,-22) size 306x27
          chunk 1 text run 1 at (75.00,34.00) startOffset 0 endOffset 26 width 306.00: "Lines drawn with commands:"
      RenderSVGText {text} at (180,64) size 88x27 contains 1 chunk(s)
        RenderSVGInlineText {#text} at (0,-22) size 88x27
          chunk 1 text run 1 at (180.00,64.00) startOffset 0 endOffset 7 width 88.00: "M and Z"
      RenderSVGContainer {g} at (14.47,97.20) size 401.26x199.80 [transform={m=((1.80,0.00)(0.00,1.80)) t=(0.00,0.00)}]
        RenderPath {path} at (16.51,99) size 190.18x164.70 [stroke={[type=SOLID] [color=#000000]}] [data="M62.00,56.00 L113.96,146.00 L10.04,146.00 L62.00,56.00 M62.00,71.00 L100.97,138.50 L23.03,138.50 L62.00,71.00"]
        RenderPath {rect} at (108,97.20) size 7.20x7.20 [fill={[type=SOLID] [color=#00C000]}] [data="M60.00,54.00 L64.00,54.00 L64.00,58.00 L60.00,58.00"]
        RenderPath {rect} at (201.53,259.20) size 7.20x7.20 [fill={[type=SOLID] [color=#00C000]}] [data="M111.96,144.00 L115.96,144.00 L115.96,148.00 L111.96,148.00"]
        RenderPath {rect} at (14.47,259.20) size 7.20x7.20 [fill={[type=SOLID] [color=#00C000]}] [data="M8.04,144.00 L12.04,144.00 L12.04,148.00 L8.04,148.00"]
        RenderPath {rect} at (108,124.20) size 7.20x7.20 [fill={[type=SOLID] [color=#00C000]}] [data="M60.00,69.00 L64.00,69.00 L64.00,73.00 L60.00,73.00"]
        RenderPath {rect} at (178.15,245.70) size 7.20x7.20 [fill={[type=SOLID] [color=#00C000]}] [data="M98.97,136.50 L102.97,136.50 L102.97,140.50 L98.97,140.50"]
        RenderPath {rect} at (37.85,245.70) size 7.20x7.20 [fill={[type=SOLID] [color=#00C000]}] [data="M21.03,136.50 L25.03,136.50 L25.03,140.50 L21.03,140.50"]
        RenderSVGText {text} at (42,162) size 40x14 contains 1 chunk(s)
          RenderSVGInlineText {#text} at (0,-11) size 40x14
            chunk 1 text run 1 at (42.00,162.00) startOffset 0 endOffset 7 width 40.00: "stroked"
        RenderPath {path} at (225.07,100.80) size 187.06x162 [fill={[type=SOLID] [color=#FF0000] [fill rule=EVEN-ODD]}] [data="M177.00,56.00 L228.96,146.00 L125.04,146.00 L177.00,56.00 M177.00,71.00 L215.97,138.50 L138.03,138.50 L177.00,71.00"]
        RenderPath {rect} at (315,97.20) size 7.20x7.20 [fill={[type=SOLID] [color=#00C000]}] [data="M175.00,54.00 L179.00,54.00 L179.00,58.00 L175.00,58.00"]
        RenderPath {rect} at (408.53,259.20) size 7.20x7.20 [fill={[type=SOLID] [color=#00C000]}] [data="M226.96,144.00 L230.96,144.00 L230.96,148.00 L226.96,148.00"]
        RenderPath {rect} at (221.47,259.20) size 7.20x7.20 [fill={[type=SOLID] [color=#00C000]}] [data="M123.04,144.00 L127.04,144.00 L127.04,148.00 L123.04,148.00"]
        RenderPath {rect} at (315,124.20) size 7.20x7.20 [fill={[type=SOLID] [color=#00C000]}] [data="M175.00,69.00 L179.00,69.00 L179.00,73.00 L175.00,73.00"]
        RenderPath {rect} at (385.15,245.70) size 7.20x7.20 [fill={[type=SOLID] [color=#00C000]}] [data="M213.97,136.50 L217.97,136.50 L217.97,140.50 L213.97,140.50"]
        RenderPath {rect} at (244.85,245.70) size 7.20x7.20 [fill={[type=SOLID] [color=#00C000]}] [data="M136.03,136.50 L140.03,136.50 L140.03,140.50 L136.03,140.50"]
        RenderSVGText {text} at (162,162) size 26x14 contains 1 chunk(s)
          RenderSVGInlineText {#text} at (0,-11) size 26x14
            chunk 1 text run 1 at (162.00,162.00) startOffset 0 endOffset 6 width 26.00: "filled"
    RenderSVGText {text} at (10,340) size 284x46 contains 1 chunk(s)
      RenderSVGInlineText {#text} at (0,-36) size 284x46
        chunk 1 text run 1 at (10.00,340.00) startOffset 0 endOffset 17 width 284.00: "$Revision: 1.11 $"
    RenderPath {rect} at (0.50,0.50) size 479x359 [stroke={[type=SOLID] [color=#000000]}] [data="M1.00,1.00 L479.00,1.00 L479.00,359.00 L1.00,359.00"]
