KRenderingPaintServer {id="lgSpreadPad" [type=LINEAR-GRADIENT] [stops=[(0.00,#FF0000), (1.00,#FFD700)]] [bounding box mode=0] [start=(50,0)] [end=(100,0)]}
KRenderingPaintServer {id="lgSpreadReflect" [type=LINEAR-GRADIENT] [stops=[(0.00,#FF0000), (1.00,#FFD700)]][method=REFLECT] [bounding box mode=0] [start=(50,0)] [end=(100,0)]}
KRenderingPaintServer {id="lgSpreadRepeat" [type=LINEAR-GRADIENT] [stops=[(0.00,#FF0000), (1.00,#FFD700)]][method=REPEAT] [bounding box mode=0] [start=(50,0)] [end=(100,0)]}
KRenderingPaintServer {id="lgSpreadDefault" [type=LINEAR-GRADIENT] [stops=[(0.00,#FF0000), (1.00,#FFD700)]] [bounding box mode=0] [start=(50,0)] [end=(100,0)]}
KRenderingPaintServer {id="rgSpreadPad" [type=RADIAL-GRADIENT] [stops=[(0.00,#FF0000), (1.00,#FFD700)]] [center=(0.50,0.50)] [focal=(0.50,0.50)] [radius=0.20]}
KRenderingPaintServer {id="rgSpreadReflect" [type=RADIAL-GRADIENT] [stops=[(0.00,#FF0000), (1.00,#FFD700)]][method=REFLECT] [center=(0.50,0.50)] [focal=(0.50,0.50)] [radius=0.20]}
KRenderingPaintServer {id="rgSpreadRepeat" [type=RADIAL-GRADIENT] [stops=[(0.00,#FF0000), (1.00,#FFD700)]][method=REPEAT] [center=(0.50,0.50)] [focal=(0.50,0.50)] [radius=0.20]}
KRenderingPaintServer {id="rgSpreadDefault" [type=RADIAL-GRADIENT] [stops=[(0.00,#FF0000), (1.00,#FFD700)]] [center=(0.50,0.50)] [focal=(0.50,0.50)] [radius=0.20]}
layer at (0,0) size 480x360
  RenderView at (0,0) size 480x360
layer at (0,0) size 480x360
  RenderSVGRoot {svg} at (0.50,0.50) size 479x359
    RenderSVGHiddenContainer {defs} at (0,0) size 0x0
      RenderSVGHiddenContainer {linearGradient} at (0,0) size 0x0
        RenderSVGGradientStop {stop} at (0,0) size 0x0
        RenderSVGGradientStop {stop} at (0,0) size 0x0
      RenderSVGHiddenContainer {linearGradient} at (0,0) size 0x0
        RenderSVGGradientStop {stop} at (0,0) size 0x0
        RenderSVGGradientStop {stop} at (0,0) size 0x0
      RenderSVGHiddenContainer {linearGradient} at (0,0) size 0x0
        RenderSVGGradientStop {stop} at (0,0) size 0x0
        RenderSVGGradientStop {stop} at (0,0) size 0x0
      RenderSVGHiddenContainer {linearGradient} at (0,0) size 0x0
        RenderSVGGradientStop {stop} at (0,0) size 0x0
        RenderSVGGradientStop {stop} at (0,0) size 0x0
      RenderSVGHiddenContainer {radialGradient} at (0,0) size 0x0
        RenderSVGGradientStop {stop} at (0,0) size 0x0
        RenderSVGGradientStop {stop} at (0,0) size 0x0
      RenderSVGHiddenContainer {radialGradient} at (0,0) size 0x0
        RenderSVGGradientStop {stop} at (0,0) size 0x0
        RenderSVGGradientStop {stop} at (0,0) size 0x0
      RenderSVGHiddenContainer {radialGradient} at (0,0) size 0x0
        RenderSVGGradientStop {stop} at (0,0) size 0x0
        RenderSVGGradientStop {stop} at (0,0) size 0x0
      RenderSVGHiddenContainer {radialGradient} at (0,0) size 0x0
        RenderSVGGradientStop {stop} at (0,0) size 0x0
        RenderSVGGradientStop {stop} at (0,0) size 0x0
    RenderSVGText {text} at (111,30) size 258x23 contains 1 chunk(s)
      RenderSVGInlineText {#text} at (0,-18) size 258x23
        chunk 1 (middle anchor) text run 1 at (111.50,30.00) startOffset 0 endOffset 30 width 257.00: "Gradient 'spreadMethod' values"
    RenderPath {rect} at (10,60) size 225x40 [fill={[type=LINEAR-GRADIENT] [stops=[(0.00,#FF0000), (1.00,#FFD700)]] [bounding box mode=0] [start=(50,0)] [end=(100,0)]}] [data="M10.00,60.00 L235.00,60.00 L235.00,100.00 L10.00,100.00"]
    RenderSVGText {text} at (10,55) size 136x18 contains 1 chunk(s)
      RenderSVGInlineText {#text} at (0,-14) size 136x18
        chunk 1 text run 1 at (10.00,55.00) startOffset 0 endOffset 18 width 136.00: "spreadMethod=\"pad\""
    RenderPath {rect} at (10,130) size 225x40 [fill={[type=LINEAR-GRADIENT] [stops=[(0.00,#FF0000), (1.00,#FFD700)]][method=REFLECT] [bounding box mode=0] [start=(50,0)] [end=(100,0)]}] [data="M10.00,130.00 L235.00,130.00 L235.00,170.00 L10.00,170.00"]
    RenderSVGText {text} at (10,125) size 152x18 contains 1 chunk(s)
      RenderSVGInlineText {#text} at (0,-14) size 152x18
        chunk 1 text run 1 at (10.00,125.00) startOffset 0 endOffset 22 width 152.00: "spreadMethod=\"reflect\""
    RenderPath {rect} at (10,200) size 225x40 [fill={[type=LINEAR-GRADIENT] [stops=[(0.00,#FF0000), (1.00,#FFD700)]][method=REPEAT] [bounding box mode=0] [start=(50,0)] [end=(100,0)]}] [data="M10.00,200.00 L235.00,200.00 L235.00,240.00 L10.00,240.00"]
    RenderSVGText {text} at (10,195) size 151x18 contains 1 chunk(s)
      RenderSVGInlineText {#text} at (0,-14) size 151x18
        chunk 1 text run 1 at (10.00,195.00) startOffset 0 endOffset 21 width 151.00: "spreadMethod=\"repeat\""
    RenderPath {rect} at (10,270) size 225x40 [fill={[type=LINEAR-GRADIENT] [stops=[(0.00,#FF0000), (1.00,#FFD700)]] [bounding box mode=0] [start=(50,0)] [end=(100,0)]}] [data="M10.00,270.00 L235.00,270.00 L235.00,310.00 L10.00,310.00"]
    RenderSVGText {text} at (10,265) size 156x18 contains 1 chunk(s)
      RenderSVGInlineText {#text} at (0,-14) size 156x18
        chunk 1 text run 1 at (10.00,265.00) startOffset 0 endOffset 22 width 156.00: "spreadMethod=\"default\""
    RenderPath {rect} at (245,60) size 225x40 [fill={[type=RADIAL-GRADIENT] [stops=[(0.00,#FF0000), (1.00,#FFD700)]] [center=(0.50,0.50)] [focal=(0.50,0.50)] [radius=0.20]}] [data="M245.00,60.00 L470.00,60.00 L470.00,100.00 L245.00,100.00"]
    RenderSVGText {text} at (245,55) size 136x18 contains 1 chunk(s)
      RenderSVGInlineText {#text} at (0,-14) size 136x18
        chunk 1 text run 1 at (245.00,55.00) startOffset 0 endOffset 18 width 136.00: "spreadMethod=\"pad\""
    RenderPath {rect} at (245,130) size 225x40 [fill={[type=RADIAL-GRADIENT] [stops=[(0.00,#FF0000), (1.00,#FFD700)]][method=REFLECT] [center=(0.50,0.50)] [focal=(0.50,0.50)] [radius=0.20]}] [data="M245.00,130.00 L470.00,130.00 L470.00,170.00 L245.00,170.00"]
    RenderSVGText {text} at (245,125) size 152x18 contains 1 chunk(s)
      RenderSVGInlineText {#text} at (0,-14) size 152x18
        chunk 1 text run 1 at (245.00,125.00) startOffset 0 endOffset 22 width 152.00: "spreadMethod=\"reflect\""
    RenderPath {rect} at (245,200) size 225x40 [fill={[type=RADIAL-GRADIENT] [stops=[(0.00,#FF0000), (1.00,#FFD700)]][method=REPEAT] [center=(0.50,0.50)] [focal=(0.50,0.50)] [radius=0.20]}] [data="M245.00,200.00 L470.00,200.00 L470.00,240.00 L245.00,240.00"]
    RenderSVGText {text} at (245,195) size 151x18 contains 1 chunk(s)
      RenderSVGInlineText {#text} at (0,-14) size 151x18
        chunk 1 text run 1 at (245.00,195.00) startOffset 0 endOffset 21 width 151.00: "spreadMethod=\"repeat\""
    RenderPath {rect} at (245,270) size 225x40 [fill={[type=RADIAL-GRADIENT] [stops=[(0.00,#FF0000), (1.00,#FFD700)]] [center=(0.50,0.50)] [focal=(0.50,0.50)] [radius=0.20]}] [data="M245.00,270.00 L470.00,270.00 L470.00,310.00 L245.00,310.00"]
    RenderSVGText {text} at (245,265) size 156x18 contains 1 chunk(s)
      RenderSVGInlineText {#text} at (0,-14) size 156x18
        chunk 1 text run 1 at (245.00,265.00) startOffset 0 endOffset 22 width 156.00: "spreadMethod=\"default\""
    RenderSVGText {text} at (10,350) size 198x36 contains 1 chunk(s)
      RenderSVGInlineText {#text} at (0,-28) size 198x36
        chunk 1 text run 1 at (10.00,350.00) startOffset 0 endOffset 16 width 198.00: "$Revision: 1.7 $"
    RenderPath {rect} at (0.50,0.50) size 479x359 [stroke={[type=SOLID] [color=#000000]}] [data="M1.00,1.00 L479.00,1.00 L479.00,359.00 L1.00,359.00"]
