layer at (0,0) size 480x360
  RenderView at (0,0) size 480x360
layer at (0,0) size 480x360
  RenderSVGRoot {svg} at (0.50,0.50) size 479x359
    RenderSVGContainer {g} at (0,0) size 0x0
    RenderSVGText {text} at (10,340) size 198x36 contains 1 chunk(s)
      RenderSVGInlineText {#text} at (0,-28) size 198x36
        chunk 1 text run 1 at (10.00,340.00) startOffset 0 endOffset 16 width 198.00: "$Revision: 1.1 $"
    RenderPath {rect} at (0.50,0.50) size 479x359 [stroke={[type=SOLID] [color=#000000]}] [data="M1.00,1.00 L479.00,1.00 L479.00,359.00 L1.00,359.00"]
    RenderSVGText {text} at (10,50) size 99x36 contains 1 chunk(s)
      RenderSVGInlineText {#text} at (0,-28) size 99x36
        chunk 1 text run 1 at (10.00,50.00) startOffset 0 endOffset 8 width 99.00: "uievents"
    RenderSVGText {text} at (370,50) size 56x36 contains 1 chunk(s)
      RenderSVGInlineText {#text} at (0,-28) size 56x36
        chunk 1 text run 1 at (370.00,50.00) startOffset 0 endOffset 5 width 56.00: "false"
    RenderSVGText {text} at (10,100) size 154x36 contains 1 chunk(s)
      RenderSVGInlineText {#text} at (0,-28) size 154x36
        chunk 1 text run 1 at (10.00,100.00) startOffset 0 endOffset 11 width 154.00: "mouseevents"
    RenderSVGText {text} at (370,100) size 46x36 contains 1 chunk(s)
      RenderSVGInlineText {#text} at (0,-28) size 46x36
        chunk 1 text run 1 at (370.00,100.00) startOffset 0 endOffset 4 width 46.00: "true"
    RenderSVGText {text} at (10,150) size 181x36 contains 1 chunk(s)
      RenderSVGInlineText {#text} at (0,-28) size 181x36
        chunk 1 text run 1 at (10.00,150.00) startOffset 0 endOffset 14 width 181.00: "mutationevents"
    RenderSVGText {text} at (370,150) size 46x36 contains 1 chunk(s)
      RenderSVGInlineText {#text} at (0,-28) size 46x36
        chunk 1 text run 1 at (370.00,150.00) startOffset 0 endOffset 4 width 46.00: "true"
    RenderSVGText {text} at (10,200) size 102x36 contains 1 chunk(s)
      RenderSVGInlineText {#text} at (0,-28) size 102x36
        chunk 1 text run 1 at (10.00,200.00) startOffset 0 endOffset 9 width 102.00: "traversal"
    RenderSVGText {text} at (370,200) size 46x36 contains 1 chunk(s)
      RenderSVGInlineText {#text} at (0,-28) size 46x36
        chunk 1 text run 1 at (370.00,200.00) startOffset 0 endOffset 4 width 46.00: "true"
    RenderSVGText {text} at (10,250) size 148x36 contains 1 chunk(s)
      RenderSVGInlineText {#text} at (0,-28) size 148x36
        chunk 1 text run 1 at (10.00,250.00) startOffset 0 endOffset 11 width 148.00: "org.w3c.svg"
    RenderSVGText {text} at (370,250) size 56x36 contains 1 chunk(s)
      RenderSVGInlineText {#text} at (0,-28) size 56x36
        chunk 1 text run 1 at (370.00,250.00) startOffset 0 endOffset 5 width 56.00: "false"
