layer at (0,0) size 480x360
  RenderView at (0,0) size 480x360
layer at (0,0) size 480x360
  RenderSVGRoot {svg} at (0,0) size 479.50x359.50
    RenderSVGContainer {g} at (0,0) size 240x180
      RenderSVGViewportContainer {svg} at (240,180) size 240x180
        RenderPath {rect} at (240,180) size 240x180 [fill={[type=SOLID] [color=#FF0000]}] [data="M0.00,0.00 L240.00,0.00 L240.00,180.00 L0.00,180.00"]
      RenderSVGViewportContainer {svg} at (0,0) size 240x180
        RenderPath {rect} at (0,0) size 240x180 [fill={[type=SOLID] [color=#0000FF]}] [data="M0.00,0.00 L240.00,0.00 L240.00,180.00 L0.00,180.00"]
        RenderSVGViewportContainer {svg} at (60,45) size 120x90
          RenderPath {rect} at (60,45) size 120x90 [fill={[type=SOLID] [color=#FFFF00]}] [data="M0.00,0.00 L120.00,0.00 L120.00,90.00 L0.00,90.00"]
    RenderSVGText {text} at (10,340) size 264x46 contains 1 chunk(s)
      RenderSVGInlineText {#text} at (0,-36) size 264x46
        chunk 1 text run 1 at (10.00,340.00) startOffset 0 endOffset 16 width 264.00: "$Revision: 1.1 $"
    RenderPath {rect} at (0.50,0.50) size 479x359 [stroke={[type=SOLID] [color=#000000]}] [data="M1.00,1.00 L479.00,1.00 L479.00,359.00 L1.00,359.00"]
