layer at (0,0) size 480x360
  RenderView at (0,0) size 480x360
layer at (0,0) size 480x360
  RenderSVGRoot {svg} at (0.50,0.50) size 479x359
    RenderSVGContainer {g} at (5,14) size 463x271.67
      RenderSVGText {text} at (5,50) size 403x44 contains 1 chunk(s)
        RenderSVGInlineText {#text} at (0,-36) size 403x44
          chunk 1 text run 1 at (5.00,50.00) startOffset 0 endOffset 26 width 403.00: "Test 'altGlyph' facilities"
      RenderSVGText {text} at (5,90) size 463x33 contains 1 chunk(s)
        RenderSVGInlineText {#text} at (0,-27) size 463x33
          chunk 1 text run 1 at (5.00,90.00) startOffset 0 endOffset 32 width 463.00: "and many-to-many chars to glyphs"
      RenderSVGHiddenContainer {defs} at (0,0) size 0x0
      RenderSVGContainer {g} at (49.33,129.33) size 389.33x156.33
        RenderSVGText {text} at (140,190) size 188x75 contains 1 chunk(s)
          RenderSVGTSpan {altGlyph} at (0,0) size 38x75
            RenderSVGInlineText {#text} at (0,-60) size 38x75
              chunk 1 text run 1 at (140.00,190.00) startOffset 0 endOffset 1 width 37.50: "H"
          RenderSVGInlineText {#text} at (0,0) size 0x0
          RenderSVGTSpan {altGlyph} at (0,0) size 38x75
            RenderSVGInlineText {#text} at (37,-60) size 38x75
              chunk 1 text run 2 at (177.50,190.00) startOffset 0 endOffset 1 width 37.50: "A"
          RenderSVGInlineText {#text} at (0,0) size 0x0
          RenderSVGTSpan {altGlyph} at (0,0) size 38x75
            RenderSVGInlineText {#text} at (75,-60) size 38x75
              chunk 1 text run 3 at (215.00,190.00) startOffset 0 endOffset 1 width 37.50: "P"
          RenderSVGInlineText {#text} at (0,0) size 0x0
          RenderSVGTSpan {altGlyph} at (0,0) size 38x75
            RenderSVGInlineText {#text} at (112,-60) size 38x75
              chunk 1 text run 4 at (252.50,190.00) startOffset 0 endOffset 1 width 37.50: "P"
          RenderSVGInlineText {#text} at (0,0) size 0x0
          RenderSVGTSpan {altGlyph} at (0,0) size 38x75
            RenderSVGInlineText {#text} at (150,-60) size 38x75
              chunk 1 text run 5 at (290.00,190.00) startOffset 0 endOffset 1 width 37.50: "Y"
          RenderSVGInlineText {#text} at (0,0) size 0x0
        RenderSVGText {text} at (50,270) size 113x75 contains 1 chunk(s)
          RenderSVGTSpan {altGlyph} at (0,0) size 38x75
            RenderSVGInlineText {#text} at (0,-60) size 38x75
              chunk 1 text run 1 at (50.00,270.00) startOffset 0 endOffset 1 width 37.50: "S"
          RenderSVGTSpan {altGlyph} at (0,0) size 38x75
            RenderSVGInlineText {#text} at (37,-60) size 38x75
              chunk 1 text run 2 at (87.50,270.00) startOffset 0 endOffset 1 width 37.50: "A"
          RenderSVGInlineText {#text} at (75,-60) size 38x75
            chunk 1 text run 3 at (125.00,270.00) startOffset 0 endOffset 1 width 37.50: "D"
        RenderSVGText {text} at (280,270) size 158x75 contains 1 chunk(s)
          RenderSVGInlineText {#text} at (0,-60) size 158x75
            chunk 1 text run 1 at (280.00,270.00) startOffset 0 endOffset 5 width 157.50: "SASSY"
    RenderSVGText {text} at (10,340) size 264x46 contains 1 chunk(s)
      RenderSVGInlineText {#text} at (0,-36) size 264x46
        chunk 1 text run 1 at (10.00,340.00) startOffset 0 endOffset 16 width 264.00: "$Revision: 1.5 $"
    RenderPath {rect} at (0.50,0.50) size 479x359 [stroke={[type=SOLID] [color=#000000]}] [data="M1.00,1.00 L479.00,1.00 L479.00,359.00 L1.00,359.00"]
