layer at (0,0) size 480x360
  RenderView at (0,0) size 480x360
layer at (0,0) size 480x360
  RenderSVGRoot {svg} at (0.50,0.50) size 479x359
    RenderSVGContainer {g} at (5,9) size 452x277
      RenderSVGText {text} at (5,40) size 435x38 contains 1 chunk(s)
        RenderSVGInlineText {#text} at (0,-31) size 435x38
          chunk 1 text run 1 at (5.00,40.00) startOffset 0 endOffset 31 width 435.00: "Test 'text-anchor' (horizontal)"
      RenderSVGContainer {g} at (20,103) size 437x183
        RenderSVGContainer {g} at (227,103) size 230x33 [transform={m=((1.00,0.00)(0.00,1.00)) t=(230.00,130.00)}]
          RenderPath {line} at (230,129.50) size 50x1 [stroke={[type=SOLID] [color=#000000]}] [fill={[type=SOLID] [color=#000000]}] [data="M0.00,0.00 L50.00,0.00"]
          RenderPath {circle} at (227,127) size 6x6 [fill={[type=SOLID] [color=#000000]}] [data="M3.00,0.00 L2.99,0.19 L2.98,0.38 L2.95,0.56 L2.91,0.75 L2.85,0.93 L2.79,1.10 L2.71,1.28 L2.63,1.45 L2.53,1.61 L2.43,1.76 L2.31,1.91 L2.19,2.05 L2.05,2.19 L1.91,2.31 L1.76,2.43 L1.61,2.53 L1.45,2.63 L1.28,2.71 L1.10,2.79 L0.93,2.85 L0.75,2.91 L0.56,2.95 L0.38,2.98 L0.19,2.99 L-0.00,3.00 L-0.19,2.99 L-0.38,2.98 L-0.56,2.95 L-0.75,2.91 L-0.93,2.85 L-1.10,2.79 L-1.28,2.71 L-1.45,2.63 L-1.61,2.53 L-1.76,2.43 L-1.91,2.31 L-2.05,2.19 L-2.19,2.05 L-2.31,1.91 L-2.43,1.76 L-2.53,1.61 L-2.63,1.45 L-2.71,1.28 L-2.79,1.10 L-2.85,0.93 L-2.91,0.75 L-2.95,0.56 L-2.98,0.38 L-2.99,0.19 L-3.00,-0.00 L-2.99,-0.19 L-2.98,-0.38 L-2.95,-0.56 L-2.91,-0.75 L-2.85,-0.93 L-2.79,-1.10 L-2.71,-1.28 L-2.63,-1.45 L-2.53,-1.61 L-2.43,-1.76 L-2.31,-1.91 L-2.19,-2.05 L-2.05,-2.19 L-1.91,-2.31 L-1.76,-2.43 L-1.61,-2.53 L-1.45,-2.63 L-1.28,-2.71 L-1.10,-2.79 L-0.93,-2.85 L-0.75,-2.91 L-0.56,-2.95 L-0.38,-2.98 L-0.19,-2.99 L0.00,-3.00 L0.19,-2.99 L0.38,-2.98 L0.56,-2.95 L0.75,-2.91 L0.93,-2.85 L1.10,-2.79 L1.28,-2.71 L1.45,-2.63 L1.61,-2.53 L1.76,-2.43 L1.91,-2.31 L2.05,-2.19 L2.19,-2.05 L2.31,-1.91 L2.43,-1.76 L2.53,-1.61 L2.63,-1.45 L2.71,-1.28 L2.79,-1.10 L2.85,-0.93 L2.91,-0.75 L2.95,-0.56 L2.98,-0.38 L2.99,-0.19"]
          RenderSVGText {text} at (0,0) size 227x33 contains 1 chunk(s)
            RenderSVGInlineText {#text} at (0,-27) size 227x33
              chunk 1 text run 1 at (0.00,0.00) startOffset 0 endOffset 16 width 227.00: "text-anchor:none"
        RenderSVGContainer {g} at (227,153) size 220x33 [transform={m=((1.00,0.00)(0.00,1.00)) t=(230.00,180.00)}]
          RenderPath {line} at (230,179.50) size 50x1 [stroke={[type=SOLID] [color=#000000]}] [fill={[type=SOLID] [color=#000000]}] [data="M0.00,0.00 L50.00,0.00"]
          RenderPath {circle} at (227,177) size 6x6 [fill={[type=SOLID] [color=#000000]}] [data="M3.00,0.00 L2.99,0.19 L2.98,0.38 L2.95,0.56 L2.91,0.75 L2.85,0.93 L2.79,1.10 L2.71,1.28 L2.63,1.45 L2.53,1.61 L2.43,1.76 L2.31,1.91 L2.19,2.05 L2.05,2.19 L1.91,2.31 L1.76,2.43 L1.61,2.53 L1.45,2.63 L1.28,2.71 L1.10,2.79 L0.93,2.85 L0.75,2.91 L0.56,2.95 L0.38,2.98 L0.19,2.99 L-0.00,3.00 L-0.19,2.99 L-0.38,2.98 L-0.56,2.95 L-0.75,2.91 L-0.93,2.85 L-1.10,2.79 L-1.28,2.71 L-1.45,2.63 L-1.61,2.53 L-1.76,2.43 L-1.91,2.31 L-2.05,2.19 L-2.19,2.05 L-2.31,1.91 L-2.43,1.76 L-2.53,1.61 L-2.63,1.45 L-2.71,1.28 L-2.79,1.10 L-2.85,0.93 L-2.91,0.75 L-2.95,0.56 L-2.98,0.38 L-2.99,0.19 L-3.00,-0.00 L-2.99,-0.19 L-2.98,-0.38 L-2.95,-0.56 L-2.91,-0.75 L-2.85,-0.93 L-2.79,-1.10 L-2.71,-1.28 L-2.63,-1.45 L-2.53,-1.61 L-2.43,-1.76 L-2.31,-1.91 L-2.19,-2.05 L-2.05,-2.19 L-1.91,-2.31 L-1.76,-2.43 L-1.61,-2.53 L-1.45,-2.63 L-1.28,-2.71 L-1.10,-2.79 L-0.93,-2.85 L-0.75,-2.91 L-0.56,-2.95 L-0.38,-2.98 L-0.19,-2.99 L0.00,-3.00 L0.19,-2.99 L0.38,-2.98 L0.56,-2.95 L0.75,-2.91 L0.93,-2.85 L1.10,-2.79 L1.28,-2.71 L1.45,-2.63 L1.61,-2.53 L1.76,-2.43 L1.91,-2.31 L2.05,-2.19 L2.19,-2.05 L2.31,-1.91 L2.43,-1.76 L2.53,-1.61 L2.63,-1.45 L2.71,-1.28 L2.79,-1.10 L2.85,-0.93 L2.91,-0.75 L2.95,-0.56 L2.98,-0.38 L2.99,-0.19"]
          RenderSVGText {text} at (0,0) size 217x33 contains 1 chunk(s)
            RenderSVGInlineText {#text} at (0,-27) size 217x33
              chunk 1 text run 1 at (0.00,0.00) startOffset 0 endOffset 17 width 217.00: "text-anchor:start"
        RenderSVGContainer {g} at (105,203) size 250x33 [transform={m=((1.00,0.00)(0.00,1.00)) t=(230.00,230.00)}]
          RenderPath {line} at (205,229.50) size 50x1 [stroke={[type=SOLID] [color=#000000]}] [fill={[type=SOLID] [color=#000000]}] [data="M-25.00,0.00 L25.00,0.00"]
          RenderPath {circle} at (227,227) size 6x6 [fill={[type=SOLID] [color=#000000]}] [data="M3.00,0.00 L2.99,0.19 L2.98,0.38 L2.95,0.56 L2.91,0.75 L2.85,0.93 L2.79,1.10 L2.71,1.28 L2.63,1.45 L2.53,1.61 L2.43,1.76 L2.31,1.91 L2.19,2.05 L2.05,2.19 L1.91,2.31 L1.76,2.43 L1.61,2.53 L1.45,2.63 L1.28,2.71 L1.10,2.79 L0.93,2.85 L0.75,2.91 L0.56,2.95 L0.38,2.98 L0.19,2.99 L-0.00,3.00 L-0.19,2.99 L-0.38,2.98 L-0.56,2.95 L-0.75,2.91 L-0.93,2.85 L-1.10,2.79 L-1.28,2.71 L-1.45,2.63 L-1.61,2.53 L-1.76,2.43 L-1.91,2.31 L-2.05,2.19 L-2.19,2.05 L-2.31,1.91 L-2.43,1.76 L-2.53,1.61 L-2.63,1.45 L-2.71,1.28 L-2.79,1.10 L-2.85,0.93 L-2.91,0.75 L-2.95,0.56 L-2.98,0.38 L-2.99,0.19 L-3.00,-0.00 L-2.99,-0.19 L-2.98,-0.38 L-2.95,-0.56 L-2.91,-0.75 L-2.85,-0.93 L-2.79,-1.10 L-2.71,-1.28 L-2.63,-1.45 L-2.53,-1.61 L-2.43,-1.76 L-2.31,-1.91 L-2.19,-2.05 L-2.05,-2.19 L-1.91,-2.31 L-1.76,-2.43 L-1.61,-2.53 L-1.45,-2.63 L-1.28,-2.71 L-1.10,-2.79 L-0.93,-2.85 L-0.75,-2.91 L-0.56,-2.95 L-0.38,-2.98 L-0.19,-2.99 L0.00,-3.00 L0.19,-2.99 L0.38,-2.98 L0.56,-2.95 L0.75,-2.91 L0.93,-2.85 L1.10,-2.79 L1.28,-2.71 L1.45,-2.63 L1.61,-2.53 L1.76,-2.43 L1.91,-2.31 L2.05,-2.19 L2.19,-2.05 L2.31,-1.91 L2.43,-1.76 L2.53,-1.61 L2.63,-1.45 L2.71,-1.28 L2.79,-1.10 L2.85,-0.93 L2.91,-0.75 L2.95,-0.56 L2.98,-0.38 L2.99,-0.19"]
          RenderSVGText {text} at (-125,0) size 250x33 contains 1 chunk(s)
            RenderSVGInlineText {#text} at (0,-27) size 250x33
              chunk 1 (middle anchor) text run 1 at (-124.50,0.00) startOffset 0 endOffset 18 width 249.00: "text-anchor:middle"
        RenderSVGContainer {g} at (20,253) size 213x33 [transform={m=((1.00,0.00)(0.00,1.00)) t=(230.00,280.00)}]
          RenderPath {line} at (180,279.50) size 50x1 [stroke={[type=SOLID] [color=#000000]}] [fill={[type=SOLID] [color=#000000]}] [data="M-50.00,0.00 L0.00,0.00"]
          RenderPath {circle} at (227,277) size 6x6 [fill={[type=SOLID] [color=#000000]}] [data="M3.00,0.00 L2.99,0.19 L2.98,0.38 L2.95,0.56 L2.91,0.75 L2.85,0.93 L2.79,1.10 L2.71,1.28 L2.63,1.45 L2.53,1.61 L2.43,1.76 L2.31,1.91 L2.19,2.05 L2.05,2.19 L1.91,2.31 L1.76,2.43 L1.61,2.53 L1.45,2.63 L1.28,2.71 L1.10,2.79 L0.93,2.85 L0.75,2.91 L0.56,2.95 L0.38,2.98 L0.19,2.99 L-0.00,3.00 L-0.19,2.99 L-0.38,2.98 L-0.56,2.95 L-0.75,2.91 L-0.93,2.85 L-1.10,2.79 L-1.28,2.71 L-1.45,2.63 L-1.61,2.53 L-1.76,2.43 L-1.91,2.31 L-2.05,2.19 L-2.19,2.05 L-2.31,1.91 L-2.43,1.76 L-2.53,1.61 L-2.63,1.45 L-2.71,1.28 L-2.79,1.10 L-2.85,0.93 L-2.91,0.75 L-2.95,0.56 L-2.98,0.38 L-2.99,0.19 L-3.00,-0.00 L-2.99,-0.19 L-2.98,-0.38 L-2.95,-0.56 L-2.91,-0.75 L-2.85,-0.93 L-2.79,-1.10 L-2.71,-1.28 L-2.63,-1.45 L-2.53,-1.61 L-2.43,-1.76 L-2.31,-1.91 L-2.19,-2.05 L-2.05,-2.19 L-1.91,-2.31 L-1.76,-2.43 L-1.61,-2.53 L-1.45,-2.63 L-1.28,-2.71 L-1.10,-2.79 L-0.93,-2.85 L-0.75,-2.91 L-0.56,-2.95 L-0.38,-2.98 L-0.19,-2.99 L0.00,-3.00 L0.19,-2.99 L0.38,-2.98 L0.56,-2.95 L0.75,-2.91 L0.93,-2.85 L1.10,-2.79 L1.28,-2.71 L1.45,-2.63 L1.61,-2.53 L1.76,-2.43 L1.91,-2.31 L2.05,-2.19 L2.19,-2.05 L2.31,-1.91 L2.43,-1.76 L2.53,-1.61 L2.63,-1.45 L2.71,-1.28 L2.79,-1.10 L2.85,-0.93 L2.91,-0.75 L2.95,-0.56 L2.98,-0.38 L2.99,-0.19"]
          RenderSVGText {text} at (-210,0) size 210x33 contains 1 chunk(s)
            RenderSVGInlineText {#text} at (0,-27) size 210x33
              chunk 1 (end anchor) text run 1 at (-210.00,0.00) startOffset 0 endOffset 15 width 210.00: "text-anchor:end"
    RenderSVGText {text} at (10,340) size 264x46 contains 1 chunk(s)
      RenderSVGInlineText {#text} at (0,-36) size 264x46
        chunk 1 text run 1 at (10.00,340.00) startOffset 0 endOffset 16 width 264.00: "$Revision: 1.5 $"
    RenderPath {rect} at (0.50,0.50) size 479x359 [stroke={[type=SOLID] [color=#000000]}] [data="M1.00,1.00 L479.00,1.00 L479.00,359.00 L1.00,359.00"]
