layer at (0,0) size 480x360
  RenderView at (0,0) size 480x360
layer at (0,0) size 480x360
  RenderSVGRoot {svg} at (0.50,0.50) size 593.50x359
    RenderSVGContainer {g} at (48,52) size 546x196
      RenderSVGText {text} at (119,80) size 458x36 contains 1 chunk(s)
        RenderSVGInlineText {#text} at (0,-28) size 458x36
          chunk 1 (end anchor) text run 1 at (119.00,80.00) startOffset 0 endOffset 37 width 341.00 RTL: "\x{644}\x{645}\x{627}\x{630}\x{627} \x{644}\x{627} \x{64A}\x{62A}\x{643}\x{644}\x{645}\x{648}\x{646} \x{627}\x{644}\x{644}\x{651}\x{63A}\x{629} \x{627}\x{644}\x{639}\x{631}\x{628}\x{64A}\x{629} \x{641}\x{62D}\x{633}\x{628}\x{61F}"
      RenderSVGText {text} at (48,160) size 546x41 contains 1 chunk(s)
        RenderSVGInlineText {#text} at (0,-32) size 546x41
          chunk 1 (end anchor) text run 1 at (48.00,160.00) startOffset 0 endOffset 37 width 412.00 RTL: "\x{644}\x{645}\x{627}\x{630}\x{627} \x{644}\x{627} \x{64A}\x{62A}\x{643}\x{644}\x{645}\x{648}\x{646} \x{627}\x{644}\x{644}\x{651}\x{63A}\x{629} \x{627}\x{644}\x{639}\x{631}\x{628}\x{64A}\x{629} \x{641}\x{62D}\x{633}\x{628}\x{61F}"
      RenderSVGText {text} at (119,240) size 458x36 contains 1 chunk(s)
        RenderSVGInlineText {#text} at (0,-28) size 458x36
          chunk 1 (end anchor) text run 1 at (119.00,240.00) startOffset 0 endOffset 37 width 341.00 RTL: "\x{644}\x{645}\x{627}\x{630}\x{627} \x{644}\x{627} \x{64A}\x{62A}\x{643}\x{644}\x{645}\x{648}\x{646} \x{627}\x{644}\x{644}\x{651}\x{63A}\x{629} \x{627}\x{644}\x{639}\x{631}\x{628}\x{64A}\x{629} \x{641}\x{62D}\x{633}\x{628}\x{61F}"
    RenderSVGText {text} at (10,340) size 264x46 contains 1 chunk(s)
      RenderSVGInlineText {#text} at (0,-36) size 264x46
        chunk 1 text run 1 at (10.00,340.00) startOffset 0 endOffset 16 width 264.00: "$Revision: 1.4 $"
    RenderPath {rect} at (0.50,0.50) size 479x359 [stroke={[type=SOLID] [color=#000000]}] [data="M1.00,1.00 L479.00,1.00 L479.00,359.00 L1.00,359.00"]
