layer at (0,0) size 800x600
  RenderView at (0,0) size 800x600
layer at (0,0) size 800x600
  RenderSVGRoot {svg} at (0.83,0.83) size 798.33x598.33
    RenderSVGContainer {g} at (50,91.67) size 456.67x348.33
      RenderSVGHiddenContainer {defs} at (0,0) size 0x0
      RenderSVGHiddenContainer {defs} at (0,0) size 0x0
        RenderSVGContainer {g} at (-4,-15) size 8x19
          RenderPath {line} at (-0.50,-15) size 1x15 [stroke={[type=SOLID] [color=#FF0000]}] [fill={[type=SOLID] [color=#000000]}] [data="M0.00,0.00 L0.00,-15.00"]
          RenderPath {rect} at (-4,-4) size 8x8 [fill={[type=SOLID] [color=#000000]}] [data="M-4.00,-4.00 L4.00,-4.00 L4.00,4.00 L-4.00,4.00"]
      RenderSVGContainer {g} at (50,91.67) size 456.67x348.33 [transform={m=((1.00,0.00)(0.00,1.00)) t=(20.00,30.00)}]
        RenderSVGContainer {g} at (50,98.33) size 118.33x256.67 [transform={m=((1.00,0.00)(0.00,1.00)) t=(10.00,40.00)}]
          RenderSVGText {text} at (0,0) size 62x14 contains 1 chunk(s)
            RenderSVGInlineText {#text} at (0,-11) size 62x14
              chunk 1 text run 1 at (0.00,0.00) startOffset 0 endOffset 13 width 62.00: "x positioning"
          RenderSVGText {text} at (0,40) size 62x14 contains 1 chunk(s)
            RenderSVGInlineText {#text} at (0,-11) size 62x14
              chunk 1 text run 1 at (0.00,40.00) startOffset 0 endOffset 13 width 62.00: "y positioning"
          RenderSVGText {text} at (0,140) size 71x14 contains 1 chunk(s)
            RenderSVGInlineText {#text} at (0,-11) size 71x14
              chunk 1 text run 1 at (0.00,140.00) startOffset 0 endOffset 15 width 71.00: "x/y positioning"
        RenderSVGContainer {g} at (210,91.67) size 296.67x31.67 [transform={m=((1.00,0.00)(0.00,1.00)) t=(100.00,40.00)}]
          RenderSVGContainer {use} at (210,91.67) size 13.33x31.67
            RenderSVGContainer {g} at (210,91.67) size 13.33x31.67 [transform={m=((1.00,0.00)(0.00,1.00)) t=(10.00,0.00)}]
              RenderSVGContainer {g} at (210,91.67) size 13.33x31.67
                RenderPath {line} at (215.83,91.67) size 1.67x25 [stroke={[type=SOLID] [color=#FF0000]}] [fill={[type=SOLID] [color=#8888FF]}] [data="M0.00,0.00 L0.00,-15.00"]
                RenderPath {rect} at (210,110) size 13.33x13.33 [fill={[type=SOLID] [color=#8888FF]}] [data="M-4.00,-4.00 L4.00,-4.00 L4.00,4.00 L-4.00,4.00"]
          RenderSVGContainer {use} at (493.33,91.67) size 13.33x31.67
            RenderSVGContainer {g} at (493.33,91.67) size 13.33x31.67 [transform={m=((1.00,0.00)(0.00,1.00)) t=(180.00,0.00)}]
              RenderSVGContainer {g} at (493.33,91.67) size 13.33x31.67
                RenderPath {line} at (499.17,91.67) size 1.67x25 [stroke={[type=SOLID] [color=#FF0000]}] [fill={[type=SOLID] [color=#FF0000]}] [data="M0.00,0.00 L0.00,-15.00"]
                RenderPath {rect} at (493.33,110) size 13.33x13.33 [fill={[type=SOLID] [color=#FF0000]}] [data="M-4.00,-4.00 L4.00,-4.00 L4.00,4.00 L-4.00,4.00"]
          RenderSVGContainer {use} at (260,91.67) size 13.33x31.67
            RenderSVGContainer {g} at (260,91.67) size 13.33x31.67 [transform={m=((1.00,0.00)(0.00,1.00)) t=(40.00,0.00)}]
              RenderSVGContainer {g} at (260,91.67) size 13.33x31.67
                RenderPath {line} at (265.83,91.67) size 1.67x25 [stroke={[type=SOLID] [color=#FF0000]}] [fill={[type=SOLID] [color=#8888FF]}] [data="M0.00,0.00 L0.00,-15.00"]
                RenderPath {rect} at (260,110) size 13.33x13.33 [fill={[type=SOLID] [color=#8888FF]}] [data="M-4.00,-4.00 L4.00,-4.00 L4.00,4.00 L-4.00,4.00"]
          RenderSVGContainer {use} at (310,91.67) size 13.33x31.67
            RenderSVGContainer {g} at (310,91.67) size 13.33x31.67 [transform={m=((1.00,0.00)(0.00,1.00)) t=(70.00,0.00)}]
              RenderSVGContainer {g} at (310,91.67) size 13.33x31.67
                RenderPath {line} at (315.83,91.67) size 1.67x25 [stroke={[type=SOLID] [color=#FF0000]}] [fill={[type=SOLID] [color=#8888FF]}] [data="M0.00,0.00 L0.00,-15.00"]
                RenderPath {rect} at (310,110) size 13.33x13.33 [fill={[type=SOLID] [color=#8888FF]}] [data="M-4.00,-4.00 L4.00,-4.00 L4.00,4.00 L-4.00,4.00"]
          RenderSVGContainer {use} at (360,91.67) size 13.33x31.67
            RenderSVGContainer {g} at (360,91.67) size 13.33x31.67 [transform={m=((1.00,0.00)(0.00,1.00)) t=(100.00,0.00)}]
              RenderSVGContainer {g} at (360,91.67) size 13.33x31.67
                RenderPath {line} at (365.83,91.67) size 1.67x25 [stroke={[type=SOLID] [color=#FF0000]}] [fill={[type=SOLID] [color=#8888FF]}] [data="M0.00,0.00 L0.00,-15.00"]
                RenderPath {rect} at (360,110) size 13.33x13.33 [fill={[type=SOLID] [color=#8888FF]}] [data="M-4.00,-4.00 L4.00,-4.00 L4.00,4.00 L-4.00,4.00"]
          RenderSVGContainer {use} at (410,91.67) size 13.33x31.67
            RenderSVGContainer {g} at (410,91.67) size 13.33x31.67 [transform={m=((1.00,0.00)(0.00,1.00)) t=(130.00,0.00)}]
              RenderSVGContainer {g} at (410,91.67) size 13.33x31.67
                RenderPath {line} at (415.83,91.67) size 1.67x25 [stroke={[type=SOLID] [color=#FF0000]}] [fill={[type=SOLID] [color=#8888FF]}] [data="M0.00,0.00 L0.00,-15.00"]
                RenderPath {rect} at (410,110) size 13.33x13.33 [fill={[type=SOLID] [color=#8888FF]}] [data="M-4.00,-4.00 L4.00,-4.00 L4.00,4.00 L-4.00,4.00"]
          RenderSVGText {text} at (10,0) size 135x11 contains 5 chunk(s)
            RenderSVGInlineText {#text} at (0,-9) size 135x11
              chunk 1 text run 1 at (10.00,0.00) startOffset 0 endOffset 2 width 15.00: "fi"
              chunk 2 text run 1 at (40.00,0.00) startOffset 2 endOffset 3 width 15.00: "1"
              chunk 3 text run 1 at (70.00,0.00) startOffset 3 endOffset 4 width 15.00: "2"
              chunk 4 text run 1 at (100.00,0.00) startOffset 4 endOffset 5 width 15.00: "3"
              chunk 5 text run 1 at (130.00,0.00) startOffset 5 endOffset 6 width 15.00: "4"
        RenderSVGContainer {g} at (193.33,141.67) size 131.67x131.67 [transform={m=((1.00,0.00)(0.00,1.00)) t=(100.00,80.00)}]
          RenderSVGContainer {use} at (193.33,141.67) size 13.33x31.67
            RenderSVGContainer {g} at (193.33,141.67) size 13.33x31.67 [transform={m=((1.00,0.00)(0.00,1.00)) t=(0.00,-10.00)}]
              RenderSVGContainer {g} at (193.33,141.67) size 13.33x31.67
                RenderPath {line} at (199.17,141.67) size 1.67x25 [stroke={[type=SOLID] [color=#FF0000]}] [fill={[type=SOLID] [color=#8888FF]}] [data="M0.00,0.00 L0.00,-15.00"]
                RenderPath {rect} at (193.33,160.00) size 13.33x13.33 [fill={[type=SOLID] [color=#8888FF]}] [data="M-4.00,-4.00 L4.00,-4.00 L4.00,4.00 L-4.00,4.00"]
          RenderSVGContainer {use} at (218.33,241.67) size 13.33x31.67
            RenderSVGContainer {g} at (218.33,241.67) size 13.33x31.67 [transform={m=((1.00,0.00)(0.00,1.00)) t=(15.00,50.00)}]
              RenderSVGContainer {g} at (218.33,241.67) size 13.33x31.67
                RenderPath {line} at (224.17,241.67) size 1.67x25 [stroke={[type=SOLID] [color=#FF0000]}] [fill={[type=SOLID] [color=#FF0000]}] [data="M0.00,0.00 L0.00,-15.00"]
                RenderPath {rect} at (218.33,260) size 13.33x13.33 [fill={[type=SOLID] [color=#FF0000]}] [data="M-4.00,-4.00 L4.00,-4.00 L4.00,4.00 L-4.00,4.00"]
          RenderSVGContainer {use} at (218.33,158.33) size 13.33x31.67
            RenderSVGContainer {g} at (218.33,158.33) size 13.33x31.67 [transform={m=((1.00,0.00)(0.00,1.00)) t=(15.00,0.00)}]
              RenderSVGContainer {g} at (218.33,158.33) size 13.33x31.67
                RenderPath {line} at (224.17,158.33) size 1.67x25 [stroke={[type=SOLID] [color=#FF0000]}] [fill={[type=SOLID] [color=#8888FF]}] [data="M0.00,0.00 L0.00,-15.00"]
                RenderPath {rect} at (218.33,176.67) size 13.33x13.33 [fill={[type=SOLID] [color=#8888FF]}] [data="M-4.00,-4.00 L4.00,-4.00 L4.00,4.00 L-4.00,4.00"]
          RenderSVGContainer {use} at (243.33,175) size 13.33x31.67
            RenderSVGContainer {g} at (243.33,175) size 13.33x31.67 [transform={m=((1.00,0.00)(0.00,1.00)) t=(30.00,10.00)}]
              RenderSVGContainer {g} at (243.33,175) size 13.33x31.67
                RenderPath {line} at (249.17,175) size 1.67x25 [stroke={[type=SOLID] [color=#FF0000]}] [fill={[type=SOLID] [color=#8888FF]}] [data="M0.00,0.00 L0.00,-15.00"]
                RenderPath {rect} at (243.33,193.33) size 13.33x13.33 [fill={[type=SOLID] [color=#8888FF]}] [data="M-4.00,-4.00 L4.00,-4.00 L4.00,4.00 L-4.00,4.00"]
          RenderSVGContainer {use} at (268.33,191.67) size 13.33x31.67
            RenderSVGContainer {g} at (268.33,191.67) size 13.33x31.67 [transform={m=((1.00,0.00)(0.00,1.00)) t=(45.00,20.00)}]
              RenderSVGContainer {g} at (268.33,191.67) size 13.33x31.67
                RenderPath {line} at (274.17,191.67) size 1.67x25 [stroke={[type=SOLID] [color=#FF0000]}] [fill={[type=SOLID] [color=#8888FF]}] [data="M0.00,0.00 L0.00,-15.00"]
                RenderPath {rect} at (268.33,210.00) size 13.33x13.33 [fill={[type=SOLID] [color=#8888FF]}] [data="M-4.00,-4.00 L4.00,-4.00 L4.00,4.00 L-4.00,4.00"]
          RenderSVGContainer {use} at (293.33,208.33) size 13.33x31.67
            RenderSVGContainer {g} at (293.33,208.33) size 13.33x31.67 [transform={m=((1.00,0.00)(0.00,1.00)) t=(60.00,30.00)}]
              RenderSVGContainer {g} at (293.33,208.33) size 13.33x31.67
                RenderPath {line} at (299.17,208.33) size 1.67x25 [stroke={[type=SOLID] [color=#FF0000]}] [fill={[type=SOLID] [color=#8888FF]}] [data="M0.00,0.00 L0.00,-15.00"]
                RenderPath {rect} at (293.33,226.67) size 13.33x13.33 [fill={[type=SOLID] [color=#8888FF]}] [data="M-4.00,-4.00 L4.00,-4.00 L4.00,4.00 L-4.00,4.00"]
          RenderSVGText {text} at (0,-10) size 75x51 contains 1 chunk(s)
            RenderSVGInlineText {#text} at (0,-9) size 75x51
              chunk 1 text run 1 at (0.00,-10.00) startOffset 0 endOffset 6 width 75.00: "fi1234"
        RenderSVGContainer {g} at (210,308.33) size 296.67x131.67 [transform={m=((1.00,0.00)(0.00,1.00)) t=(100.00,180.00)}]
          RenderSVGContainer {use} at (210,308.33) size 13.33x31.67
            RenderSVGContainer {g} at (210,308.33) size 13.33x31.67 [transform={m=((1.00,0.00)(0.00,1.00)) t=(10.00,-10.00)}]
              RenderSVGContainer {g} at (210,308.33) size 13.33x31.67
                RenderPath {line} at (215.83,308.33) size 1.67x25 [stroke={[type=SOLID] [color=#FF0000]}] [fill={[type=SOLID] [color=#8888FF]}] [data="M0.00,0.00 L0.00,-15.00"]
                RenderPath {rect} at (210,326.67) size 13.33x13.33 [fill={[type=SOLID] [color=#8888FF]}] [data="M-4.00,-4.00 L4.00,-4.00 L4.00,4.00 L-4.00,4.00"]
          RenderSVGContainer {use} at (493.33,408.33) size 13.33x31.67
            RenderSVGContainer {g} at (493.33,408.33) size 13.33x31.67 [transform={m=((1.00,0.00)(0.00,1.00)) t=(180.00,50.00)}]
              RenderSVGContainer {g} at (493.33,408.33) size 13.33x31.67
                RenderPath {line} at (499.17,408.33) size 1.67x25 [stroke={[type=SOLID] [color=#FF0000]}] [fill={[type=SOLID] [color=#FF0000]}] [data="M0.00,0.00 L0.00,-15.00"]
                RenderPath {rect} at (493.33,426.67) size 13.33x13.33 [fill={[type=SOLID] [color=#FF0000]}] [data="M-4.00,-4.00 L4.00,-4.00 L4.00,4.00 L-4.00,4.00"]
          RenderSVGContainer {use} at (260,325) size 13.33x31.67
            RenderSVGContainer {g} at (260,325) size 13.33x31.67 [transform={m=((1.00,0.00)(0.00,1.00)) t=(40.00,0.00)}]
              RenderSVGContainer {g} at (260,325) size 13.33x31.67
                RenderPath {line} at (265.83,325) size 1.67x25 [stroke={[type=SOLID] [color=#FF0000]}] [fill={[type=SOLID] [color=#8888FF]}] [data="M0.00,0.00 L0.00,-15.00"]
                RenderPath {rect} at (260,343.33) size 13.33x13.33 [fill={[type=SOLID] [color=#8888FF]}] [data="M-4.00,-4.00 L4.00,-4.00 L4.00,4.00 L-4.00,4.00"]
          RenderSVGContainer {use} at (310,341.67) size 13.33x31.67
            RenderSVGContainer {g} at (310,341.67) size 13.33x31.67 [transform={m=((1.00,0.00)(0.00,1.00)) t=(70.00,10.00)}]
              RenderSVGContainer {g} at (310,341.67) size 13.33x31.67
                RenderPath {line} at (315.83,341.67) size 1.67x25 [stroke={[type=SOLID] [color=#FF0000]}] [fill={[type=SOLID] [color=#8888FF]}] [data="M0.00,0.00 L0.00,-15.00"]
                RenderPath {rect} at (310,360) size 13.33x13.33 [fill={[type=SOLID] [color=#8888FF]}] [data="M-4.00,-4.00 L4.00,-4.00 L4.00,4.00 L-4.00,4.00"]
          RenderSVGContainer {use} at (360,358.33) size 13.33x31.67
            RenderSVGContainer {g} at (360,358.33) size 13.33x31.67 [transform={m=((1.00,0.00)(0.00,1.00)) t=(100.00,20.00)}]
              RenderSVGContainer {g} at (360,358.33) size 13.33x31.67
                RenderPath {line} at (365.83,358.33) size 1.67x25 [stroke={[type=SOLID] [color=#FF0000]}] [fill={[type=SOLID] [color=#8888FF]}] [data="M0.00,0.00 L0.00,-15.00"]
                RenderPath {rect} at (360,376.67) size 13.33x13.33 [fill={[type=SOLID] [color=#8888FF]}] [data="M-4.00,-4.00 L4.00,-4.00 L4.00,4.00 L-4.00,4.00"]
          RenderSVGContainer {use} at (410,375) size 13.33x31.67
            RenderSVGContainer {g} at (410,375) size 13.33x31.67 [transform={m=((1.00,0.00)(0.00,1.00)) t=(130.00,30.00)}]
              RenderSVGContainer {g} at (410,375) size 13.33x31.67
                RenderPath {line} at (415.83,375) size 1.67x25 [stroke={[type=SOLID] [color=#FF0000]}] [fill={[type=SOLID] [color=#8888FF]}] [data="M0.00,0.00 L0.00,-15.00"]
                RenderPath {rect} at (410,393.33) size 13.33x13.33 [fill={[type=SOLID] [color=#8888FF]}] [data="M-4.00,-4.00 L4.00,-4.00 L4.00,4.00 L-4.00,4.00"]
          RenderSVGText {text} at (10,-10) size 135x51 contains 5 chunk(s)
            RenderSVGInlineText {#text} at (0,-9) size 135x51
              chunk 1 text run 1 at (10.00,-10.00) startOffset 0 endOffset 2 width 15.00: "fi"
              chunk 2 text run 1 at (40.00,0.00) startOffset 2 endOffset 3 width 15.00: "1"
              chunk 3 text run 1 at (70.00,10.00) startOffset 3 endOffset 4 width 15.00: "2"
              chunk 4 text run 1 at (100.00,20.00) startOffset 4 endOffset 5 width 15.00: "3"
              chunk 5 text run 1 at (130.00,30.00) startOffset 5 endOffset 6 width 15.00: "4"
    RenderSVGText {text} at (10,340) size 264x46 contains 1 chunk(s)
      RenderSVGInlineText {#text} at (0,-36) size 264x46
        chunk 1 text run 1 at (10.00,340.00) startOffset 0 endOffset 16 width 264.00: "$Revision: 1.9 $"
    RenderPath {rect} at (0.83,0.83) size 798.33x598.33 [stroke={[type=SOLID] [color=#000000]}] [data="M1.00,1.00 L479.00,1.00 L479.00,359.00 L1.00,359.00"]
selection start: position 0 of child 0 {#text} of child 1 {text} of child 1 {g} of child 5 {g} of child 3 {g} of child 12 {svg} of document
selection end:   position 16 of child 0 {#text} of child 5 {text} of child 12 {svg} of document
