layer at (0,0) size 800x600
  RenderView at (0,0) size 800x600
layer at (0,0) size 300x200
  RenderSVGRoot {svg} at (10,10) size 280x110
    RenderPath {rect} at (10,10) size 280x50 [fill={[type=SOLID] [color=#FF0000]}] [data="M10.00,10.00 L290.00,10.00 L290.00,60.00 L10.00,60.00"]
    RenderPath {rect} at (10,10) size 280x50 [fill={[type=SOLID] [color=#000000]}] [data="M10.00,10.00 L290.00,10.00 L290.00,60.00 L10.00,60.00"]
    RenderPath {rect} at (10,70) size 280x50 [fill={[type=SOLID] [color=#008000]}] [data="M10.00,70.00 L290.00,70.00 L290.00,120.00 L10.00,120.00"]
